<?xml version="1.0" encoding="UTF-8" standalone="no"?>
<!-- Created with Inkscape (http://www.inkscape.org/) -->

<svg
   xmlns:dc="http://purl.org/dc/elements/1.1/"
   xmlns:cc="http://creativecommons.org/ns#"
   xmlns:rdf="http://www.w3.org/1999/02/22-rdf-syntax-ns#"
   xmlns:svg="http://www.w3.org/2000/svg"
   xmlns="http://www.w3.org/2000/svg"
   xmlns:xlink="http://www.w3.org/1999/xlink"
   xmlns:sodipodi="http://sodipodi.sourceforge.net/DTD/sodipodi-0.dtd"
   xmlns:inkscape="http://www.inkscape.org/namespaces/inkscape"
   width="820"
   height="250"
   id="svg4795"
   version="1.1"
   inkscape:version="0.92.1 r15371"
   sodipodi:docname="cabecalho-fb-grupo.svg"
   inkscape:export-filename="/home/phls/phls/eventos/sfd/2017/cabecalhos-logos/cabecalho-fb-grupo.png"
   inkscape:export-xdpi="96"
   inkscape:export-ydpi="96">
  <defs
     id="defs4797">
    <linearGradient
       y2="528.95258"
       x2="1269.0142"
       y1="442.94241"
       x1="1269.0142"
       gradientUnits="userSpaceOnUse"
       id="SVGID_8_"
       gradientTransform="matrix(0.54311718,0,0,0.54311718,822.50399,281.54735)">
      <stop
         id="stop119"
         style="stop-color:#F7EC30"
         offset="0" />
      <stop
         id="stop121"
         style="stop-color:#FAAE40"
         offset="1" />
    </linearGradient>
    <linearGradient
       y2="528.95258"
       x2="1308.5015"
       y1="442.94241"
       x1="1308.5015"
       gradientUnits="userSpaceOnUse"
       id="SVGID_9_"
       gradientTransform="matrix(0.54311718,0,0,0.54311718,822.50399,281.54735)">
      <stop
         id="stop126"
         style="stop-color:#F7EC30"
         offset="0" />
      <stop
         id="stop128"
         style="stop-color:#FAAE40"
         offset="1" />
    </linearGradient>
    <linearGradient
       y2="528.95282"
       x2="1374.6177"
       y1="442.94241"
       x1="1374.6177"
       gradientUnits="userSpaceOnUse"
       id="SVGID_10_"
       gradientTransform="matrix(0.54311718,0,0,0.54311718,822.50399,281.54735)">
      <stop
         id="stop133"
         style="stop-color:#F7EC30"
         offset="0" />
      <stop
         id="stop135"
         style="stop-color:#FAAE40"
         offset="1" />
    </linearGradient>
    <linearGradient
       y2="528.95258"
       x2="1416.5259"
       y1="442.94241"
       x1="1416.5259"
       gradientUnits="userSpaceOnUse"
       id="SVGID_11_"
       gradientTransform="matrix(0.54311718,0,0,0.54311718,822.50399,281.54735)">
      <stop
         id="stop140"
         style="stop-color:#F7EC30"
         offset="0" />
      <stop
         id="stop142"
         style="stop-color:#FAAE40"
         offset="1" />
    </linearGradient>
    <linearGradient
       y2="528.95288"
       x2="1461.6812"
       y1="442.94241"
       x1="1461.6812"
       gradientUnits="userSpaceOnUse"
       id="SVGID_12_"
       gradientTransform="matrix(0.54311718,0,0,0.54311718,822.50399,281.54735)">
      <stop
         id="stop147"
         style="stop-color:#F7EC30"
         offset="0" />
      <stop
         id="stop149"
         style="stop-color:#FAAE40"
         offset="1" />
    </linearGradient>
    <linearGradient
       y2="528.95282"
       x2="1497.3179"
       y1="442.94241"
       x1="1497.3179"
       gradientUnits="userSpaceOnUse"
       id="SVGID_13_"
       gradientTransform="matrix(0.54311718,0,0,0.54311718,822.50399,281.54735)">
      <stop
         id="stop154"
         style="stop-color:#F7EC30"
         offset="0" />
      <stop
         id="stop156"
         style="stop-color:#FAAE40"
         offset="1" />
    </linearGradient>
    <linearGradient
       y2="528.95258"
       x2="1528.5015"
       y1="442.94241"
       x1="1528.5015"
       gradientUnits="userSpaceOnUse"
       id="SVGID_14_"
       gradientTransform="matrix(0.54311718,0,0,0.54311718,822.50399,281.54735)">
      <stop
         id="stop161"
         style="stop-color:#F7EC30"
         offset="0" />
      <stop
         id="stop163"
         style="stop-color:#FAAE40"
         offset="1" />
    </linearGradient>
    <linearGradient
       id="SVGID_15_"
       gradientUnits="userSpaceOnUse"
       x1="1345.8628"
       y1="442.94241"
       x2="1345.8628"
       y2="528.9527">
      <stop
         offset="0"
         style="stop-color:#F7EC30"
         id="stop170" />
      <stop
         offset="1"
         style="stop-color:#FAAE40"
         id="stop172" />
    </linearGradient>
    <linearGradient
       id="SVGID_16_"
       gradientUnits="userSpaceOnUse"
       x1="1351.5776"
       y1="468.0029"
       x2="1359.3276"
       y2="478.5029">
      <stop
         offset="0"
         style="stop-color:#F69220"
         id="stop177" />
      <stop
         offset="0.4724"
         style="stop-color:#F05A29"
         id="stop179" />
      <stop
         offset="0.4785"
         style="stop-color:#EE4037"
         id="stop181" />
      <stop
         offset="1"
         style="stop-color:#F05A29"
         id="stop183" />
    </linearGradient>
    <linearGradient
       id="SVGID_17_"
       gradientUnits="userSpaceOnUse"
       x1="1347.0435"
       y1="442.94241"
       x2="1347.0435"
       y2="528.95282">
      <stop
         offset="0"
         style="stop-color:#F7EC30"
         id="stop188" />
      <stop
         offset="1"
         style="stop-color:#FAAE40"
         id="stop190" />
    </linearGradient>
    <linearGradient
       gradientTransform="translate(-82.071561,5.9688408)"
       id="SVGID_18_"
       gradientUnits="userSpaceOnUse"
       x1="1311.0884"
       y1="525.43262"
       x2="1311.0884"
       y2="592.15198">
      <stop
         offset="0"
         style="stop-color:#F7EC30"
         id="stop197" />
      <stop
         offset="1"
         style="stop-color:#FAAE40"
         id="stop199" />
    </linearGradient>
    <linearGradient
       gradientTransform="translate(-82.071561,5.9688408)"
       id="SVGID_19_"
       gradientUnits="userSpaceOnUse"
       x1="1342.9888"
       y1="525.43262"
       x2="1342.9888"
       y2="592.15198">
      <stop
         offset="0"
         style="stop-color:#F7EC30"
         id="stop204" />
      <stop
         offset="1"
         style="stop-color:#FAAE40"
         id="stop206" />
    </linearGradient>
    <linearGradient
       gradientTransform="translate(-82.071561,5.9688408)"
       id="SVGID_20_"
       gradientUnits="userSpaceOnUse"
       x1="1374.1724"
       y1="525.43262"
       x2="1374.1724"
       y2="592.15198">
      <stop
         offset="0"
         style="stop-color:#F7EC30"
         id="stop211" />
      <stop
         offset="1"
         style="stop-color:#FAAE40"
         id="stop213" />
    </linearGradient>
    <linearGradient
       gradientTransform="translate(-82.071561,5.9688408)"
       id="SVGID_21_"
       gradientUnits="userSpaceOnUse"
       x1="1410.6265"
       y1="525.43262"
       x2="1410.6265"
       y2="592.15198">
      <stop
         offset="0"
         style="stop-color:#F7EC30"
         id="stop218" />
      <stop
         offset="1"
         style="stop-color:#FAAE40"
         id="stop220" />
    </linearGradient>
    <linearGradient
       gradientTransform="translate(-82.071561,5.9688408)"
       id="SVGID_22_"
       gradientUnits="userSpaceOnUse"
       x1="1488.9077"
       y1="525.43262"
       x2="1488.9077"
       y2="592.15198">
      <stop
         offset="0"
         style="stop-color:#F7EC30"
         id="stop225" />
      <stop
         offset="1"
         style="stop-color:#FAAE40"
         id="stop227" />
    </linearGradient>
    <linearGradient
       gradientTransform="translate(-82.071561,5.9688408)"
       id="SVGID_23_"
       gradientUnits="userSpaceOnUse"
       x1="1537.7075"
       y1="525.43262"
       x2="1537.7075"
       y2="592.15179">
      <stop
         offset="0"
         style="stop-color:#F7EC30"
         id="stop232" />
      <stop
         offset="1"
         style="stop-color:#FAAE40"
         id="stop234" />
    </linearGradient>
    <linearGradient
       gradientTransform="translate(-82.071561,5.9688408)"
       id="SVGID_24_"
       gradientUnits="userSpaceOnUse"
       x1="1610.3276"
       y1="525.43262"
       x2="1610.3276"
       y2="592.15198">
      <stop
         offset="0"
         style="stop-color:#F7EC30"
         id="stop239" />
      <stop
         offset="1"
         style="stop-color:#FAAE40"
         id="stop241" />
    </linearGradient>
    <linearGradient
       gradientTransform="translate(-82.071561,5.9688408)"
       id="SVGID_25_"
       gradientUnits="userSpaceOnUse"
       x1="1657.4478"
       y1="525.43262"
       x2="1657.4478"
       y2="592.15192">
      <stop
         offset="0"
         style="stop-color:#F7EC30"
         id="stop246" />
      <stop
         offset="1"
         style="stop-color:#FAAE40"
         id="stop248" />
    </linearGradient>
    <linearGradient
       gradientTransform="translate(-82.071561,5.9688408)"
       id="SVGID_26_"
       gradientUnits="userSpaceOnUse"
       x1="1697.5337"
       y1="525.43262"
       x2="1697.5337"
       y2="592.15222">
      <stop
         offset="0"
         style="stop-color:#F7EC30"
         id="stop253" />
      <stop
         offset="1"
         style="stop-color:#FAAE40"
         id="stop255" />
    </linearGradient>
    <linearGradient
       id="SVGID_27_"
       gradientUnits="userSpaceOnUse"
       x1="1451.0493"
       y1="525.43262"
       x2="1451.0493"
       y2="592.15198">
      <stop
         offset="0"
         style="stop-color:#F7EC30"
         id="stop264" />
      <stop
         offset="1"
         style="stop-color:#FAAE40"
         id="stop266" />
    </linearGradient>
    <linearGradient
       inkscape:collect="always"
       xlink:href="#SVGID_1_"
       id="linearGradient4205"
       gradientUnits="userSpaceOnUse"
       gradientTransform="matrix(0.18993002,-0.77650682,-0.77650682,-0.18993002,-351.30465,-853.47702)"
       x1="-1614.2603"
       y1="-3351.7031"
       x2="-1594.7587"
       y2="-3354.7063" />
    <linearGradient
       id="SVGID_1_"
       gradientUnits="userSpaceOnUse"
       x1="-1614.2603"
       y1="-3351.7031"
       x2="-1594.7587"
       y2="-3354.7063"
       gradientTransform="matrix(0.2376,-0.9714,-0.9714,-0.2376,-1794.3491,-1897.8428)">
      <stop
         offset="0"
         style="stop-color:#F7EC30"
         id="stop68" />
      <stop
         offset="1"
         style="stop-color:#FAAE40"
         id="stop70" />
    </linearGradient>
    <linearGradient
       inkscape:collect="always"
       xlink:href="#SVGID_2_"
       id="linearGradient4207"
       gradientUnits="userSpaceOnUse"
       gradientTransform="matrix(0.68417971,-0.41335359,-0.41335359,-0.68417971,-717.55276,-4919.3951)"
       x1="-954.73187"
       y1="-8102.7666"
       x2="-933.92493"
       y2="-8105.9707" />
    <linearGradient
       id="SVGID_2_"
       gradientUnits="userSpaceOnUse"
       x1="-954.73187"
       y1="-8102.7666"
       x2="-933.92493"
       y2="-8105.9707"
       gradientTransform="matrix(0.8559,-0.5171,-0.5171,-0.8559,-2252.5208,-6984.2539)">
      <stop
         offset="0"
         style="stop-color:#F7EC30"
         id="stop75" />
      <stop
         offset="1"
         style="stop-color:#FAAE40"
         id="stop77" />
    </linearGradient>
    <linearGradient
       inkscape:collect="always"
       xlink:href="#SVGID_3_"
       id="linearGradient4209"
       gradientUnits="userSpaceOnUse"
       gradientTransform="matrix(0.79912895,0.0195046,0.0195046,-0.79912895,2331.7521,-7143.3593)"
       x1="-144.41209"
       y1="-10218.174"
       x2="-119.9794"
       y2="-10221.937" />
    <linearGradient
       id="SVGID_3_"
       gradientUnits="userSpaceOnUse"
       x1="-144.41209"
       y1="-10218.174"
       x2="-119.9794"
       y2="-10221.937"
       gradientTransform="matrix(0.9997,0.0244,0.0244,-0.9997,1562.1204,-9766.4043)">
      <stop
         offset="0"
         style="stop-color:#F7EC30"
         id="stop82" />
      <stop
         offset="1"
         style="stop-color:#FAAE40"
         id="stop84" />
    </linearGradient>
    <linearGradient
       inkscape:collect="always"
       xlink:href="#SVGID_4_"
       id="linearGradient4211"
       gradientUnits="userSpaceOnUse"
       gradientTransform="matrix(0.64109375,0.47746298,0.47746298,-0.64109375,6260.5217,-6232.4151)"
       x1="1211.4604"
       y1="-10449.884"
       x2="1236.5042"
       y2="-10453.74" />
    <linearGradient
       id="SVGID_4_"
       gradientUnits="userSpaceOnUse"
       x1="1211.4604"
       y1="-10449.884"
       x2="1236.5042"
       y2="-10453.74"
       gradientTransform="matrix(0.802,0.5973,0.5973,-0.802,6476.9604,-8626.8252)">
      <stop
         offset="0"
         style="stop-color:#F7EC30"
         id="stop89" />
      <stop
         offset="1"
         style="stop-color:#FAAE40"
         id="stop91" />
    </linearGradient>
    <linearGradient
       inkscape:collect="always"
       xlink:href="#SVGID_5_"
       id="linearGradient4213"
       gradientUnits="userSpaceOnUse"
       gradientTransform="matrix(-0.26594998,-0.75380474,-0.75380474,0.26594998,1769.786,-155.14025)"
       x1="-1503.7524"
       y1="321.96829"
       x2="-1486.8414"
       y2="319.36411" />
    <linearGradient
       id="SVGID_5_"
       gradientUnits="userSpaceOnUse"
       x1="-1503.7524"
       y1="321.96829"
       x2="-1486.8414"
       y2="319.36411"
       gradientTransform="matrix(-0.3327,-0.943,-0.943,0.3327,859.1079,-1024.2324)">
      <stop
         offset="0"
         style="stop-color:#F7EC30"
         id="stop96" />
      <stop
         offset="1"
         style="stop-color:#FAAE40"
         id="stop98" />
    </linearGradient>
    <linearGradient
       inkscape:collect="always"
       xlink:href="#SVGID_6_"
       id="linearGradient4215"
       gradientUnits="userSpaceOnUse"
       gradientTransform="matrix(-0.51903013,-0.60791995,-0.60791995,0.51903013,2444.8258,-1180.248)"
       x1="-1737.5259"
       y1="2340.3887"
       x2="-1723.9701"
       y2="2338.3013" />
    <linearGradient
       id="SVGID_6_"
       gradientUnits="userSpaceOnUse"
       x1="-1737.5259"
       y1="2340.3887"
       x2="-1723.9701"
       y2="2338.3013"
       gradientTransform="matrix(-0.6493,-0.7605,-0.7605,0.6493,1703.574,-2306.6292)">
      <stop
         offset="0"
         style="stop-color:#F7EC30"
         id="stop103" />
      <stop
         offset="1"
         style="stop-color:#FAAE40"
         id="stop105" />
    </linearGradient>
    <linearGradient
       inkscape:collect="always"
       xlink:href="#SVGID_7_"
       id="linearGradient4217"
       gradientUnits="userSpaceOnUse"
       gradientTransform="matrix(-0.78362119,-0.15787534,-0.15787534,0.78362119,1907.3361,-1544.0026)"
       x1="-688.5752"
       y1="3252.9277"
       x2="-677.97119"
       y2="3251.2949" />
    <linearGradient
       id="SVGID_7_"
       gradientUnits="userSpaceOnUse"
       x1="-688.5752"
       y1="3252.9277"
       x2="-677.97119"
       y2="3251.2949"
       gradientTransform="matrix(-0.9803,-0.1975,-0.1975,0.9803,1031.1814,-2761.6814)">
      <stop
         offset="0"
         style="stop-color:#F7EC30"
         id="stop110" />
      <stop
         offset="1"
         style="stop-color:#FAAE40"
         id="stop112" />
    </linearGradient>
    <linearGradient
       inkscape:collect="always"
       xlink:href="#SVGID_28_"
       id="linearGradient4219"
       gradientUnits="userSpaceOnUse"
       gradientTransform="matrix(0.79936876,0,0,0.79936876,1083.042,663.59917)"
       x1="1074.7251"
       y1="564.8623"
       x2="1194.7563"
       y2="564.8623" />
    <linearGradient
       id="SVGID_28_"
       gradientUnits="userSpaceOnUse"
       x1="1074.7251"
       y1="564.8623"
       x2="1194.7563"
       y2="564.8623">
      <stop
         offset="0"
         style="stop-color:#F7EC30"
         id="stop279" />
      <stop
         offset="1"
         style="stop-color:#FAAE40"
         id="stop281" />
    </linearGradient>
    <linearGradient
       inkscape:collect="always"
       xlink:href="#SVGID_29_"
       id="linearGradient4221"
       gradientUnits="userSpaceOnUse"
       gradientTransform="matrix(0.79936876,0,0,0.79936876,1083.042,663.59917)"
       x1="1074.7251"
       y1="515.80762"
       x2="1194.7563"
       y2="515.80762" />
    <linearGradient
       id="SVGID_29_"
       gradientUnits="userSpaceOnUse"
       x1="1074.7251"
       y1="515.80762"
       x2="1194.7563"
       y2="515.80762">
      <stop
         offset="0"
         style="stop-color:#F7EC30"
         id="stop286" />
      <stop
         offset="1"
         style="stop-color:#FAAE40"
         id="stop288" />
    </linearGradient>
    <linearGradient
       inkscape:collect="always"
       xlink:href="#SVGID_30_"
       id="linearGradient4223"
       gradientUnits="userSpaceOnUse"
       gradientTransform="matrix(0.79936876,0,0,0.79936876,1083.042,663.59917)"
       x1="1074.7251"
       y1="524.61823"
       x2="1194.7563"
       y2="524.61823" />
    <linearGradient
       id="SVGID_30_"
       gradientUnits="userSpaceOnUse"
       x1="1074.7251"
       y1="524.61823"
       x2="1194.7563"
       y2="524.61823">
      <stop
         offset="0"
         style="stop-color:#F7EC30"
         id="stop293" />
      <stop
         offset="1"
         style="stop-color:#FAAE40"
         id="stop295" />
    </linearGradient>
    <linearGradient
       inkscape:collect="always"
       xlink:href="#SVGID_31_"
       id="linearGradient4225"
       gradientUnits="userSpaceOnUse"
       gradientTransform="matrix(-0.79936876,0,0,0.79936876,2513.4218,663.59917)"
       x1="534.01422"
       y1="551.48187"
       x2="729.9198"
       y2="551.48187" />
    <linearGradient
       id="SVGID_31_"
       gradientUnits="userSpaceOnUse"
       x1="534.01422"
       y1="551.48187"
       x2="729.9198"
       y2="551.48187"
       gradientTransform="matrix(-1,0,0,1,1789.3867,0)">
      <stop
         offset="0"
         style="stop-color:#8BC541"
         id="stop302" />
      <stop
         offset="1"
         style="stop-color:#39B24A"
         id="stop304" />
    </linearGradient>
    <linearGradient
       inkscape:collect="always"
       xlink:href="#SVGID_32_"
       id="linearGradient4227"
       gradientUnits="userSpaceOnUse"
       gradientTransform="matrix(-0.79936876,0,0,0.79936876,2514.7029,663.59917)"
       x1="538.40771"
       y1="567.83539"
       x2="723.15167"
       y2="567.83539" />
    <linearGradient
       id="SVGID_32_"
       gradientUnits="userSpaceOnUse"
       x1="538.40771"
       y1="567.83539"
       x2="723.15167"
       y2="567.83539"
       gradientTransform="matrix(-1,0,0,1,1790.9893,0)">
      <stop
         offset="0"
         style="stop-color:#FFFFFF"
         id="stop311" />
      <stop
         offset="1"
         style="stop-color:#FFFFFF;stop-opacity:0"
         id="stop313" />
    </linearGradient>
    <linearGradient
       inkscape:collect="always"
       xlink:href="#SVGID_15_"
       id="linearGradient5747"
       gradientUnits="userSpaceOnUse"
       gradientTransform="matrix(0.55310282,0,0,0.55310282,1101.0367,844.38178)"
       x1="1345.8628"
       y1="442.94241"
       x2="1345.8628"
       y2="528.9527" />
    <linearGradient
       inkscape:collect="always"
       xlink:href="#SVGID_16_"
       id="linearGradient5749"
       gradientUnits="userSpaceOnUse"
       gradientTransform="matrix(0.55310282,0,0,0.55310282,1101.0367,844.38178)"
       x1="1351.5776"
       y1="468.0029"
       x2="1359.3276"
       y2="478.5029" />
    <linearGradient
       inkscape:collect="always"
       xlink:href="#SVGID_17_"
       id="linearGradient5751"
       gradientUnits="userSpaceOnUse"
       gradientTransform="matrix(0.55310282,0,0,0.55310282,1101.0367,844.38178)"
       x1="1347.0435"
       y1="442.94241"
       x2="1347.0435"
       y2="528.95282" />
    <linearGradient
       inkscape:collect="always"
       xlink:href="#SVGID_18_"
       id="linearGradient5753"
       gradientUnits="userSpaceOnUse"
       gradientTransform="matrix(0.55310282,0,0,0.55310282,687.44956,920.91175)"
       x1="1311.0884"
       y1="525.43262"
       x2="1311.0884"
       y2="592.15198" />
    <linearGradient
       inkscape:collect="always"
       xlink:href="#SVGID_19_"
       id="linearGradient5755"
       gradientUnits="userSpaceOnUse"
       gradientTransform="matrix(0.55310282,0,0,0.55310282,687.44956,920.91175)"
       x1="1342.9888"
       y1="525.43262"
       x2="1342.9888"
       y2="592.15198" />
    <linearGradient
       inkscape:collect="always"
       xlink:href="#SVGID_20_"
       id="linearGradient5757"
       gradientUnits="userSpaceOnUse"
       gradientTransform="matrix(0.55310282,0,0,0.55310282,687.44956,920.91175)"
       x1="1374.1724"
       y1="525.43262"
       x2="1374.1724"
       y2="592.15198" />
    <linearGradient
       inkscape:collect="always"
       xlink:href="#SVGID_21_"
       id="linearGradient5759"
       gradientUnits="userSpaceOnUse"
       gradientTransform="matrix(0.55310282,0,0,0.55310282,687.44956,920.91175)"
       x1="1410.6265"
       y1="525.43262"
       x2="1410.6265"
       y2="592.15198" />
    <linearGradient
       inkscape:collect="always"
       xlink:href="#SVGID_22_"
       id="linearGradient5761"
       gradientUnits="userSpaceOnUse"
       gradientTransform="matrix(0.55310282,0,0,0.55310282,687.44956,920.91175)"
       x1="1488.9077"
       y1="525.43262"
       x2="1488.9077"
       y2="592.15198" />
    <linearGradient
       inkscape:collect="always"
       xlink:href="#SVGID_23_"
       id="linearGradient5763"
       gradientUnits="userSpaceOnUse"
       gradientTransform="matrix(0.55310282,0,0,0.55310282,687.44956,920.91175)"
       x1="1537.7075"
       y1="525.43262"
       x2="1537.7075"
       y2="592.15179" />
    <linearGradient
       inkscape:collect="always"
       xlink:href="#SVGID_24_"
       id="linearGradient5765"
       gradientUnits="userSpaceOnUse"
       gradientTransform="matrix(0.55310282,0,0,0.55310282,687.44956,920.91175)"
       x1="1610.3276"
       y1="525.43262"
       x2="1610.3276"
       y2="592.15198" />
    <linearGradient
       inkscape:collect="always"
       xlink:href="#SVGID_25_"
       id="linearGradient5767"
       gradientUnits="userSpaceOnUse"
       gradientTransform="matrix(0.55310282,0,0,0.55310282,687.44956,920.91175)"
       x1="1657.4478"
       y1="525.43262"
       x2="1657.4478"
       y2="592.15192" />
    <linearGradient
       inkscape:collect="always"
       xlink:href="#SVGID_26_"
       id="linearGradient5769"
       gradientUnits="userSpaceOnUse"
       gradientTransform="matrix(0.55310282,0,0,0.55310282,687.44956,920.91175)"
       x1="1697.5337"
       y1="525.43262"
       x2="1697.5337"
       y2="592.15222" />
    <linearGradient
       inkscape:collect="always"
       xlink:href="#SVGID_27_"
       id="linearGradient5771"
       gradientUnits="userSpaceOnUse"
       gradientTransform="matrix(0.55310282,0,0,0.55310282,769.52117,914.94265)"
       x1="1451.0493"
       y1="525.43262"
       x2="1451.0493"
       y2="592.15198" />
    <linearGradient
       inkscape:collect="always"
       xlink:href="#SVGID_14_"
       id="linearGradient5832"
       gradientUnits="userSpaceOnUse"
       gradientTransform="matrix(0.50139002,0,0,0.50138996,118.74264,1245.0003)"
       x1="1528.5015"
       y1="442.94241"
       x2="1528.5015"
       y2="528.95258" />
    <linearGradient
       inkscape:collect="always"
       xlink:href="#SVGID_13_"
       id="linearGradient5835"
       gradientUnits="userSpaceOnUse"
       gradientTransform="matrix(0.50139002,0,0,0.50138996,118.74264,1245.0003)"
       x1="1497.3179"
       y1="442.94241"
       x2="1497.3179"
       y2="528.95282" />
    <linearGradient
       inkscape:collect="always"
       xlink:href="#SVGID_12_"
       id="linearGradient5838"
       gradientUnits="userSpaceOnUse"
       gradientTransform="matrix(0.50139002,0,0,0.50138996,118.74264,1245.0003)"
       x1="1461.6812"
       y1="442.94241"
       x2="1461.6812"
       y2="528.95288" />
    <linearGradient
       inkscape:collect="always"
       xlink:href="#SVGID_11_"
       id="linearGradient5841"
       gradientUnits="userSpaceOnUse"
       gradientTransform="matrix(0.50139002,0,0,0.50138996,118.74264,1245.0003)"
       x1="1416.5259"
       y1="442.94241"
       x2="1416.5259"
       y2="528.95258" />
    <linearGradient
       inkscape:collect="always"
       xlink:href="#SVGID_10_"
       id="linearGradient5844"
       gradientUnits="userSpaceOnUse"
       gradientTransform="matrix(0.50139002,0,0,0.50138996,118.74264,1245.0003)"
       x1="1374.6177"
       y1="442.94241"
       x2="1374.6177"
       y2="528.95282" />
    <linearGradient
       inkscape:collect="always"
       xlink:href="#SVGID_9_"
       id="linearGradient5847"
       gradientUnits="userSpaceOnUse"
       gradientTransform="matrix(0.50139002,0,0,0.50138996,118.74264,1245.0003)"
       x1="1308.5015"
       y1="442.94241"
       x2="1308.5015"
       y2="528.95258" />
    <linearGradient
       inkscape:collect="always"
       xlink:href="#SVGID_8_"
       id="linearGradient5850"
       gradientUnits="userSpaceOnUse"
       gradientTransform="matrix(0.50139002,0,0,0.50138996,118.74264,1245.0003)"
       x1="1269.0142"
       y1="442.94241"
       x2="1269.0142"
       y2="528.95258" />
    <linearGradient
       inkscape:collect="always"
       xlink:href="#SVGID_8_"
       id="linearGradient5967"
       gradientUnits="userSpaceOnUse"
       gradientTransform="matrix(0.63273022,0,0,0.63273014,29.479243,1408.427)"
       x1="1269.0142"
       y1="442.94241"
       x2="1269.0142"
       y2="528.95258" />
    <linearGradient
       inkscape:collect="always"
       xlink:href="#SVGID_9_"
       id="linearGradient5969"
       gradientUnits="userSpaceOnUse"
       gradientTransform="matrix(0.63273022,0,0,0.63273014,29.479243,1408.427)"
       x1="1308.5015"
       y1="442.94241"
       x2="1308.5015"
       y2="528.95258" />
    <linearGradient
       inkscape:collect="always"
       xlink:href="#SVGID_10_"
       id="linearGradient5971"
       gradientUnits="userSpaceOnUse"
       gradientTransform="matrix(0.63273022,0,0,0.63273014,29.479243,1408.427)"
       x1="1374.6177"
       y1="442.94241"
       x2="1374.6177"
       y2="528.95282" />
    <linearGradient
       inkscape:collect="always"
       xlink:href="#SVGID_11_"
       id="linearGradient5973"
       gradientUnits="userSpaceOnUse"
       gradientTransform="matrix(0.63273022,0,0,0.63273014,29.479243,1408.427)"
       x1="1416.5259"
       y1="442.94241"
       x2="1416.5259"
       y2="528.95258" />
    <linearGradient
       inkscape:collect="always"
       xlink:href="#SVGID_12_"
       id="linearGradient5975"
       gradientUnits="userSpaceOnUse"
       gradientTransform="matrix(0.63273022,0,0,0.63273014,29.479243,1408.427)"
       x1="1461.6812"
       y1="442.94241"
       x2="1461.6812"
       y2="528.95288" />
    <linearGradient
       inkscape:collect="always"
       xlink:href="#SVGID_13_"
       id="linearGradient5977"
       gradientUnits="userSpaceOnUse"
       gradientTransform="matrix(0.63273022,0,0,0.63273014,29.479243,1408.427)"
       x1="1497.3179"
       y1="442.94241"
       x2="1497.3179"
       y2="528.95282" />
    <linearGradient
       inkscape:collect="always"
       xlink:href="#SVGID_14_"
       id="linearGradient5979"
       gradientUnits="userSpaceOnUse"
       gradientTransform="matrix(0.63273022,0,0,0.63273014,29.479243,1408.427)"
       x1="1528.5015"
       y1="442.94241"
       x2="1528.5015"
       y2="528.95258" />
    <linearGradient
       inkscape:collect="always"
       xlink:href="#SVGID_15_"
       id="linearGradient5981"
       gradientUnits="userSpaceOnUse"
       gradientTransform="matrix(0.65436497,0,0,0.65436497,1000.5343,927.55865)"
       x1="1345.8628"
       y1="442.94241"
       x2="1345.8628"
       y2="528.9527" />
    <linearGradient
       inkscape:collect="always"
       xlink:href="#SVGID_16_"
       id="linearGradient5983"
       gradientUnits="userSpaceOnUse"
       gradientTransform="matrix(0.65436497,0,0,0.65436497,1000.5343,927.55865)"
       x1="1351.5776"
       y1="468.0029"
       x2="1359.3276"
       y2="478.5029" />
    <linearGradient
       inkscape:collect="always"
       xlink:href="#SVGID_17_"
       id="linearGradient5985"
       gradientUnits="userSpaceOnUse"
       gradientTransform="matrix(0.6979893,0,0,0.6979893,1067.2366,989.39589)"
       x1="1347.0435"
       y1="442.94241"
       x2="1347.0435"
       y2="528.95282" />
    <linearGradient
       inkscape:collect="always"
       xlink:href="#SVGID_18_"
       id="linearGradient5987"
       gradientUnits="userSpaceOnUse"
       gradientTransform="matrix(0.6979893,0,0,0.6979893,614.66671,1071.0277)"
       x1="1311.0884"
       y1="525.43262"
       x2="1311.0884"
       y2="592.15198" />
    <linearGradient
       inkscape:collect="always"
       xlink:href="#SVGID_19_"
       id="linearGradient5989"
       gradientUnits="userSpaceOnUse"
       gradientTransform="matrix(0.6979893,0,0,0.6979893,614.66671,1071.0277)"
       x1="1342.9888"
       y1="525.43262"
       x2="1342.9888"
       y2="592.15198" />
    <linearGradient
       inkscape:collect="always"
       xlink:href="#SVGID_20_"
       id="linearGradient5991"
       gradientUnits="userSpaceOnUse"
       gradientTransform="matrix(0.6979893,0,0,0.6979893,614.66671,1071.0277)"
       x1="1374.1724"
       y1="525.43262"
       x2="1374.1724"
       y2="592.15198" />
    <linearGradient
       inkscape:collect="always"
       xlink:href="#SVGID_21_"
       id="linearGradient5993"
       gradientUnits="userSpaceOnUse"
       gradientTransform="matrix(0.6979893,0,0,0.6979893,614.66671,1071.0277)"
       x1="1410.6265"
       y1="525.43262"
       x2="1410.6265"
       y2="592.15198" />
    <linearGradient
       inkscape:collect="always"
       xlink:href="#SVGID_22_"
       id="linearGradient5995"
       gradientUnits="userSpaceOnUse"
       gradientTransform="matrix(0.6979893,0,0,0.6979893,614.66671,1071.0277)"
       x1="1488.9077"
       y1="525.43262"
       x2="1488.9077"
       y2="592.15198" />
    <linearGradient
       inkscape:collect="always"
       xlink:href="#SVGID_23_"
       id="linearGradient5997"
       gradientUnits="userSpaceOnUse"
       gradientTransform="matrix(0.6979893,0,0,0.6979893,614.66671,1071.0277)"
       x1="1537.7075"
       y1="525.43262"
       x2="1537.7075"
       y2="592.15179" />
    <linearGradient
       inkscape:collect="always"
       xlink:href="#SVGID_24_"
       id="linearGradient5999"
       gradientUnits="userSpaceOnUse"
       gradientTransform="matrix(0.6979893,0,0,0.6979893,614.66671,1071.0277)"
       x1="1610.3276"
       y1="525.43262"
       x2="1610.3276"
       y2="592.15198" />
    <linearGradient
       inkscape:collect="always"
       xlink:href="#SVGID_25_"
       id="linearGradient6001"
       gradientUnits="userSpaceOnUse"
       gradientTransform="matrix(0.6979893,0,0,0.6979893,614.66671,1071.0277)"
       x1="1657.4478"
       y1="525.43262"
       x2="1657.4478"
       y2="592.15192" />
    <linearGradient
       inkscape:collect="always"
       xlink:href="#SVGID_26_"
       id="linearGradient6003"
       gradientUnits="userSpaceOnUse"
       gradientTransform="matrix(0.6979893,0,0,0.6979893,614.66671,1071.0277)"
       x1="1697.5337"
       y1="525.43262"
       x2="1697.5337"
       y2="592.15222" />
    <linearGradient
       inkscape:collect="always"
       xlink:href="#SVGID_27_"
       id="linearGradient6005"
       gradientUnits="userSpaceOnUse"
       gradientTransform="matrix(0.6979893,0,0,0.6979893,702.20978,1064.6608)"
       x1="1451.0493"
       y1="525.43262"
       x2="1451.0493"
       y2="592.15198" />
  </defs>
  <sodipodi:namedview
     id="base"
     pagecolor="#ffffff"
     bordercolor="#666666"
     borderopacity="1.0"
     inkscape:pageopacity="0.0"
     inkscape:pageshadow="2"
     inkscape:zoom="0.7"
     inkscape:cx="441.08002"
     inkscape:cy="109.67079"
     inkscape:document-units="px"
     inkscape:current-layer="g1229"
     showgrid="false"
     inkscape:window-width="1366"
     inkscape:window-height="709"
     inkscape:window-x="0"
     inkscape:window-y="0"
     inkscape:window-maximized="1"
     showguides="false" />
  <metadata
     id="metadata4800">
    <rdf:RDF>
      <cc:Work
         rdf:about="">
        <dc:format>image/svg+xml</dc:format>
        <dc:type
           rdf:resource="http://purl.org/dc/dcmitype/StillImage" />
        <dc:title></dc:title>
      </cc:Work>
    </rdf:RDF>
  </metadata>
  <g
     inkscape:label="Camada 1"
     inkscape:groupmode="layer"
     id="layer1"
     transform="translate(0,-872.51966)">
    <text
       transform="scale(1.0087135,0.99136179)"
       font-size="86.645"
       id="text3193"
       style="font-size:324.78103638px;font-family:Helvetica-Bold;fill:#666666;stroke-width:1.06666672"
       x="27.545332"
       y="-8805.7832" />
    <g
       id="g3197"
       transform="matrix(1.0059739,0,0,1.1266263,-87.449078,-2419.8989)">
      <text
         font-size="86.645"
         id="text3201"
         style="font-size:92.42133331px;font-family:Helvetica-Bold;fill:#666666;stroke-width:1.06666672"
         x="57.352638"
         y="132.77707" />
    </g>
    <g
       id="g3203"
       transform="translate(-98.66481,-1953.6464)" />
    <g
       id="g1229"
       transform="translate(-0.40042701,-0.37879088)">
      <rect
         rx="0"
         ry="0"
         style="fill:#473f39;stroke:#f9b93d;stroke-width:9.43519878;stroke-miterlimit:4;stroke-dasharray:none;stroke-opacity:1"
         id="rect3199"
         height="240.5648"
         width="810.56482"
         y="877.61603"
         x="5.1180172" />
      <g
         id="g464"
         transform="translate(41.874952)">
        <g
           id="g5900"
           transform="matrix(0.60209051,0,0,0.60209051,73.672174,333.21797)">
          <path
             inkscape:connector-curvature="0"
             style="fill:url(#linearGradient5967);stroke-width:1.06666672"
             id="path3315"
             d="m 284.29331,996.8501 c 1.11994,0 2.24142,-0.0959 3.36504,-0.27318 1.11956,-0.18826 2.11868,-0.51756 2.99745,-0.9934 0.87901,-0.47657 1.59737,-1.15102 2.15809,-2.02665 0.5585,-0.87305 0.84241,-1.9975 0.84241,-3.37591 0,-1.06022 -0.27007,-1.97425 -0.80645,-2.74245 -0.53868,-0.76712 -1.22045,-1.47035 -2.04699,-2.10529 -0.83054,-0.63791 -1.75605,-1.2186 -2.77995,-1.74944 -1.02595,-0.53047 -2.04916,-1.11189 -3.07302,-1.74795 -1.31778,-0.84756 -2.56054,-1.74904 -3.72964,-2.70184 -1.17083,-0.95351 -2.16978,-2.02555 -3.0011,-3.21792 -0.82882,-1.192 -1.48635,-2.51616 -1.97367,-3.97284 -0.48947,-1.45742 -0.73092,-3.13891 -0.73092,-5.0456 0,-2.43679 0.42656,-4.70008 1.27824,-6.79502 0.85389,-2.09163 2.1226,-3.9053 3.80393,-5.44246 1.68245,-1.53531 3.79225,-2.74133 6.32853,-3.61474 2.53442,-0.87418 5.51039,-1.31014 8.9238,-1.31014 1.55985,0 3.07325,0.14765 4.5359,0.43671 1.46291,0.28793 2.82554,0.65155 4.09425,1.07203 1.26764,0.42378 2.42677,0.91402 3.47507,1.4707 1.04837,0.55779 1.93962,1.10046 2.66861,1.62946 l -4.75308,9.13805 c -1.21872,-1.00595 -2.70476,-1.85465 -4.46059,-2.54311 -1.756,-0.68737 -3.658,-1.03289 -5.70504,-1.03289 -1.12365,0 -2.19486,0.10705 -3.21976,0.31378 -1.02406,0.2178 -1.92624,0.57145 -2.70673,1.07238 -0.78028,0.5039 -1.40099,1.15176 -1.86408,1.94766 -0.46415,0.79405 -0.69541,1.77638 -0.69541,2.93922 0,1.06169 0.18216,1.94804 0.54757,2.66344 0.36659,0.71358 0.84221,1.3382 1.42637,1.86683 0.58516,0.53122 1.26859,1.00778 2.04889,1.42973 0.78009,0.42343 1.60907,0.87489 2.48677,1.35036 1.51051,0.84832 2.97454,1.74906 4.38934,2.70184 1.41247,0.95354 2.65497,2.05398 3.73091,3.29657 1.07092,1.24699 1.92452,2.66271 2.55894,4.25228 0.63234,1.58958 0.94951,3.46931 0.94951,5.64106 0,3.01966 -0.51134,5.64215 -1.53568,7.86705 -1.02399,2.22488 -2.46259,4.08028 -4.31531,5.56238 -1.85451,1.4837 -4.0602,2.5826 -6.6216,3.2973 -2.55862,0.7151 -5.39959,1.0724 -8.5207,1.0724 -2.04698,0 -3.9624,-0.1882 -5.74244,-0.5578 -1.77945,-0.3695 -3.38826,-0.8073 -4.82521,-1.3105 -1.44059,-0.5039 -2.68331,-1.0462 -3.73156,-1.6294 -1.05003,-0.5844 -1.89031,-1.1115 -2.52274,-1.5896 l 4.82711,-9.45627 c 0.58521,0.42342 1.2919,0.87416 2.12043,1.35038 0.82861,0.47694 1.76777,0.92768 2.81585,1.3511 1.04784,0.42341 2.15809,0.78187 3.32915,1.0724 1.17102,0.29532 2.39125,0.43671 3.6597,0.43671 z" />
          <path
             inkscape:connector-curvature="0"
             style="fill:url(#linearGradient5969);stroke-width:1.06666672"
             id="path3317"
             d="m 324.04707,1007.1805 c -2.5857,0 -4.82908,-0.423 -6.72886,-1.2713 -1.90193,-0.8461 -3.47528,-2.0389 -4.71972,-3.5761 -1.24254,-1.5345 -2.18324,-3.34892 -2.81386,-5.4435 -0.63441,-2.09126 -0.95349,-4.40992 -0.95349,-6.95119 0,-3.17879 0.47781,-6.35758 1.42823,-9.53451 0.9496,-3.17915 2.35361,-6.03938 4.20637,-8.58322 1.85238,-2.54275 4.12093,-4.61959 6.8023,-6.23798 2.68158,-1.61504 5.75417,-2.4235 9.21775,-2.4235 2.53245,0 4.76503,0.42341 6.69126,1.27137 1.92619,0.84868 3.51092,2.03957 4.75538,3.57637 1.24276,1.53717 2.18127,3.35045 2.81561,5.44245 0.63234,2.0942 0.94978,4.40992 0.94978,6.95301 0,3.17806 -0.46348,6.35574 -1.39033,9.5349 -0.92553,3.17842 -2.29273,6.03975 -4.09625,8.58175 -1.80323,2.54345 -4.05803,4.62215 -6.76454,6.23795 -2.7065,1.6143 -5.83924,2.4235 -9.39963,2.4235 z m 5.41296,-34.00909 c -1.60903,0 -3.02367,0.50353 -4.24214,1.50874 -1.22217,1.00816 -2.24512,2.27841 -3.07279,3.81521 -0.8288,1.53717 -1.45232,3.21792 -1.86433,5.04524 -0.41769,1.82805 -0.62345,3.56418 -0.62345,5.20582 0,2.70036 0.38898,4.78056 1.17109,6.23648 0.7805,1.45743 2.19488,2.18541 4.24386,2.18541 1.60711,0 3.02191,-0.50353 4.23995,-1.51022 1.22045,-1.00594 2.24341,-2.27619 3.07494,-3.81336 0.82662,-1.53642 1.45056,-3.21977 1.86434,-5.04708 0.41362,-1.82731 0.62145,-3.56197 0.62145,-5.20323 0,-2.70295 -0.38832,-4.78019 -1.16914,-6.23836 -0.78203,-1.45741 -2.19687,-2.18465 -4.24363,-2.18465 z" />
          <path
             inkscape:connector-curvature="0"
             style="fill:url(#linearGradient5971);stroke-width:1.06666672"
             id="path3319"
             d="m 384.16366,953.8602 11.33906,-1.90595 -2.77967,12.31647 h 13.7108 l -2.19483,9.6918 h -13.63744 l -3.21809,14.62221 c -0.29338,1.21969 -0.4758,2.35778 -0.54893,3.41725 -0.0736,1.06022 0.0481,1.97387 0.36622,2.74099 0.3174,0.7682 0.86537,1.36403 1.64686,1.78817 0.77838,0.42306 1.85069,0.63791 3.21812,0.63791 1.16891,0 2.30406,-0.12186 3.3995,-0.3544 1.09963,-0.23626 2.20547,-0.57108 3.32916,-0.99376 l 0.80474,9.05941 c -1.46398,0.5844 -3.04818,1.0861 -4.75371,1.5095 -1.70948,0.4234 -3.73142,0.6383 -6.07115,0.6383 -3.36529,0 -5.97611,-0.5442 -7.8285,-1.6291 -1.8528,-1.0861 -3.16866,-2.5693 -3.94893,-4.4513 -0.78049,-1.87825 -1.12197,-4.0378 -1.02385,-6.47495 0.095,-2.43717 0.4382,-5.00686 1.02385,-7.70906 l 7.16706,-32.89612 z" />
          <path
             inkscape:connector-curvature="0"
             style="fill:url(#linearGradient5973);stroke-width:1.06666672"
             id="path3321"
             d="m 428.71817,981.59442 c -0.92925,2.17211 -1.96388,4.38259 -3.10903,6.6337 -1.14651,2.25296 -2.31844,4.4509 -3.51271,6.59569 -1.1951,2.14516 -2.35354,4.18472 -3.47328,6.11799 -1.12343,1.9347 -2.12024,3.6432 -2.9994,5.1253 h -8.4867 c -0.38896,-2.2248 -0.79107,-4.8721 -1.20479,-7.94527 -0.41562,-3.07284 -0.81818,-6.42365 -1.20896,-10.05208 -0.39039,-3.62805 -0.74437,-7.47058 -1.05931,-11.52242 -0.31928,-4.05183 -0.54757,-8.14539 -0.69538,-12.27586 h 10.67977 c 0,1.90631 0.0188,3.9721 0.0338,6.19699 0.0263,2.226 0.074,4.53027 0.145,6.91352 0.0736,2.38401 0.18217,4.81895 0.33091,7.31038 0.14687,2.49031 0.34031,4.95405 0.58382,7.39084 1.22016,-2.22526 2.42717,-4.54171 3.62203,-6.95303 1.19337,-2.40984 2.33994,-4.81895 3.43764,-7.23174 1.09744,-2.40983 2.12039,-4.77943 3.07298,-7.11102 0.94941,-2.33047 1.79075,-4.50219 2.52448,-6.51557 h 9.06898 c 0,3.81447 0.0616,8.07821 0.18217,12.79305 0.1191,4.71557 0.42588,9.72131 0.91365,15.01831 1.31786,-2.38437 2.53415,-4.83483 3.65775,-7.3506 1.12196,-2.51615 2.15642,-4.99356 3.10882,-7.43071 0.94953,-2.43606 1.8034,-4.76653 2.55863,-6.99216 0.75708,-2.22527 1.42605,-4.2379 2.011,-6.03826 h 11.55992 c -0.97683,2.64832 -2.13425,5.62851 -3.47528,8.93943 -1.34098,3.31023 -2.88893,6.79246 -4.64423,10.4493 -1.75596,3.65426 -3.73331,7.39048 -5.92626,11.20384 -2.19507,3.8141 -4.63439,7.54926 -7.31581,11.20386 h -8.4832 c -0.5872,-4.3424 -1.02623,-8.50237 -1.31586,-12.47485 -0.29336,-3.97359 -0.48744,-7.973 -0.58453,-11.99863 z" />
          <path
             inkscape:connector-curvature="0"
             style="fill:url(#linearGradient5975);stroke-width:1.06666672"
             id="path3323"
             d="m 489.93587,988.02989 c -0.68357,3.02004 -0.87788,6.05265 -0.58512,9.09817 0.29336,3.04624 0.85185,5.76064 1.68239,8.14434 l -9.72835,1.5105 c -0.29337,-0.6386 -0.5626,-1.2436 -0.80463,-1.8276 -0.2453,-0.5844 -0.48948,-1.2441 -0.73291,-1.9872 -1.36526,1.2193 -2.87834,2.2249 -4.53372,3.0197 -1.65846,0.7944 -3.51103,1.1912 -5.56021,1.1912 -2.43762,0 -4.52321,-0.4636 -6.25299,-1.3898 -1.73181,-0.9266 -3.14645,-2.1725 -4.24386,-3.7351 -1.09746,-1.5627 -1.89032,-3.39072 -2.3779,-5.48345 -0.48741,-2.09237 -0.73088,-4.33092 -0.73088,-6.71347 0,-3.65572 0.59678,-7.09919 1.79263,-10.33077 1.19619,-3.23085 2.85351,-6.05229 4.97476,-8.46286 2.12066,-2.40912 4.61928,-4.30288 7.49772,-5.68093 2.87683,-1.37805 5.9979,-2.0669 9.36209,-2.0669 0.43753,0 1.20878,0 2.30409,0.0812 1.09745,0.0701 2.35356,0.17349 3.7673,0.35439 1.41447,0.18827 2.90287,0.4906 4.46033,0.91255 1.56188,0.42304 3.04774,1.0078 4.46433,1.7498 l -4.75525,21.61436 z m -7.60681,-14.62074 c -0.63438,-0.10706 -1.20869,-0.18828 -1.71853,-0.23626 -0.51339,-0.0701 -1.13295,-0.0812 -1.86601,-0.0812 -1.65839,0 -3.20645,0.44999 -4.64423,1.35 -1.44055,0.9011 -2.69668,2.07832 -3.76727,3.53575 -1.07239,1.45779 -1.91437,3.13745 -2.52444,5.04561 -0.61045,1.90743 -0.91388,3.89347 -0.91388,5.95963 0,2.54273 0.39033,4.55684 1.17084,6.039 0.78026,1.48363 2.21741,2.22527 4.31574,2.22527 1.12148,0 2.13166,-0.23626 3.0369,-0.71468 0.90128,-0.47732 1.86625,-1.27064 2.88725,-2.38474 0.0977,-1.32305 0.25766,-2.71513 0.47579,-4.17145 0.22161,-1.45521 0.45183,-2.79339 0.69691,-4.0116 l 2.85086,-12.55569 z" />
          <path
             inkscape:connector-curvature="0"
             style="fill:url(#linearGradient5977);stroke-width:1.06666672"
             id="path3325"
             d="m 522.93246,974.44167 c -0.9784,-0.2621 -1.93961,-0.51719 -2.88901,-0.75454 -0.95156,-0.23626 -2.35557,-0.35439 -4.20814,-0.35439 -0.68374,0 -1.43697,0.0701 -2.26658,0.19564 -0.82854,0.13289 -1.51031,0.28056 -2.04891,0.43672 l -7.09352,32.1039 h -10.89826 l 8.77803,-39.57227 c 2.09426,-0.74164 4.4479,-1.44265 7.05757,-2.10603 2.60578,-0.65856 5.5444,-0.99339 8.8136,-0.99339 1.21826,0 2.57003,0.12186 4.06001,0.35808 1.48632,0.23627 2.79182,0.62497 3.9113,1.15177 l -3.21609,9.53561 z" />
          <path
             inkscape:connector-curvature="0"
             style="fill:url(#linearGradient5979);stroke-width:1.06666672"
             id="path3327"
             d="m 522.43578,989.69883 c 0,-3.38882 0.54757,-6.67468 1.64455,-9.85346 1.09744,-3.17769 2.6437,-5.9995 4.64419,-8.46251 2.00065,-2.46226 4.42659,-4.44979 7.27816,-5.95852 2.85363,-1.51058 6.00959,-2.26625 9.47491,-2.26625 1.70386,0 3.28976,0.26949 4.75376,0.79553 1.46181,0.53049 2.74219,1.29796 3.83942,2.30353 1.09767,1.00669 1.94961,2.2393 2.55864,3.69598 0.60976,1.45742 0.91555,3.11269 0.91555,4.96623 0,2.96764 -0.61184,5.48304 -1.8303,7.54885 -1.21827,2.06542 -2.91409,3.74801 -5.0822,5.04523 -2.16996,1.30016 -4.74368,2.23966 -7.71821,2.82181 -2.97432,0.58439 -6.21533,0.8738 -9.72827,0.8738 0.34256,2.22525 1.08593,3.80228 2.23055,4.7285 1.1468,0.9273 2.96283,1.39023 5.45092,1.39023 1.55965,0 3.14642,-0.14028 4.75348,-0.43671 1.61078,-0.28793 3.1202,-0.72686 4.53375,-1.31013 l 0.80667,9.29676 c -1.36738,0.5848 -3.10888,1.1123 -5.23131,1.59 -2.11842,0.4769 -4.42268,0.7139 -6.91159,0.7139 -3.02367,0 -5.57144,-0.4633 -7.6427,-1.3898 -2.07406,-0.9263 -3.75653,-2.1854 -5.04624,-3.7739 -1.29404,-1.5896 -2.23278,-3.44459 -2.81795,-5.56281 -0.58449,-2.11857 -0.87578,-4.37189 -0.87578,-6.75626 z m 21.28404,-17.1631 c -2.48523,0 -4.66819,0.96681 -6.54593,2.8997 -1.87875,1.93436 -3.10913,4.48931 -3.69396,7.6692 3.02366,-0.10706 5.46131,-0.38283 7.31389,-0.83466 1.85278,-0.45 3.29342,-0.99377 4.31528,-1.62982 1.02428,-0.63827 1.70779,-1.32341 2.04921,-2.06579 0.34031,-0.74162 0.51133,-1.48216 0.51133,-2.22526 0.001,-2.54311 -1.31488,-3.81337 -3.9499,-3.81337 z" />
          <g
             id="g3329"
             transform="matrix(0.90650422,0,0,0.90650415,-937.97521,511.53661)">
            <linearGradient
               y2="528.9527"
               x2="1345.8628"
               y1="442.94241"
               x1="1345.8628"
               gradientUnits="userSpaceOnUse"
               id="linearGradient3331">
              <stop
                 id="stop3333"
                 style="stop-color:#F7EC30"
                 offset="0" />
              <stop
                 id="stop3335"
                 style="stop-color:#FAAE40"
                 offset="1" />
            </linearGradient>
            <polygon
               style="fill:url(#linearGradient5981)"
               id="polygon3337"
               points="1345.95,478.239 1345.948,478.239 1345.776,479.022 "
               transform="scale(1.0666667)" />
            <linearGradient
               y2="478.5029"
               x2="1359.3276"
               y1="468.0029"
               x1="1351.5776"
               gradientUnits="userSpaceOnUse"
               id="linearGradient3339">
              <stop
                 id="stop3341"
                 style="stop-color:#F69220"
                 offset="0" />
              <stop
                 id="stop3343"
                 style="stop-color:#F05A29"
                 offset="0.4724" />
              <stop
                 id="stop3345"
                 style="stop-color:#EE4037"
                 offset="0.4785" />
              <stop
                 id="stop3347"
                 style="stop-color:#F05A29"
                 offset="1" />
            </linearGradient>
            <polygon
               style="fill:url(#linearGradient5983)"
               id="polygon3349"
               points="1359.186,478.239 1361.456,468.215 1351.596,468.215 1349.411,478.239 "
               transform="scale(1.0666667)" />
            <linearGradient
               y2="528.95282"
               x2="1347.0435"
               y1="442.94241"
               x1="1347.0435"
               gradientUnits="userSpaceOnUse"
               id="linearGradient3351">
              <stop
                 id="stop3353"
                 style="stop-color:#F7EC30"
                 offset="0" />
              <stop
                 id="stop3355"
                 style="stop-color:#FAAE40"
                 offset="1" />
            </linearGradient>
            <path
               inkscape:connector-curvature="0"
               style="fill:url(#linearGradient5985);stroke-width:1.06666672"
               id="path3357"
               d="m 1454.8427,478.34667 c -1.8038,-0.55467 -3.9147,-0.832 -6.335,-0.832 -6.3477,0 -11.2704,1.696 -14.7669,5.08373 -3.4976,3.39093 -5.9189,8.1824 -7.2629,14.37653 l -8.3894,38.21867 c -0.433,2.04693 -0.9834,4.25173 -1.6565,6.61867 -0.4768,1.67573 -1.0443,3.32053 -1.6544,4.95253 h 12.0789 c 1.3707,-3.93387 2.6731,-8.68373 3.8998,-14.288 l 4.6794,-21.25867 0.059,-0.26026 0.1835,-0.8352 v 0 l 2.3626,-10.69227 h -0.024 l 0.4832,-2.28053 c 0.5376,-2.4544 1.5211,-4.49814 2.9461,-6.13547 1.423,-1.6352 3.6192,-2.4544 6.575,-2.4544 1.0773,0 2.2453,0.1312 3.5104,0.39467 1.265,0.2624 2.3808,0.65706 3.3504,1.18293 l 4.033,-10.256 c -0.9162,-0.46827 -2.272,-0.97813 -4.0736,-1.53493 z" />
          </g>
          <g
             id="g3359"
             transform="matrix(0.90650422,0,0,0.90650415,-594.55901,437.53653)">
            <linearGradient
               y2="592.15198"
               x2="1311.0884"
               y1="525.43262"
               x1="1311.0884"
               gradientUnits="userSpaceOnUse"
               id="linearGradient3361"
               gradientTransform="translate(-82.071561,5.9688408)">
              <stop
                 id="stop3363"
                 style="stop-color:#F7EC30"
                 offset="0" />
              <stop
                 id="stop3365"
                 style="stop-color:#FAAE40"
                 offset="1" />
            </linearGradient>
            <path
               inkscape:connector-curvature="0"
               style="fill:url(#linearGradient5987);stroke-width:1.06666672"
               id="path3367"
               d="m 1286.1392,627.0697 13.3941,-60.7456 h 36.2315 l -2.5813,11.3088 h -23.6438 l -2.8245,12.9728 h 20.9003 l -2.5003,11.30773 h -20.9003 l -5.569,25.15733 h -12.5067 z" />
            <linearGradient
               y2="592.15198"
               x2="1342.9888"
               y1="525.43262"
               x1="1342.9888"
               gradientUnits="userSpaceOnUse"
               id="linearGradient3369"
               gradientTransform="translate(-82.071561,5.9688408)">
              <stop
                 id="stop3371"
                 style="stop-color:#F7EC30"
                 offset="0" />
              <stop
                 id="stop3373"
                 style="stop-color:#FAAE40"
                 offset="1" />
            </linearGradient>
            <path
               inkscape:connector-curvature="0"
               style="fill:url(#linearGradient5989);stroke-width:1.06666672"
               id="path3375"
               d="m 1359.4224,592.18223 c -1.0773,-0.2912 -2.1376,-0.56853 -3.1872,-0.83093 -1.0496,-0.26454 -2.5963,-0.39574 -4.64,-0.39574 -0.7541,0 -1.5872,0.0747 -2.5024,0.21867 -0.9141,0.14827 -1.6661,0.30827 -2.2603,0.48213 l -7.825,35.41334 h -12.0224 l 9.6832,-43.65227 c 2.3125,-0.81813 4.9066,-1.59147 7.7856,-2.3232 2.8768,-0.73173 6.1184,-1.09547 9.7226,-1.09547 1.344,0 2.8374,0.1312 4.479,0.3936 1.6394,0.2624 3.0794,0.688 4.3168,1.2704 z" />
            <linearGradient
               y2="592.15198"
               x2="1374.1724"
               y1="525.43262"
               x1="1374.1724"
               gradientUnits="userSpaceOnUse"
               id="linearGradient3377"
               gradientTransform="translate(-82.071561,5.9688408)">
              <stop
                 id="stop3379"
                 style="stop-color:#F7EC30"
                 offset="0" />
              <stop
                 id="stop3381"
                 style="stop-color:#FAAE40"
                 offset="1" />
            </linearGradient>
            <path
               inkscape:connector-curvature="0"
               style="fill:url(#linearGradient5991);stroke-width:1.06666672"
               id="path3383"
               d="m 1358.8741,609.01316 c 0,-3.73973 0.6038,-7.36426 1.8144,-10.8704 1.2107,-3.50613 2.9163,-6.6176 5.1254,-9.33546 2.2037,-2.7168 4.881,-4.9088 8.0266,-6.5728 3.1478,-1.66614 6.6294,-2.4992 10.4523,-2.4992 1.8816,0 3.6288,0.29226 5.2437,0.87573 1.615,0.5856 3.0272,1.4336 4.24,2.54293 1.2086,1.1104 2.1483,2.46934 2.8224,4.07574 0.671,1.60853 1.008,3.4336 1.008,5.47946 0,3.27254 -0.673,6.048 -2.0192,8.32747 -1.344,2.2784 -3.2149,4.1344 -5.6085,5.56587 -2.3936,1.43253 -5.2309,2.46933 -8.512,3.11253 -3.2832,0.6432 -6.8608,0.9632 -10.7328,0.9632 0.3776,2.4544 1.1979,4.19413 2.4629,5.21707 1.263,1.02293 3.2662,1.53386 6.0107,1.53386 1.7227,0 3.4709,-0.16 5.2437,-0.48213 1.7771,-0.32 3.4443,-0.80213 5.0038,-1.4464 l 0.8874,10.256 c -1.5061,0.64427 -3.4293,1.22667 -5.7685,1.75467 -2.3392,0.5248 -4.8811,0.7872 -7.6245,0.7872 -3.3355,0 -6.1462,-0.512 -8.4331,-1.53387 -2.2869,-1.02187 -4.1419,-2.41067 -5.5669,-4.16213 -1.4272,-1.75467 -2.4608,-3.79947 -3.1062,-6.13654 -0.6485,-2.3392 -0.9696,-4.82346 -0.9696,-7.4528 z m 23.4795,-18.93333 c -2.7413,0 -5.152,1.06667 -7.2192,3.19787 -2.0725,2.1344 -3.4293,4.9536 -4.0768,8.4608 3.3355,-0.11627 6.0245,-0.42454 8.0704,-0.92054 2.0416,-0.496 3.6309,-1.09546 4.7584,-1.7984 1.1317,-0.7008 1.8837,-1.46026 2.2603,-2.27946 0.3754,-0.81707 0.5642,-1.6352 0.5642,-2.4544 0,-2.8032 -1.4496,-4.20587 -4.3573,-4.20587 z" />
            <linearGradient
               y2="592.15198"
               x2="1410.6265"
               y1="525.43262"
               x1="1410.6265"
               gradientUnits="userSpaceOnUse"
               id="linearGradient3385"
               gradientTransform="translate(-82.071561,5.9688408)">
              <stop
                 id="stop3387"
                 style="stop-color:#F7EC30"
                 offset="0" />
              <stop
                 id="stop3389"
                 style="stop-color:#FAAE40"
                 offset="1" />
            </linearGradient>
            <path
               inkscape:connector-curvature="0"
               style="fill:url(#linearGradient5993);stroke-width:1.06666672"
               id="path3391"
               d="m 1397.7595,609.01316 c 0,-3.73973 0.6037,-7.36426 1.8144,-10.8704 1.2106,-3.50613 2.9162,-6.6176 5.1232,-9.33546 2.2058,-2.7168 4.8853,-4.9088 8.0288,-6.5728 3.1477,-1.66614 6.6314,-2.4992 10.4522,-2.4992 1.8816,0 3.6288,0.29226 5.2438,0.87573 1.6149,0.5856 3.025,1.4336 4.2378,2.54293 1.2086,1.1104 2.1483,2.46934 2.8224,4.07574 0.671,1.60853 1.008,3.4336 1.008,5.47946 0,3.27254 -0.673,6.048 -2.0192,8.32747 -1.344,2.2784 -3.2128,4.1344 -5.6064,5.56587 -2.3936,1.43253 -5.2309,2.46933 -8.512,3.11253 -3.2832,0.6432 -6.8586,0.9632 -10.7328,0.9632 0.3776,2.4544 1.1979,4.19413 2.463,5.21707 1.2629,1.02293 3.2661,1.53386 6.0106,1.53386 1.7206,0 3.471,-0.16 5.2459,-0.48213 1.7749,-0.32 3.4421,-0.80213 5.0016,-1.4464 l 0.8875,10.256 c -1.5062,0.64427 -3.4294,1.22667 -5.7686,1.75467 -2.3392,0.5248 -4.881,0.7872 -7.6245,0.7872 -3.3355,0 -6.1461,-0.512 -8.4309,-1.53387 -2.2891,-1.0208 -4.144,-2.41067 -5.5691,-4.16213 -1.4272,-1.75467 -2.4629,-3.79947 -3.1083,-6.13654 -0.6453,-2.33706 -0.9674,-4.82346 -0.9674,-7.4528 z m 23.4816,-18.93333 c -2.7435,0 -5.152,1.06667 -7.2224,3.19787 -2.0704,2.1344 -3.4294,4.9536 -4.0747,8.4608 3.3355,-0.11627 6.0245,-0.42454 8.0704,-0.92054 2.0416,-0.496 3.6309,-1.09546 4.7584,-1.7984 1.1317,-0.7008 1.8837,-1.46026 2.2603,-2.27946 0.3754,-0.81707 0.5664,-1.6352 0.5664,-2.4544 0,-2.8032 -1.4539,-4.20587 -4.3584,-4.20587 z" />
            <linearGradient
               y2="592.15198"
               x2="1488.9077"
               y1="525.43262"
               x1="1488.9077"
               gradientUnits="userSpaceOnUse"
               id="linearGradient3393"
               gradientTransform="translate(-82.071561,5.9688408)">
              <stop
                 id="stop3395"
                 style="stop-color:#F7EC30"
                 offset="0" />
              <stop
                 id="stop3397"
                 style="stop-color:#FAAE40"
                 offset="1" />
            </linearGradient>
            <path
               inkscape:connector-curvature="0"
               style="fill:url(#linearGradient5995);stroke-width:1.06666672"
               id="path3399"
               d="m 1497.0768,628.29743 c -2.8544,0 -5.3269,-0.4672 -7.4251,-1.4016 -2.0981,-0.93333 -3.8336,-2.24853 -5.2042,-3.94453 -1.3728,-1.6928 -2.4107,-3.69494 -3.1062,-6.00427 -0.6997,-2.3072 -1.0496,-4.86613 -1.0496,-7.66933 0,-3.50614 0.5248,-7.01227 1.5734,-10.5184 1.0496,-3.50614 2.5962,-6.6624 4.6421,-9.46667 2.0416,-2.80533 4.544,-5.0976 7.504,-6.88213 2.9557,-1.78134 6.3456,-2.67307 10.1664,-2.67307 2.7957,0 5.2565,0.4672 7.3835,1.40267 2.1226,0.93546 3.8709,2.2496 5.2458,3.94346 1.3707,1.696 2.4043,3.69707 3.104,6.00427 0.6976,2.3104 1.0496,4.86507 1.0496,7.6704 0,3.50613 -0.512,7.01227 -1.5338,10.5184 -1.023,3.50613 -2.5291,6.6624 -4.5184,9.46667 -1.9894,2.8064 -4.479,5.09973 -7.4646,6.88106 -2.9856,1.78134 -6.4426,2.67307 -10.3669,2.67307 z m 5.9701,-37.5168 c -1.777,0 -3.3376,0.55573 -4.6816,1.66613 -1.3461,1.11147 -2.4746,2.51307 -3.3898,4.20694 -0.9142,1.696 -1.6,3.54986 -2.0566,5.56693 -0.4586,2.01707 -0.688,3.93173 -0.688,5.74187 0,2.98026 0.431,5.27466 1.2918,6.88106 0.8608,1.60747 2.4213,2.41067 4.6816,2.41067 1.7749,0 3.3333,-0.55573 4.6794,-1.66613 1.344,-1.10827 2.4726,-2.51094 3.3899,-4.20587 0.912,-1.69493 1.6,-3.55093 2.0565,-5.56693 0.4566,-2.01707 0.6859,-3.9296 0.6859,-5.74187 0,-2.98133 -0.4288,-5.27253 -1.2896,-6.88107 -0.8608,-1.60746 -2.4235,-2.41173 -4.6795,-2.41173 z" />
            <linearGradient
               y2="592.15179"
               x2="1537.7075"
               y1="525.43262"
               x1="1537.7075"
               gradientUnits="userSpaceOnUse"
               id="linearGradient3401"
               gradientTransform="translate(-82.071561,5.9688408)">
              <stop
                 id="stop3403"
                 style="stop-color:#F7EC30"
                 offset="0" />
              <stop
                 id="stop3405"
                 style="stop-color:#FAAE40"
                 offset="1" />
            </linearGradient>
            <path
               inkscape:connector-curvature="0"
               style="fill:url(#linearGradient5997);stroke-width:1.06666672"
               id="path3407"
               d="m 1530.1243,583.06543 c 0.9141,-0.2912 1.8954,-0.6272 2.9461,-1.008 1.0496,-0.37867 2.2315,-0.7296 3.5499,-1.0496 1.3162,-0.32107 2.7957,-0.58347 4.4373,-0.78933 1.6416,-0.20374 3.5349,-0.30614 5.6896,-0.30614 2.5813,0 4.7211,0.34987 6.4149,1.05174 1.6939,0.69973 3.2395,1.75253 4.64,3.15413 1.9894,-1.22667 3.967,-2.23573 5.9318,-3.02293 1.9626,-0.78934 4.2624,-1.18294 6.8981,-1.18294 2.5291,0 4.6933,0.3648 6.496,1.09547 1.8027,0.73067 3.296,1.78133 4.4789,3.15413 1.183,1.37494 2.0438,3.01014 2.5814,4.90987 0.5376,1.89973 0.8085,3.98827 0.8085,6.26773 0,1.05174 -0.068,2.16214 -0.2016,3.3312 -0.1355,1.16907 -0.3371,2.33707 -0.6059,3.50614 l -5.488,24.89386 h -12.0224 l 5.327,-24.36906 c 0.16,-0.81707 0.3349,-1.7376 0.5226,-2.76054 0.1899,-1.0208 0.2838,-2.02986 0.2838,-3.02506 0,-1.63307 -0.3499,-3.05174 -1.0475,-4.2496 -0.6997,-1.19787 -2.0725,-1.7984 -4.1163,-1.7984 -1.1296,0 -2.2058,0.21866 -3.2266,0.65706 -1.023,0.4384 -1.9371,0.8928 -2.7435,1.35787 0.1088,0.46933 0.1621,0.90773 0.1621,1.3152 0,0.40747 0,0.78933 0,1.1392 0,1.05173 -0.068,2.16213 -0.2016,3.3312 -0.1354,1.16907 -0.337,2.33707 -0.6058,3.50613 l -5.4859,24.89387 h -12.0224 l 5.3248,-24.36907 c 0.1621,-0.81706 0.3349,-1.7376 0.5227,-2.76053 0.1898,-1.0208 0.2858,-2.02987 0.2858,-3.02507 0,-1.63306 -0.352,-3.05173 -1.0496,-4.2496 -0.6997,-1.19786 -2.0725,-1.7984 -4.1162,-1.7984 -0.8608,0 -1.5851,0.0437 -2.1792,0.1312 -0.592,0.0875 -1.2896,0.21974 -2.0982,0.39574 l -7.825,35.67466 h -12.0224 z" />
            <linearGradient
               y2="592.15198"
               x2="1610.3276"
               y1="525.43262"
               x1="1610.3276"
               gradientUnits="userSpaceOnUse"
               id="linearGradient3409"
               gradientTransform="translate(-82.071561,5.9688408)">
              <stop
                 id="stop3411"
                 style="stop-color:#F7EC30"
                 offset="0" />
              <stop
                 id="stop3413"
                 style="stop-color:#FAAE40"
                 offset="1" />
            </linearGradient>
            <path
               inkscape:connector-curvature="0"
               style="fill:url(#linearGradient5999);stroke-width:1.06666672"
               id="path3415"
               d="m 1657.5344,589.99023 c 0,5.904 -0.8875,11.19147 -2.6624,15.86667 -1.7749,4.6752 -4.3168,8.63466 -7.6245,11.87733 -3.3088,3.24373 -7.3312,5.74187 -12.063,7.49547 -4.7349,1.75253 -10.0874,2.62933 -16.0586,2.62933 -2.2603,0 -4.8683,-0.14613 -7.8272,-0.4384 -2.96,-0.29227 -5.8102,-0.75947 -8.5547,-1.40267 l 12.992,-58.64213 c 3.0667,-0.6432 6.0107,-1.09547 8.8352,-1.35787 2.8245,-0.26346 5.3664,-0.39466 7.6267,-0.39466 3.9786,0 7.5434,0.58453 10.689,1.7536 3.1478,1.16906 5.8102,2.8352 7.9894,4.99626 2.177,2.16214 3.8336,4.73387 4.9621,7.71414 1.1317,2.97813 1.696,6.2816 1.696,9.90293 z m -40.1013,26.12373 c 0.5898,0.0587 1.1957,0.1024 1.8122,0.1312 0.6187,0.0299 1.4667,0.0437 2.544,0.0437 3.4955,0 6.656,-0.58347 9.4795,-1.75467 2.8267,-1.16693 5.2192,-2.848 7.1829,-5.04 1.9648,-2.19093 3.4838,-4.87893 4.5579,-8.06507 1.0741,-3.18613 1.6149,-6.76266 1.6149,-10.73706 0,-2.04587 -0.2442,-3.90187 -0.7274,-5.56694 -0.4832,-1.66506 -1.2768,-3.09546 -2.3787,-4.29546 -1.1019,-1.19574 -2.5291,-2.11627 -4.2773,-2.76054 -1.7483,-0.64426 -3.8603,-0.96426 -6.335,-0.96426 -1.6128,0 -3.2544,0.0885 -4.9205,0.26346 z" />
            <linearGradient
               y2="592.15192"
               x2="1657.4478"
               y1="525.43262"
               x1="1657.4478"
               gradientUnits="userSpaceOnUse"
               id="linearGradient3417"
               gradientTransform="translate(-82.071561,5.9688408)">
              <stop
                 id="stop3419"
                 style="stop-color:#F7EC30"
                 offset="0" />
              <stop
                 id="stop3421"
                 style="stop-color:#FAAE40"
                 offset="1" />
            </linearGradient>
            <path
               inkscape:connector-curvature="0"
               style="fill:url(#linearGradient6001);stroke-width:1.06666672"
               id="path3423"
               d="m 1696.4571,607.1721 c -0.7542,3.3312 -0.9664,6.67733 -0.6454,10.03733 0.3254,3.36 0.9419,6.35413 1.8582,8.98453 l -10.7328,1.66614 c -0.3232,-0.70187 -0.6187,-1.3728 -0.8875,-2.01707 -0.2709,-0.64213 -0.5397,-1.3728 -0.8085,-2.19093 -1.504,1.34506 -3.1755,2.4544 -5.0016,3.33013 -1.8294,0.8768 -3.8731,1.31413 -6.1334,1.31413 -2.689,0 -4.9877,-0.512 -6.8981,-1.53386 -1.9104,-1.02187 -3.4688,-2.39574 -4.6816,-4.1184 -1.2085,-1.7248 -2.0853,-3.7408 -2.6229,-6.05014 -0.5355,-2.3072 -0.8043,-4.7776 -0.8043,-7.40586 0,-4.03307 0.6581,-7.83147 1.9755,-11.39627 1.3184,-3.5648 3.1477,-6.6752 5.488,-9.33547 2.3413,-2.65813 5.0954,-4.74666 8.2709,-6.26666 3.1755,-1.52 6.6187,-2.27947 10.3296,-2.27947 0.4832,0 1.3312,0.0299 2.5419,0.0875 1.2106,0.0587 2.5941,0.18986 4.1546,0.3936 1.5606,0.20586 3.2022,0.54186 4.9227,1.008 1.7205,0.46826 3.36,1.1104 4.9227,1.9296 z m -8.3915,-16.12907 c -0.6997,-0.11627 -1.3312,-0.20373 -1.8955,-0.2624 -0.5642,-0.0587 -1.2501,-0.0875 -2.0586,-0.0875 -1.8294,0 -3.5371,0.49814 -5.1232,1.48907 -1.5872,0.99413 -2.975,2.29333 -4.1558,3.90187 -1.1829,1.60853 -2.112,3.46133 -2.7829,5.5648 -0.6752,2.10453 -1.0101,4.29546 -1.0101,6.57493 0,2.80533 0.4309,5.0272 1.2917,6.6624 0.8608,1.6352 2.448,2.4544 4.7627,2.4544 1.2352,0 2.3498,-0.2624 3.3482,-0.78827 0.9942,-0.52586 2.0587,-1.40266 3.1872,-2.6304 0.1088,-1.4592 0.2816,-2.9952 0.5227,-4.6016 0.2443,-1.6064 0.4981,-3.0816 0.7691,-4.42666 z" />
            <linearGradient
               y2="592.15222"
               x2="1697.5337"
               y1="525.43262"
               x1="1697.5337"
               gradientUnits="userSpaceOnUse"
               id="linearGradient3425"
               gradientTransform="translate(-82.071561,5.9688408)">
              <stop
                 id="stop3427"
                 style="stop-color:#F7EC30"
                 offset="0" />
              <stop
                 id="stop3429"
                 style="stop-color:#FAAE40"
                 offset="1" />
            </linearGradient>
            <path
               inkscape:connector-curvature="0"
               style="fill:url(#linearGradient6003);stroke-width:1.06666672"
               id="path3431"
               d="m 1732.7952,580.9641 h -0.027 -0.9024 c -1.7226,6.19413 -3.5648,11.8624 -5.5274,17.00373 -1.9648,5.14347 -4.2358,9.81867 -6.8192,14.02453 -0.3232,-2.10346 -0.6187,-4.46933 -0.8875,-7.09973 -0.2709,-2.62933 -0.512,-5.3312 -0.7253,-8.1088 -0.065,-0.80213 -0.1067,-1.5936 -0.1643,-2.3936 -0.1419,-1.968 -0.2859,-3.936 -0.4021,-5.88907 -0.16,-2.7456 -0.271,-5.25973 -0.3211,-7.53706 h -12.3477 c 0.4309,9.1168 1.2224,17.29813 2.3808,24.544 1.1253,7.04746 2.3648,13.41866 3.7205,19.13813 -0.16,0.51947 -0.3189,1.04107 -0.4917,1.5552 -0.463,1.3856 -7.1808,14.36907 -8.5792,15.77067 l 3.8538,0.5984 6.8768,1.06773 c 2.5814,-2.10347 15.8816,-26.1216 17.6566,-29.27787 1.7749,-3.1552 3.4954,-6.4704 5.1648,-9.94773 1.6661,-3.47733 3.2682,-7.14347 4.8021,-11.0016 1.5317,-3.856 3.0496,-8.0064 4.5579,-12.44587 h -11.8187 z" />
          </g>
          <g
             id="g3433"
             transform="matrix(0.90650422,0,0,0.90650415,-673.91706,443.30863)">
            <path
               style="fill:none;stroke-width:1.06666672"
               inkscape:connector-curvature="0"
               id="path3435"
               d="m 1551.5424,584.72 c -0.2443,-0.0288 -0.5525,-0.0437 -0.9269,-0.0437 -0.3776,0 -0.863,0 -1.4539,0 -1.8837,0 -3.6309,0.48213 -5.2437,1.44533 -1.615,0.96427 -2.9995,2.26667 -4.1558,3.90187 -1.1584,1.63626 -2.0586,3.4912 -2.704,5.56693 -0.6442,2.07467 -0.9685,4.19413 -0.9685,6.35413 0,2.80534 0.4437,5.01227 1.3333,6.6176 0.8875,1.6096 2.4854,2.41174 4.8,2.41174 1.2374,0 2.367,-0.2624 3.3899,-0.78827 1.0208,-0.52587 2.0981,-1.40267 3.2267,-2.6304 0.1066,-1.4592 0.2837,-2.9952 0.5248,-4.6016 0.2421,-1.6064 0.496,-3.0816 0.7669,-4.42667 l 2.9856,-13.4976 c -0.3232,-0.0587 -0.6037,-0.11626 -0.848,-0.176 -0.2432,-0.0587 -0.4853,-0.1024 -0.7264,-0.13333 z" />
            <linearGradient
               y2="592.15198"
               x2="1451.0493"
               y1="525.43262"
               x1="1451.0493"
               gradientUnits="userSpaceOnUse"
               id="linearGradient3437">
              <stop
                 id="stop3439"
                 style="stop-color:#F7EC30"
                 offset="0" />
              <stop
                 id="stop3441"
                 style="stop-color:#FAAE40"
                 offset="1" />
            </linearGradient>
            <path
               inkscape:connector-curvature="0"
               style="fill:url(#linearGradient6005);stroke-width:1.06666672"
               id="path3443"
               d="m 1571.4251,556.72427 h -12.0416 l -3.9296,17.87306 c -0.8608,-0.2336 -1.7088,-0.40853 -2.5419,-0.52693 -0.8352,-0.11627 -1.7355,-0.17493 -2.7019,-0.17493 -3.7664,0 -7.2373,0.76053 -10.4106,2.27946 -3.1755,1.52107 -5.9168,3.5936 -8.2315,6.22294 -2.3125,2.63146 -4.1269,5.712 -5.4453,9.248 -1.3184,3.53706 -1.9776,7.29173 -1.9776,11.26506 0,2.62934 0.2837,5.09867 0.848,7.40587 0.5642,2.3104 1.4517,4.32747 2.6624,6.04907 1.2106,1.72373 2.7712,3.08266 4.6794,4.07573 1.9104,0.99413 4.2102,1.48907 6.9003,1.48907 2.2603,0 4.3168,-0.43734 6.1728,-1.31414 1.856,-0.87573 3.5349,-1.98506 5.0443,-3.33013 0.2688,0.81813 0.5376,1.5488 0.8064,2.19093 0.2688,0.64427 0.5642,1.31414 0.8896,2.01707 l 10.7296,-1.66613 c -0.9142,-2.6304 -1.5339,-5.62347 -1.8539,-8.98454 -0.3232,-3.36 -0.1088,-6.70613 0.6453,-10.03733 z m -21.295,41.8016 c -0.2709,1.34613 -0.5248,2.82133 -0.7669,4.42666 -0.2421,1.60747 -0.4192,3.1424 -0.5248,4.6016 -1.1296,1.22667 -2.2059,2.10454 -3.2267,2.6304 -1.0229,0.52587 -2.1525,0.78827 -3.3898,0.78827 -2.3147,0 -3.9126,-0.80213 -4.8,-2.41173 -0.8896,-1.60534 -1.3334,-3.81227 -1.3334,-6.6176 0,-2.16 0.3254,-4.27947 0.9686,-6.35414 0.6453,-2.07466 1.5456,-3.93066 2.704,-5.56693 1.1562,-1.6352 2.5418,-2.9376 4.1557,-3.90187 1.6128,-0.9632 3.36,-1.44533 5.2437,-1.44533 0.592,0 1.0774,0 1.4539,0 0.3755,0 0.6837,0.0149 0.9269,0.0437 0.2422,0.0309 0.4832,0.0747 0.7254,0.13227 0.2442,0.0597 0.5248,0.11733 0.848,0.176 z" />
          </g>
        </g>
        <g
           transform="matrix(2.1855792,0,0,2.1479833,-86.411398,-5335.0914)"
           id="g4079">
          <g
             id="g3253"
             transform="matrix(0.32787329,0,0,0.333612,-305.19193,2754.242)">
            <g
               id="g3255">
              <linearGradient
                 gradientTransform="matrix(0.2376,-0.9714,-0.9714,-0.2376,-1794.3491,-1897.8428)"
                 y2="-3354.7063"
                 x2="-1594.7587"
                 y1="-3351.7031"
                 x1="-1614.2603"
                 gradientUnits="userSpaceOnUse"
                 id="linearGradient3257">
                <stop
                   id="stop3259"
                   style="stop-color:#F7EC30"
                   offset="0" />
                <stop
                   id="stop3261"
                   style="stop-color:#FAAE40"
                   offset="1" />
              </linearGradient>
              <path
                 inkscape:connector-curvature="0"
                 style="fill:url(#linearGradient4205);stroke-width:1.06666672"
                 id="path3263"
                 d="m 1160.9397,500.0096 c 0,0 7.9958,10.064 6.0875,-0.24427 -1.9104,-10.30933 -17.2021,-30.4544 -24.9067,-25.57866 -7.7088,4.87466 -3.8122,8.89066 1.0272,11.4816 4.8448,2.5888 14.3862,9.15413 17.792,14.34133 z" />
              <linearGradient
                 gradientTransform="matrix(0.8559,-0.5171,-0.5171,-0.8559,-2252.5208,-6984.2539)"
                 y2="-8105.9707"
                 x2="-933.92493"
                 y1="-8102.7666"
                 x1="-954.73187"
                 gradientUnits="userSpaceOnUse"
                 id="linearGradient3265">
                <stop
                   id="stop3267"
                   style="stop-color:#F7EC30"
                   offset="0" />
                <stop
                   id="stop3269"
                   style="stop-color:#FAAE40"
                   offset="1" />
              </linearGradient>
              <path
                 inkscape:connector-curvature="0"
                 style="fill:url(#linearGradient4207);stroke-width:1.06666672"
                 id="path3271"
                 d="m 1201.6,484.37333 c 0,0 -1.5893,13.62134 4.7691,4.416 6.352,-9.20426 10.0672,-35.93493 0.5813,-38.0864 -9.488,-2.1536 -9.5893,3.8112 -7.9019,9.41974 1.6896,5.60746 3.9104,17.76746 2.5515,24.25066 z" />
              <linearGradient
                 gradientTransform="matrix(0.9997,0.0244,0.0244,-0.9997,1562.1204,-9766.4043)"
                 y2="-10221.937"
                 x2="-119.9794"
                 y1="-10218.174"
                 x1="-144.41209"
                 gradientUnits="userSpaceOnUse"
                 id="linearGradient3273">
                <stop
                   id="stop3275"
                   style="stop-color:#F7EC30"
                   offset="0" />
                <stop
                   id="stop3277"
                   style="stop-color:#FAAE40"
                   offset="1" />
              </linearGradient>
              <path
                 inkscape:connector-curvature="0"
                 style="fill:url(#linearGradient4209);stroke-width:1.06666672"
                 id="path3279"
                 d="m 1246.5088,489.09547 c 0,0 -10.1792,12.47893 1.9253,7.38346 12.1046,-5.1008 32.6688,-29.216 24.6336,-37.3408 -8.033,-8.1216 -11.904,-2.27946 -13.7706,4.3392 -1.8742,6.62187 -7.3547,20.0576 -12.7883,25.61814 z" />
              <linearGradient
                 gradientTransform="matrix(0.802,0.5973,0.5973,-0.802,6476.9604,-8626.8252)"
                 y2="-10453.74"
                 x2="1236.5042"
                 y1="-10449.884"
                 x1="1211.4604"
                 gradientUnits="userSpaceOnUse"
                 id="linearGradient3281">
                <stop
                   id="stop3283"
                   style="stop-color:#F7EC30"
                   offset="0" />
                <stop
                   id="stop3285"
                   style="stop-color:#FAAE40"
                   offset="1" />
              </linearGradient>
              <path
                 inkscape:connector-curvature="0"
                 style="fill:url(#linearGradient4211);stroke-width:1.06666672"
                 id="path3287"
                 d="m 1279.0155,521.45173 c 0,0 -15.9062,4.416 -2.7584,7.31627 13.1477,2.896 44.6293,-5.10613 42.7189,-16.6624 -1.9083,-11.5552 -8.608,-8.9568 -14.0939,-4.52373 -5.4858,4.432 -18.0277,12.43413 -25.8666,13.86986 z" />
              <linearGradient
                 gradientTransform="matrix(-0.3327,-0.943,-0.943,0.3327,859.1079,-1024.2324)"
                 y2="319.36411"
                 x2="-1486.8414"
                 y1="321.96829"
                 x1="-1503.7524"
                 gradientUnits="userSpaceOnUse"
                 id="linearGradient3289">
                <stop
                   id="stop3291"
                   style="stop-color:#F7EC30"
                   offset="0" />
                <stop
                   id="stop3293"
                   style="stop-color:#FAAE40"
                   offset="1" />
              </linearGradient>
              <path
                 inkscape:connector-curvature="0"
                 style="fill:url(#linearGradient4213);stroke-width:1.06666672"
                 id="path3295"
                 d="m 1135.344,530.69547 c 0,0 10.5728,3.51466 4.2955,-3.0592 -6.2752,-6.5792 -26.9334,-13.94347 -30.2102,-6.74667 -3.2789,7.19467 1.4496,8.25707 6.1963,7.83893 4.7392,-0.41706 14.7829,-0.17706 19.7184,1.96694 z" />
              <linearGradient
                 gradientTransform="matrix(-0.6493,-0.7605,-0.7605,0.6493,1703.574,-2306.6292)"
                 y2="2338.3013"
                 x2="-1723.9701"
                 y1="2340.3887"
                 x1="-1737.5259"
                 gradientUnits="userSpaceOnUse"
                 id="linearGradient3297">
                <stop
                   id="stop3299"
                   style="stop-color:#F7EC30"
                   offset="0" />
                <stop
                   id="stop3301"
                   style="stop-color:#FAAE40"
                   offset="1" />
              </linearGradient>
              <path
                 inkscape:connector-curvature="0"
                 style="fill:url(#linearGradient4215);stroke-width:1.06666672"
                 id="path3303"
                 d="m 1127.8251,564.64747 c 0,0 8.9184,-0.41814 2.3317,-3.53067 -6.592,-3.10827 -24.1664,-2.66987 -24.5461,3.65867 -0.3787,6.3264 3.4688,5.75786 6.8938,4.08106 3.4251,-1.68 11.007,-4.3936 15.3206,-4.20906 z" />
              <linearGradient
                 gradientTransform="matrix(-0.9803,-0.1975,-0.1975,0.9803,1031.1814,-2761.6814)"
                 y2="3251.2949"
                 x2="-677.97119"
                 y1="3252.9277"
                 x1="-688.5752"
                 gradientUnits="userSpaceOnUse"
                 id="linearGradient3305">
                <stop
                   id="stop3307"
                   style="stop-color:#F7EC30"
                   offset="0" />
                <stop
                   id="stop3309"
                   style="stop-color:#FAAE40"
                   offset="1" />
              </linearGradient>
              <path
                 inkscape:connector-curvature="0"
                 style="fill:url(#linearGradient4217);stroke-width:1.06666672"
                 id="path3311"
                 d="m 1135.6501,594.60053 c 0,0 5.2875,-4.56746 -0.2709,-3.30133 -5.5541,1.2672 -16.1621,10.02453 -13.3397,14.10667 2.8149,4.07786 4.9141,1.87306 6.2122,-0.81494 1.3014,-2.6912 4.6528,-8.02133 7.3984,-9.9904 z" />
            </g>
          </g>
          <path
             style="fill:none;stroke-width:1.06666672"
             inkscape:connector-curvature="0"
             id="path3313"
             d="m 80.040106,2938.0645 c 2.645437,-6.4297 9.973608,-9.4344 16.368443,-6.7095 1.492722,0.6343 2.798669,1.5297 3.896401,2.6044 -1.295681,-1.464 -2.924125,-2.6693 -4.832545,-3.4831 -6.834148,-2.9114 -14.665713,0.3002 -17.492881,7.1718 -2.009578,4.8849 -0.948149,10.302 2.28759,14.0733 0.31964,-0.5769 0.648763,-1.1464 0.989724,-1.7063 -2.286857,-3.4206 -2.890177,-7.8828 -1.216732,-11.9506 z" />
          <g
             id="g3445"
             transform="matrix(0.32787329,0,0,0.333612,-305.19193,2754.242)">
            <path
               style="fill:none;stroke-width:1.06666672"
               inkscape:connector-curvature="0"
               id="path3447"
               d="m 1174.9419,551.00693 c 8.0682,-19.27253 30.4192,-28.27946 49.9232,-20.112 4.5525,1.90187 8.5354,4.5856 11.8837,7.80694 -3.952,-4.38827 -8.9184,-8.00107 -14.7392,-10.44054 -20.8437,-8.7264 -44.7296,0.90027 -53.3525,21.4976 -4.6123,11.0176 -4.8758,24.68694 -0.5206,35.59574 2.24,-1.6768 4.5643,-3.35574 6.9707,-5.02507 -3.8773,-9.06347 -4.2485,-19.56907 -0.1653,-29.32267 z" />
            <path
               style="fill:none;stroke-width:1.06666672"
               inkscape:connector-curvature="0"
               id="path3449"
               d="m 1210.4405,535.59893 c -17.5274,0 -31.7856,14.25814 -31.7856,31.7856 0,3.33014 0.5248,6.5376 1.4827,9.5552 16.128,-10.56 35.5552,-20.31146 57.5883,-25.872 -0.011,-10e-4 -0.016,-10e-4 -0.022,-0.002 -5.5638,-9.2576 -15.7014,-15.46667 -27.263,-15.46667 z" />
            <path
               style="fill:none;stroke-width:1.06666672"
               inkscape:connector-curvature="0"
               id="path3451"
               d="m 1273.5563,556.46613 c 0.417,2.42987 0.7146,4.90134 0.8501,7.41547 -6.8395,0.5184 -10.5707,-0.6848 -10.5707,-0.6848 -3.0144,-3.38987 -6.4288,-5.8528 -9.889,-7.6448 -2.2827,0.24 -4.5931,0.5888 -6.9152,1.05387 -30.4896,6.10453 -56.2294,20.90133 -75.3792,35.4016 0.7104,1.0528 1.4581,2.07573 2.2858,3.024 -3.8581,6.84906 -5.5296,10.93653 -8.4373,17.99893 -2.9365,-2.89173 -5.5947,-6.06507 -7.9339,-9.47307 -7.969,7.06027 -14.0586,13.39627 -17.9914,17.76214 h 195.1018 c -5.9552,-16.4416 -24.2122,-57.1072 -61.121,-64.85334 z" />
            <linearGradient
               y2="564.8623"
               x2="1194.7563"
               y1="564.8623"
               x1="1074.7251"
               gradientUnits="userSpaceOnUse"
               id="linearGradient3453">
              <stop
                 id="stop3455"
                 style="stop-color:#F7EC30"
                 offset="0" />
              <stop
                 id="stop3457"
                 style="stop-color:#FAAE40"
                 offset="1" />
            </linearGradient>
            <path
               inkscape:connector-curvature="0"
               style="fill:url(#linearGradient4219);stroke-width:1.06666672"
               id="path3459"
               d="m 1173.9381,595.03253 c -0.8266,-0.94826 -1.5754,-1.9712 -2.2858,-3.024 -5.1947,3.9328 -9.8976,7.84 -14.0854,11.54987 2.3382,3.408 4.9974,6.58133 7.9339,9.47307 2.9077,-7.0624 4.5792,-11.14987 8.4373,-17.99894 z" />
            <linearGradient
               y2="515.80762"
               x2="1194.7563"
               y1="515.80762"
               x1="1074.7251"
               gradientUnits="userSpaceOnUse"
               id="linearGradient3461">
              <stop
                 id="stop3463"
                 style="stop-color:#F7EC30"
                 offset="0" />
              <stop
                 id="stop3465"
                 style="stop-color:#FAAE40"
                 offset="1" />
            </linearGradient>
            <path
               inkscape:connector-curvature="0"
               style="fill:url(#linearGradient4221);stroke-width:1.06666672"
               id="path3467"
               d="m 1168.6571,549.75893 c 8.6229,-20.5984 32.5088,-30.224 53.3525,-21.4976 5.8208,2.43947 10.7872,6.05227 14.7392,10.44054 -3.3483,-3.2224 -7.3312,-5.90507 -11.8837,-7.80694 -19.504,-8.1664 -41.8539,0.83947 -49.9232,20.112 -4.0832,9.7536 -3.712,20.2592 0.1642,29.32267 1.6395,-1.136 3.3152,-2.26773 5.0304,-3.39093 -0.9568,-3.0176 -1.4826,-6.22507 -1.4826,-9.5552 0,-17.52747 14.2581,-31.7856 31.7856,-31.7856 11.5626,0 21.7002,6.20906 27.2629,15.46666 0.011,10e-4 0.016,10e-4 0.022,0.002 2.5792,-0.65067 5.1904,-1.2512 7.8411,-1.7824 5.2298,-1.04747 10.4192,-1.5776 15.4208,-1.5776 3.7098,0 7.2693,0.29013 10.6901,0.82133 -8.0501,-26.18027 -32.4213,-45.21067 -61.2373,-45.21067 -35.3835,0 -64.0662,28.68374 -64.0662,64.06614 0,10.72 2.6507,20.81173 7.3067,29.68746 4.3211,-3.78026 9.1488,-7.74186 14.4565,-11.71626 -4.3562,-10.9088 -4.0917,-24.57707 0.5206,-35.59574 z" />
            <linearGradient
               y2="524.61823"
               x2="1194.7563"
               y1="524.61823"
               x1="1074.7251"
               gradientUnits="userSpaceOnUse"
               id="linearGradient3469">
              <stop
                 id="stop3471"
                 style="stop-color:#F7EC30"
                 offset="0" />
              <stop
                 id="stop3473"
                 style="stop-color:#FAAE40"
                 offset="1" />
            </linearGradient>
            <path
               inkscape:connector-curvature="0"
               style="fill:url(#linearGradient4223);stroke-width:1.06666672"
               id="path3475"
               d="m 1263.8357,563.1968 c 0,0 3.7312,1.2032 10.5707,0.6848 -0.1355,-2.51413 -0.4331,-4.9856 -0.8501,-7.41547 -3.9734,-0.83413 -8.1579,-1.29173 -12.5696,-1.29173 -2.304,0 -4.6571,0.12907 -7.04,0.3776 3.4602,1.792 6.8746,4.25493 9.889,7.6448 z" />
            <g
               id="g3477">
              <linearGradient
                 gradientTransform="matrix(-1,0,0,1,1789.3867,0)"
                 y2="551.48187"
                 x2="729.9198"
                 y1="551.48187"
                 x1="534.01422"
                 gradientUnits="userSpaceOnUse"
                 id="linearGradient3479">
                <stop
                   id="stop3481"
                   style="stop-color:#8BC541"
                   offset="0" />
                <stop
                   id="stop3483"
                   style="stop-color:#39B24A"
                   offset="1" />
              </linearGradient>
              <path
                 inkscape:connector-curvature="0"
                 style="fill:url(#linearGradient4225);stroke-width:1.06666672"
                 id="path3485"
                 d="m 1273.5563,556.46613 c -3.9734,-0.83413 -8.1579,-1.29173 -12.5696,-1.29173 -2.304,0 -4.6571,0.12907 -7.04,0.3776 -2.2827,0.24 -4.5931,0.5888 -6.9152,1.05387 -30.4896,6.10453 -56.2294,20.90133 -75.3792,35.4016 -5.1947,3.9328 -9.8976,7.84 -14.0854,11.54986 -7.969,7.06027 -14.0586,13.39627 -17.9914,17.76214 h 195.1018 c -5.9552,-16.4416 -24.2122,-57.1072 -61.121,-64.85334 z" />
            </g>
          </g>
          <g
             style="opacity:0.21000001"
             id="g3487"
             transform="matrix(0.32787329,0,0,0.333612,-305.19193,2754.242)">
            <linearGradient
               gradientTransform="matrix(-1,0,0,1,1790.9893,0)"
               y2="567.83539"
               x2="723.15167"
               y1="567.83539"
               x1="538.40771"
               gradientUnits="userSpaceOnUse"
               id="linearGradient3489">
              <stop
                 id="stop3491"
                 style="stop-color:#FFFFFF"
                 offset="0" />
              <stop
                 id="stop3493"
                 style="stop-color:#FFFFFF;stop-opacity:0"
                 offset="1" />
            </linearGradient>
            <path
               inkscape:connector-curvature="0"
               style="fill:url(#linearGradient4227);stroke-width:1.06666672"
               id="path3495"
               d="m 1247.3781,589.392 c 60.4811,-5.92853 84.7648,27.86027 88.2571,33.29387 h -196.5376 c 1.8571,-1.15414 44.0235,-26.99414 108.2805,-33.29387 z" />
          </g>
        </g>
        <text
           inkscape:export-ydpi="85.139999"
           inkscape:export-xdpi="85.139999"
           inkscape:export-filename="/home/pockey/Documents/SFD/SFD12/Stickers/sticker-2.png"
           xml:space="preserve"
           style="font-style:normal;font-weight:normal;font-size:9.81045914px;line-height:0%;font-family:sans-serif;letter-spacing:0px;word-spacing:0px;fill:#f9d523;fill-opacity:1;stroke:none;stroke-width:0.8175382"
           x="297.13855"
           y="892.31244"
           id="text3293"
           transform="scale(0.89551666,1.1166738)"><tspan
             sodipodi:role="line"
             x="297.13855"
             y="892.31244"
             style="font-style:normal;font-variant:normal;font-weight:bold;font-stretch:normal;font-size:32.70153046px;line-height:77.99999714%;font-family:VDS;-inkscape-font-specification:'VDS Bold';text-align:start;letter-spacing:0.46645662px;text-anchor:start;fill:#ffffff;fill-opacity:1;stroke-width:0.8175382"
             id="tspan3295">Dia da Liberdade do Software</tspan></text>
        <text
           inkscape:export-ydpi="85.139999"
           inkscape:export-xdpi="85.139999"
           inkscape:export-filename="/home/pockey/Documents/SFD/SFD12/Stickers/sticker-2.png"
           transform="scale(0.89551666,1.1166738)"
           id="text3279"
           y="933.58923"
           x="375.08832"
           style="font-style:normal;font-variant:normal;font-weight:normal;font-stretch:normal;font-size:9.81045914px;line-height:0%;font-family:Comfortaa;-inkscape-font-specification:Comfortaa;letter-spacing:0px;word-spacing:0px;fill:#f9d523;fill-opacity:1;stroke:none;stroke-width:0.8175382"
           xml:space="preserve"><tspan
             id="tspan3285"
             style="font-style:normal;font-variant:normal;font-weight:normal;font-stretch:normal;font-size:22.89107323px;line-height:77.99999714%;font-family:Comfortaa;-inkscape-font-specification:Comfortaa;text-align:start;letter-spacing:1.70042884px;text-anchor:start;fill:#f15a24;fill-opacity:1;stroke-width:0.8175382"
             y="933.58923"
             x="375.08832"
             sodipodi:role="line">16 de setembro de 2017</tspan></text>
        <text
           inkscape:export-ydpi="85.139999"
           inkscape:export-xdpi="85.139999"
           inkscape:export-filename="/home/pockey/Documents/SFD/SFD12/Stickers/sticker-2.png"
           xml:space="preserve"
           style="font-style:normal;font-variant:normal;font-weight:normal;font-stretch:normal;font-size:9.81045914px;line-height:0%;font-family:Comfortaa;-inkscape-font-specification:Comfortaa;letter-spacing:0px;word-spacing:0px;fill:#f9d523;fill-opacity:1;stroke:none;stroke-width:0.8175382"
           x="342.23654"
           y="967.84076"
           id="text3301"
           transform="scale(0.89551666,1.1166738)"><tspan
             sodipodi:role="line"
             x="342.23654"
             y="967.84076"
             style="font-style:normal;font-variant:normal;font-weight:normal;font-stretch:normal;font-size:22.89107323px;line-height:77.99999714%;font-family:Comfortaa;-inkscape-font-specification:Comfortaa;text-align:start;letter-spacing:1.4423213px;text-anchor:start;fill:#39b54a;fill-opacity:1;stroke-width:0.8175382"
             id="tspan3303">Curitiba - JUPTER Tech Space</tspan></text>
        <text
           inkscape:export-ydpi="85.139999"
           inkscape:export-xdpi="85.139999"
           inkscape:export-filename="/home/pockey/Documents/SFD/SFD12/Stickers/sticker-2.png"
           xml:space="preserve"
           style="font-style:normal;font-variant:normal;font-weight:normal;font-stretch:normal;font-size:5.84001207px;line-height:0%;font-family:Comfortaa;-inkscape-font-specification:Comfortaa;letter-spacing:0px;word-spacing:0px;fill:#f9d523;fill-opacity:1;stroke:none;stroke-width:0.48666763"
           x="37.650055"
           y="962.41888"
           id="text3301-3"
           transform="scale(0.89551666,1.1166738)"><tspan
             sodipodi:role="line"
             x="37.650055"
             y="962.41888"
             style="font-style:normal;font-variant:normal;font-weight:normal;font-stretch:normal;font-size:13.62669373px;line-height:77.99999714%;font-family:Comfortaa;-inkscape-font-specification:Comfortaa;text-align:start;letter-spacing:0.85859108px;text-anchor:start;fill:#ffffff;fill-opacity:1;stroke-width:0.48666763"
             id="tspan3303-6">http://sfd.curitibalivre.org.br</tspan></text>
      </g>
    </g>
  </g>
</svg>
