<?xml version="1.0" encoding="UTF-8" standalone="no"?>
<!-- Created with Inkscape (http://www.inkscape.org/) -->

<svg
   xmlns:dc="http://purl.org/dc/elements/1.1/"
   xmlns:cc="http://creativecommons.org/ns#"
   xmlns:rdf="http://www.w3.org/1999/02/22-rdf-syntax-ns#"
   xmlns:svg="http://www.w3.org/2000/svg"
   xmlns="http://www.w3.org/2000/svg"
   xmlns:xlink="http://www.w3.org/1999/xlink"
   xmlns:sodipodi="http://sodipodi.sourceforge.net/DTD/sodipodi-0.dtd"
   xmlns:inkscape="http://www.inkscape.org/namespaces/inkscape"
   width="400"
   height="400"
   id="svg3417"
   version="1.1"
   inkscape:version="0.48.4 r9939"
   sodipodi:docname="banner-contador.svg"
   inkscape:export-filename="/home/phls/phls/eventos/sfd/2013/banner-fb-euvou.png"
   inkscape:export-xdpi="90"
   inkscape:export-ydpi="90">
  <defs
     id="defs3419">
    <filter
       inkscape:collect="always"
       id="filter8010"
       color-interpolation-filters="sRGB">
      <feGaussianBlur
         inkscape:collect="always"
         stdDeviation="4.242438"
         id="feGaussianBlur8012" />
    </filter>
    <linearGradient
       id="SVGID_1_-06-3-8-1"
       gradientUnits="userSpaceOnUse"
       x1="-1664.0215"
       y1="-3441.8408"
       x2="-1644.5204"
       y2="-3444.8438"
       gradientTransform="matrix(0.2376,-0.9714,-0.9714,-0.2376,-1794.35,-1897.84)">
      <stop
         offset="0"
         style="stop-color:#F7EC30"
         id="stop28-7-7-5-3" />
      <stop
         offset="1"
         style="stop-color:#FAAE40"
         id="stop30-7-0-4-7" />
    </linearGradient>
    <linearGradient
       id="SVGID_2_-67-0-6-1"
       gradientUnits="userSpaceOnUse"
       x1="-925.97803"
       y1="-8201.6367"
       x2="-905.17151"
       y2="-8204.8408"
       gradientTransform="matrix(0.8559,-0.5171,-0.5171,-0.8559,-2252.52,-6984.25)">
      <stop
         offset="0"
         style="stop-color:#F7EC30"
         id="stop35-5-6-98-1" />
      <stop
         offset="1"
         style="stop-color:#FAAE40"
         id="stop37-5-6-2-3" />
    </linearGradient>
    <linearGradient
       id="SVGID_3_-38-5-3-3"
       gradientUnits="userSpaceOnUse"
       x1="-66.996101"
       y1="-10286.06"
       x2="-42.5634"
       y2="-10289.822"
       gradientTransform="matrix(0.9997,0.0244,0.0244,-0.9997,1562.12,-9766.4)">
      <stop
         offset="0"
         style="stop-color:#F7EC30"
         id="stop42-6-9-19-2" />
      <stop
         offset="1"
         style="stop-color:#FAAE40"
         id="stop44-4-9-6-1" />
    </linearGradient>
    <linearGradient
       id="SVGID_4_-2-8-9-5"
       gradientUnits="userSpaceOnUse"
       x1="1313.8677"
       y1="-10460.59"
       x2="1338.9114"
       y2="-10464.446"
       gradientTransform="matrix(0.802,0.5973,0.5973,-0.802,6476.96,-8626.83)">
      <stop
         offset="0"
         style="stop-color:#F7EC30"
         id="stop49-96-8-5-6" />
      <stop
         offset="1"
         style="stop-color:#FAAE40"
         id="stop51-99-4-2-5" />
    </linearGradient>
    <linearGradient
       id="SVGID_5_-92-1-3-2"
       gradientUnits="userSpaceOnUse"
       x1="-1594.7344"
       y1="273.75201"
       x2="-1577.8234"
       y2="271.1478"
       gradientTransform="matrix(-0.3327,-0.943,-0.943,0.3327,859.108,-1024.23)">
      <stop
         offset="0"
         style="stop-color:#F7EC30"
         id="stop56-92-4-1-2" />
      <stop
         offset="1"
         style="stop-color:#FAAE40"
         id="stop58-0-5-2-1" />
    </linearGradient>
    <linearGradient
       id="SVGID_6_-44-0-8-2"
       gradientUnits="userSpaceOnUse"
       x1="-1839.7549"
       y1="2328.082"
       x2="-1826.1986"
       y2="2325.9944"
       gradientTransform="matrix(-0.6493,-0.7605,-0.7605,0.6493,1703.57,-2306.63)">
      <stop
         offset="0"
         style="stop-color:#F7EC30"
         id="stop63-8-0-7-4" />
      <stop
         offset="1"
         style="stop-color:#FAAE40"
         id="stop65-54-4-5-1" />
    </linearGradient>
    <linearGradient
       id="SVGID_7_-57-4-9-5"
       gradientUnits="userSpaceOnUse"
       x1="-776.59668"
       y1="3306.3516"
       x2="-765.99219"
       y2="3304.7185"
       gradientTransform="matrix(-0.9803,-0.1975,-0.1975,0.9803,1031.18,-2761.68)">
      <stop
         offset="0"
         style="stop-color:#F7EC30"
         id="stop70-5-1-5-7" />
      <stop
         offset="1"
         style="stop-color:#FAAE40"
         id="stop72-2-8-5-8" />
    </linearGradient>
    <linearGradient
       id="SVGID_8_-74-25-0-9"
       gradientUnits="userSpaceOnUse"
       x1="1344.7505"
       y1="512.69678"
       x2="1344.7505"
       y2="598.70697">
      <stop
         offset="0"
         style="stop-color:#F7EC30"
         id="stop79-2-7-00-2" />
      <stop
         offset="1"
         style="stop-color:#FAAE40"
         id="stop81-6-72-3-7" />
    </linearGradient>
    <linearGradient
       id="SVGID_9_-0-1-0-6"
       gradientUnits="userSpaceOnUse"
       x1="1384.2378"
       y1="512.69678"
       x2="1384.2378"
       y2="598.70697">
      <stop
         offset="0"
         style="stop-color:#F7EC30"
         id="stop86-92-2-7-4" />
      <stop
         offset="1"
         style="stop-color:#FAAE40"
         id="stop88-7-3-5-7" />
    </linearGradient>
    <linearGradient
       id="SVGID_10_-40-5-8-7"
       gradientUnits="userSpaceOnUse"
       x1="1450.354"
       y1="512.69678"
       x2="1450.354"
       y2="598.70721">
      <stop
         offset="0"
         style="stop-color:#F7EC30"
         id="stop93-3-8-6-2" />
      <stop
         offset="1"
         style="stop-color:#FAAE40"
         id="stop95-8-6-9-2" />
    </linearGradient>
    <linearGradient
       id="SVGID_11_-44-5-4-6"
       gradientUnits="userSpaceOnUse"
       x1="1492.2622"
       y1="512.69678"
       x2="1492.2622"
       y2="598.70697">
      <stop
         offset="0"
         style="stop-color:#F7EC30"
         id="stop100-7-6-9-3" />
      <stop
         offset="1"
         style="stop-color:#FAAE40"
         id="stop102-5-7-9-0" />
    </linearGradient>
    <linearGradient
       id="SVGID_12_-3-98-3-1"
       gradientUnits="userSpaceOnUse"
       x1="1537.4175"
       y1="512.69678"
       x2="1537.4175"
       y2="598.70728">
      <stop
         offset="0"
         style="stop-color:#F7EC30"
         id="stop107-8-6-9-5" />
      <stop
         offset="1"
         style="stop-color:#FAAE40"
         id="stop109-7-6-5-6" />
    </linearGradient>
    <linearGradient
       id="SVGID_13_-22-6-3-0"
       gradientUnits="userSpaceOnUse"
       x1="1573.0542"
       y1="512.69678"
       x2="1573.0542"
       y2="598.70721">
      <stop
         offset="0"
         style="stop-color:#F7EC30"
         id="stop114-7-6-9-0" />
      <stop
         offset="1"
         style="stop-color:#FAAE40"
         id="stop116-9-8-6-3" />
    </linearGradient>
    <linearGradient
       id="SVGID_14_-66-1-3-6"
       gradientUnits="userSpaceOnUse"
       x1="1604.2378"
       y1="512.69678"
       x2="1604.2378"
       y2="598.70697">
      <stop
         offset="0"
         style="stop-color:#F7EC30"
         id="stop121-42-0-47-6" />
      <stop
         offset="1"
         style="stop-color:#FAAE40"
         id="stop123-1-2-8-0" />
    </linearGradient>
    <linearGradient
       id="SVGID_15_-47-49-6-5"
       gradientUnits="userSpaceOnUse"
       x1="1421.5991"
       y1="512.69678"
       x2="1421.5991"
       y2="598.70709">
      <stop
         offset="0"
         style="stop-color:#F7EC30"
         id="stop130-6-0-9-8" />
      <stop
         offset="1"
         style="stop-color:#FAAE40"
         id="stop132-3-12-5-9" />
    </linearGradient>
    <linearGradient
       id="SVGID_16_-3-2-2-0"
       gradientUnits="userSpaceOnUse"
       x1="1427.314"
       y1="537.75677"
       x2="1435.064"
       y2="548.25677">
      <stop
         offset="0"
         style="stop-color:#F69220"
         id="stop137-8-6-4-6" />
      <stop
         offset="0.4724"
         style="stop-color:#F05A29"
         id="stop139-0-2-6-0" />
      <stop
         offset="0.4785"
         style="stop-color:#EE4037"
         id="stop141-3-9-07-8" />
      <stop
         offset="1"
         style="stop-color:#F05A29"
         id="stop143-9-4-3-3" />
    </linearGradient>
    <linearGradient
       id="SVGID_17_-2-8-8-8"
       gradientUnits="userSpaceOnUse"
       x1="1422.7798"
       y1="512.69678"
       x2="1422.7798"
       y2="598.70752">
      <stop
         offset="0"
         style="stop-color:#F7EC30"
         id="stop148-3-3-0-2" />
      <stop
         offset="1"
         style="stop-color:#FAAE40"
         id="stop150-3-7-9-1" />
    </linearGradient>
    <linearGradient
       id="SVGID_18_-4-2-7-5"
       gradientUnits="userSpaceOnUse"
       x1="1386.8247"
       y1="595.18701"
       x2="1386.8247"
       y2="661.90637">
      <stop
         offset="0"
         style="stop-color:#F7EC30"
         id="stop157-6-9-9-8" />
      <stop
         offset="1"
         style="stop-color:#FAAE40"
         id="stop159-4-4-2-5" />
    </linearGradient>
    <linearGradient
       id="SVGID_19_-81-7-8-0"
       gradientUnits="userSpaceOnUse"
       x1="1418.7251"
       y1="595.18701"
       x2="1418.7251"
       y2="661.90637">
      <stop
         offset="0"
         style="stop-color:#F7EC30"
         id="stop164-1-0-0-7" />
      <stop
         offset="1"
         style="stop-color:#FAAE40"
         id="stop166-6-5-3-3" />
    </linearGradient>
    <linearGradient
       id="SVGID_20_-6-9-1-2"
       gradientUnits="userSpaceOnUse"
       x1="1449.9087"
       y1="595.18701"
       x2="1449.9087"
       y2="661.90637">
      <stop
         offset="0"
         style="stop-color:#F7EC30"
         id="stop171-9-3-1-3" />
      <stop
         offset="1"
         style="stop-color:#FAAE40"
         id="stop173-3-9-2-0" />
    </linearGradient>
    <linearGradient
       id="SVGID_21_-1-3-7-7"
       gradientUnits="userSpaceOnUse"
       x1="1486.3628"
       y1="595.18701"
       x2="1486.3628"
       y2="661.90637">
      <stop
         offset="0"
         style="stop-color:#F7EC30"
         id="stop178-3-4-6-7" />
      <stop
         offset="1"
         style="stop-color:#FAAE40"
         id="stop180-3-7-3-6" />
    </linearGradient>
    <linearGradient
       id="SVGID_22_-0-3-1-1"
       gradientUnits="userSpaceOnUse"
       x1="1564.644"
       y1="595.18701"
       x2="1564.644"
       y2="661.90637">
      <stop
         offset="0"
         style="stop-color:#F7EC30"
         id="stop185-91-9-8-1" />
      <stop
         offset="1"
         style="stop-color:#FAAE40"
         id="stop187-6-1-3-9" />
    </linearGradient>
    <linearGradient
       id="SVGID_23_-3-8-29-8"
       gradientUnits="userSpaceOnUse"
       x1="1613.4438"
       y1="595.18701"
       x2="1613.4438"
       y2="661.90619">
      <stop
         offset="0"
         style="stop-color:#F7EC30"
         id="stop192-4-3-7-9" />
      <stop
         offset="1"
         style="stop-color:#FAAE40"
         id="stop194-00-4-26-8" />
    </linearGradient>
    <linearGradient
       id="SVGID_24_-0-5-5-0"
       gradientUnits="userSpaceOnUse"
       x1="1686.064"
       y1="595.18701"
       x2="1686.064"
       y2="661.90637">
      <stop
         offset="0"
         style="stop-color:#F7EC30"
         id="stop199-4-0-0-3" />
      <stop
         offset="1"
         style="stop-color:#FAAE40"
         id="stop201-6-4-2-7" />
    </linearGradient>
    <linearGradient
       id="SVGID_25_-041-5-15-6"
       gradientUnits="userSpaceOnUse"
       x1="1733.1841"
       y1="595.18701"
       x2="1733.1841"
       y2="661.90619">
      <stop
         offset="0"
         style="stop-color:#F7EC30"
         id="stop206-9-1-0-9" />
      <stop
         offset="1"
         style="stop-color:#FAAE40"
         id="stop208-84-9-2-2" />
    </linearGradient>
    <linearGradient
       id="SVGID_26_-5-2-0-7"
       gradientUnits="userSpaceOnUse"
       x1="1773.27"
       y1="595.18701"
       x2="1773.27"
       y2="661.90662">
      <stop
         offset="0"
         style="stop-color:#F7EC30"
         id="stop213-21-5-5-7" />
      <stop
         offset="1"
         style="stop-color:#FAAE40"
         id="stop215-9-0-44-9" />
    </linearGradient>
    <linearGradient
       id="SVGID_27_-242-6-3-6"
       gradientUnits="userSpaceOnUse"
       x1="1526.7856"
       y1="595.18701"
       x2="1526.7856"
       y2="661.90649">
      <stop
         offset="0"
         style="stop-color:#F7EC30"
         id="stop224-8-7-39-2" />
      <stop
         offset="1"
         style="stop-color:#FAAE40"
         id="stop226-03-5-8-7" />
    </linearGradient>
    <linearGradient
       id="SVGID_28_-4-1-8-5"
       gradientUnits="userSpaceOnUse"
       x1="1150.4614"
       y1="634.6167"
       x2="1270.4927"
       y2="634.6167">
      <stop
         offset="0"
         style="stop-color:#F7EC30"
         id="stop239-36-4-1-8" />
      <stop
         offset="1"
         style="stop-color:#FAAE40"
         id="stop241-7-9-1-8" />
    </linearGradient>
    <linearGradient
       id="SVGID_29_-3-8-4-5"
       gradientUnits="userSpaceOnUse"
       x1="1150.4614"
       y1="585.56201"
       x2="1270.4922"
       y2="585.56201">
      <stop
         offset="0"
         style="stop-color:#F7EC30"
         id="stop246-78-8-8-6" />
      <stop
         offset="1"
         style="stop-color:#FAAE40"
         id="stop248-0-6-9-5" />
    </linearGradient>
    <linearGradient
       id="SVGID_30_-0-7-34-8"
       gradientUnits="userSpaceOnUse"
       x1="1150.4614"
       y1="594.37207"
       x2="1270.4927"
       y2="594.37207">
      <stop
         offset="0"
         style="stop-color:#F7EC30"
         id="stop253-2-7-4-4" />
      <stop
         offset="1"
         style="stop-color:#FAAE40"
         id="stop255-22-1-4-8" />
    </linearGradient>
    <linearGradient
       id="SVGID_31_-56-2-9-3"
       gradientUnits="userSpaceOnUse"
       x1="458.2778"
       y1="621.23633"
       x2="654.18433"
       y2="621.23633"
       gradientTransform="matrix(-1,0,0,1,1789.39,0)">
      <stop
         offset="0"
         style="stop-color:#8BC541"
         id="stop262-8-7-7-8" />
      <stop
         offset="1"
         style="stop-color:#39B24A"
         id="stop264-52-7-5-7" />
    </linearGradient>
    <linearGradient
       id="SVGID_32_-27-7-6-2"
       gradientUnits="userSpaceOnUse"
       x1="462.67139"
       y1="637.58978"
       x2="647.41541"
       y2="637.58978"
       gradientTransform="matrix(-1,0,0,1,1790.99,0)">
      <stop
         offset="0"
         style="stop-color:#FFFFFF"
         id="stop271-0-1-6-4" />
      <stop
         offset="1"
         style="stop-color:#FFFFFF;stop-opacity:0"
         id="stop273-6-2-01-5" />
    </linearGradient>
    <linearGradient
       inkscape:collect="always"
       xlink:href="#SVGID_1_-06-3-8-1"
       id="linearGradient3395"
       gradientUnits="userSpaceOnUse"
       gradientTransform="matrix(0.2376,-0.9714,-0.9714,-0.2376,-1688.9387,-876.19024)"
       x1="-1664.0215"
       y1="-3441.8408"
       x2="-1644.5204"
       y2="-3444.8438" />
    <linearGradient
       inkscape:collect="always"
       xlink:href="#SVGID_2_-67-0-6-1"
       id="linearGradient3397"
       gradientUnits="userSpaceOnUse"
       gradientTransform="matrix(0.8559,-0.5171,-0.5171,-0.8559,-2147.1087,-5962.6002)"
       x1="-925.97803"
       y1="-8201.6367"
       x2="-905.17151"
       y2="-8204.8408" />
    <linearGradient
       inkscape:collect="always"
       xlink:href="#SVGID_3_-38-5-3-3"
       id="linearGradient3399"
       gradientUnits="userSpaceOnUse"
       gradientTransform="matrix(0.9997,0.0244,0.0244,-0.9997,1667.5313,-8744.7502)"
       x1="-66.996101"
       y1="-10286.06"
       x2="-42.5634"
       y2="-10289.822" />
    <linearGradient
       inkscape:collect="always"
       xlink:href="#SVGID_4_-2-8-9-5"
       id="linearGradient3401"
       gradientUnits="userSpaceOnUse"
       gradientTransform="matrix(0.802,0.5973,0.5973,-0.802,6582.3713,-7605.1802)"
       x1="1313.8677"
       y1="-10460.59"
       x2="1338.9114"
       y2="-10464.446" />
    <linearGradient
       inkscape:collect="always"
       xlink:href="#SVGID_5_-92-1-3-2"
       id="linearGradient3403"
       gradientUnits="userSpaceOnUse"
       gradientTransform="matrix(-0.3327,-0.943,-0.943,0.3327,964.51932,-2.5802398)"
       x1="-1594.7344"
       y1="273.75201"
       x2="-1577.8234"
       y2="271.1478" />
    <linearGradient
       inkscape:collect="always"
       xlink:href="#SVGID_6_-44-0-8-2"
       id="linearGradient3405"
       gradientUnits="userSpaceOnUse"
       gradientTransform="matrix(-0.6493,-0.7605,-0.7605,0.6493,1808.9813,-1284.9802)"
       x1="-1839.7549"
       y1="2328.082"
       x2="-1826.1986"
       y2="2325.9944" />
    <linearGradient
       inkscape:collect="always"
       xlink:href="#SVGID_7_-57-4-9-5"
       id="linearGradient3407"
       gradientUnits="userSpaceOnUse"
       gradientTransform="matrix(-0.9803,-0.1975,-0.1975,0.9803,1136.5913,-1740.0302)"
       x1="-776.59668"
       y1="3306.3516"
       x2="-765.99219"
       y2="3304.7185" />
    <linearGradient
       inkscape:collect="always"
       xlink:href="#SVGID_8_-74-25-0-9"
       id="linearGradient3409"
       gradientUnits="userSpaceOnUse"
       gradientTransform="matrix(0.57799814,0,0,0.57799814,504.82768,941.20956)"
       x1="1344.7505"
       y1="512.69678"
       x2="1344.7505"
       y2="598.70697" />
    <linearGradient
       inkscape:collect="always"
       xlink:href="#SVGID_9_-0-1-0-6"
       id="linearGradient3411"
       gradientUnits="userSpaceOnUse"
       gradientTransform="matrix(0.57799814,0,0,0.57799814,504.82768,941.20956)"
       x1="1384.2378"
       y1="512.69678"
       x2="1384.2378"
       y2="598.70697" />
    <linearGradient
       inkscape:collect="always"
       xlink:href="#SVGID_10_-40-5-8-7"
       id="linearGradient3413"
       gradientUnits="userSpaceOnUse"
       gradientTransform="matrix(0.57799814,0,0,0.57799814,504.82768,941.20956)"
       x1="1450.354"
       y1="512.69678"
       x2="1450.354"
       y2="598.70721" />
    <linearGradient
       inkscape:collect="always"
       xlink:href="#SVGID_11_-44-5-4-6"
       id="linearGradient3415"
       gradientUnits="userSpaceOnUse"
       gradientTransform="matrix(0.57799814,0,0,0.57799814,504.82768,941.20956)"
       x1="1492.2622"
       y1="512.69678"
       x2="1492.2622"
       y2="598.70697" />
    <linearGradient
       inkscape:collect="always"
       xlink:href="#SVGID_12_-3-98-3-1"
       id="linearGradient3417"
       gradientUnits="userSpaceOnUse"
       gradientTransform="matrix(0.57799814,0,0,0.57799814,504.82768,941.20956)"
       x1="1537.4175"
       y1="512.69678"
       x2="1537.4175"
       y2="598.70728" />
    <linearGradient
       inkscape:collect="always"
       xlink:href="#SVGID_13_-22-6-3-0"
       id="linearGradient3419"
       gradientUnits="userSpaceOnUse"
       gradientTransform="matrix(0.57799814,0,0,0.57799814,504.82768,941.20956)"
       x1="1573.0542"
       y1="512.69678"
       x2="1573.0542"
       y2="598.70721" />
    <linearGradient
       inkscape:collect="always"
       xlink:href="#SVGID_14_-66-1-3-6"
       id="linearGradient3421"
       gradientUnits="userSpaceOnUse"
       gradientTransform="matrix(0.57799814,0,0,0.57799814,504.82768,941.20956)"
       x1="1604.2378"
       y1="512.69678"
       x2="1604.2378"
       y2="598.70697" />
    <linearGradient
       inkscape:collect="always"
       xlink:href="#SVGID_15_-47-49-6-5"
       id="linearGradient3423"
       gradientUnits="userSpaceOnUse"
       gradientTransform="translate(198.26407,1921.5815)"
       x1="1421.5991"
       y1="512.69678"
       x2="1421.5991"
       y2="598.70709" />
    <linearGradient
       inkscape:collect="always"
       xlink:href="#SVGID_16_-3-2-2-0"
       id="linearGradient3425"
       gradientUnits="userSpaceOnUse"
       gradientTransform="translate(198.26407,1921.5815)"
       x1="1427.314"
       y1="537.75677"
       x2="1435.064"
       y2="548.25677" />
    <linearGradient
       inkscape:collect="always"
       xlink:href="#SVGID_17_-2-8-8-8"
       id="linearGradient3427"
       gradientUnits="userSpaceOnUse"
       gradientTransform="translate(198.26407,1921.5815)"
       x1="1422.7798"
       y1="512.69678"
       x2="1422.7798"
       y2="598.70752" />
    <linearGradient
       inkscape:collect="always"
       xlink:href="#SVGID_18_-4-2-7-5"
       id="linearGradient3429"
       gradientUnits="userSpaceOnUse"
       gradientTransform="translate(198.26407,1921.5815)"
       x1="1386.8247"
       y1="595.18701"
       x2="1386.8247"
       y2="661.90637" />
    <linearGradient
       inkscape:collect="always"
       xlink:href="#SVGID_19_-81-7-8-0"
       id="linearGradient3431"
       gradientUnits="userSpaceOnUse"
       gradientTransform="translate(198.26407,1921.5815)"
       x1="1418.7251"
       y1="595.18701"
       x2="1418.7251"
       y2="661.90637" />
    <linearGradient
       inkscape:collect="always"
       xlink:href="#SVGID_20_-6-9-1-2"
       id="linearGradient3433"
       gradientUnits="userSpaceOnUse"
       gradientTransform="translate(198.26407,1921.5815)"
       x1="1449.9087"
       y1="595.18701"
       x2="1449.9087"
       y2="661.90637" />
    <linearGradient
       inkscape:collect="always"
       xlink:href="#SVGID_21_-1-3-7-7"
       id="linearGradient3435"
       gradientUnits="userSpaceOnUse"
       gradientTransform="translate(198.26407,1921.5815)"
       x1="1486.3628"
       y1="595.18701"
       x2="1486.3628"
       y2="661.90637" />
    <linearGradient
       inkscape:collect="always"
       xlink:href="#SVGID_22_-0-3-1-1"
       id="linearGradient3437"
       gradientUnits="userSpaceOnUse"
       gradientTransform="translate(198.26407,1921.5815)"
       x1="1564.644"
       y1="595.18701"
       x2="1564.644"
       y2="661.90637" />
    <linearGradient
       inkscape:collect="always"
       xlink:href="#SVGID_23_-3-8-29-8"
       id="linearGradient3439"
       gradientUnits="userSpaceOnUse"
       gradientTransform="translate(198.26407,1921.5815)"
       x1="1613.4438"
       y1="595.18701"
       x2="1613.4438"
       y2="661.90619" />
    <linearGradient
       inkscape:collect="always"
       xlink:href="#SVGID_24_-0-5-5-0"
       id="linearGradient3441"
       gradientUnits="userSpaceOnUse"
       gradientTransform="translate(198.26407,1921.5815)"
       x1="1686.064"
       y1="595.18701"
       x2="1686.064"
       y2="661.90637" />
    <linearGradient
       inkscape:collect="always"
       xlink:href="#SVGID_25_-041-5-15-6"
       id="linearGradient3443"
       gradientUnits="userSpaceOnUse"
       gradientTransform="translate(198.26407,1921.5815)"
       x1="1733.1841"
       y1="595.18701"
       x2="1733.1841"
       y2="661.90619" />
    <linearGradient
       inkscape:collect="always"
       xlink:href="#SVGID_26_-5-2-0-7"
       id="linearGradient3445"
       gradientUnits="userSpaceOnUse"
       gradientTransform="translate(198.26407,1921.5815)"
       x1="1773.27"
       y1="595.18701"
       x2="1773.27"
       y2="661.90662" />
    <linearGradient
       inkscape:collect="always"
       xlink:href="#SVGID_27_-242-6-3-6"
       id="linearGradient3447"
       gradientUnits="userSpaceOnUse"
       gradientTransform="translate(198.26407,1921.5815)"
       x1="1526.7856"
       y1="595.18701"
       x2="1526.7856"
       y2="661.90649" />
    <linearGradient
       inkscape:collect="always"
       xlink:href="#SVGID_28_-4-1-8-5"
       id="linearGradient3449"
       gradientUnits="userSpaceOnUse"
       gradientTransform="translate(105.41132,1021.6498)"
       x1="1150.4614"
       y1="634.6167"
       x2="1270.4927"
       y2="634.6167" />
    <linearGradient
       inkscape:collect="always"
       xlink:href="#SVGID_29_-3-8-4-5"
       id="linearGradient3451"
       gradientUnits="userSpaceOnUse"
       gradientTransform="translate(105.41132,1021.6498)"
       x1="1150.4614"
       y1="585.56201"
       x2="1270.4922"
       y2="585.56201" />
    <linearGradient
       inkscape:collect="always"
       xlink:href="#SVGID_30_-0-7-34-8"
       id="linearGradient3453"
       gradientUnits="userSpaceOnUse"
       gradientTransform="translate(105.41132,1021.6498)"
       x1="1150.4614"
       y1="594.37207"
       x2="1270.4927"
       y2="594.37207" />
    <linearGradient
       inkscape:collect="always"
       xlink:href="#SVGID_31_-56-2-9-3"
       id="linearGradient3455"
       gradientUnits="userSpaceOnUse"
       gradientTransform="matrix(-1,0,0,1,1894.8013,1021.6498)"
       x1="458.2778"
       y1="621.23633"
       x2="654.18433"
       y2="621.23633" />
    <linearGradient
       inkscape:collect="always"
       xlink:href="#SVGID_32_-27-7-6-2"
       id="linearGradient3457"
       gradientUnits="userSpaceOnUse"
       gradientTransform="matrix(-1,0,0,1,1896.4013,1021.6498)"
       x1="462.67139"
       y1="637.58978"
       x2="647.41541"
       y2="637.58978" />
    <filter
       id="filter3403"
       inkscape:label="Drop Shadow"
       inkscape:menu="Ridges"
       inkscape:menu-tooltip="Gel effect with light refraction"
       height="1.4"
       width="1.4"
       y="-0.2"
       x="-0.2"
       color-interpolation-filters="sRGB">
      <feOffset
         id="feOffset3405"
         dx="7"
         dy="7"
         in="SourceAlpha"
         result="result3" />
      <feGaussianBlur
         id="feGaussianBlur3407"
         stdDeviation="8"
         in="result3"
         result="result1" />
      <feComposite
         id="feComposite3409"
         in2="result1"
         operator="in"
         in="SourceGraphic"
         result="result2" />
      <feComposite
         id="feComposite3411"
         in2="result2"
         operator="out"
         result="fbSourceGraphic"
         in="result2" />
      <feColorMatrix
         id="feColorMatrix3413"
         result="fbSourceGraphicAlpha"
         in="fbSourceGraphic"
         values="0 0 0 -1 0 0 0 0 -1 0 0 0 0 1 0 0 0 0 4 0 " />
      <feGaussianBlur
         id="feGaussianBlur3415"
         result="result0"
         in="fbSourceGraphicAlpha"
         stdDeviation="2" />
      <feSpecularLighting
         id="feSpecularLighting3417"
         specularExponent="20"
         specularConstant="1.20000005"
         surfaceScale="3"
         lighting-color="#ffffff"
         result="result1"
         in="result0">
        <feDistantLight
           id="feDistantLight3419"
           azimuth="235"
           elevation="45" />
      </feSpecularLighting>
      <feComposite
         id="feComposite3421"
         in2="fbSourceGraphicAlpha"
         operator="in"
         result="result2"
         in="result1" />
      <feComposite
         k4="0"
         k1="0"
         id="feComposite3423"
         in2="result2"
         in="fbSourceGraphic"
         operator="arithmetic"
         k2="2"
         k3="2"
         result="result91" />
      <feBlend
         id="feBlend3425"
         in2="result91"
         mode="multiply"
         result="fbSourceGraphic" />
      <feColorMatrix
         result="fbSourceGraphicAlpha"
         in="fbSourceGraphic"
         values="0 0 0 -1 0 0 0 0 -1 0 0 0 0 -1 0 0 0 0 1 0"
         id="feColorMatrix3473" />
      <feFlood
         id="feFlood3475"
         flood-opacity="0.5"
         flood-color="rgb(0,0,0)"
         result="flood"
         in="fbSourceGraphic" />
      <feComposite
         in2="fbSourceGraphic"
         id="feComposite3477"
         in="flood"
         operator="in"
         result="composite1" />
      <feGaussianBlur
         id="feGaussianBlur3479"
         stdDeviation="3"
         result="blur" />
      <feOffset
         id="feOffset3481"
         dx="3"
         dy="3"
         result="offset" />
      <feComposite
         in2="offset"
         id="feComposite3483"
         in="fbSourceGraphic"
         operator="over"
         result="composite2" />
    </filter>
  </defs>
  <sodipodi:namedview
     id="base"
     pagecolor="#ffffff"
     bordercolor="#666666"
     borderopacity="1.0"
     inkscape:pageopacity="0.0"
     inkscape:pageshadow="2"
     inkscape:zoom="0.98994949"
     inkscape:cx="360.68961"
     inkscape:cy="188.97753"
     inkscape:document-units="px"
     inkscape:current-layer="g27116"
     showgrid="false"
     inkscape:window-width="1280"
     inkscape:window-height="724"
     inkscape:window-x="0"
     inkscape:window-y="24"
     inkscape:window-maximized="1" />
  <metadata
     id="metadata3422">
    <rdf:RDF>
      <cc:Work
         rdf:about="">
        <dc:format>image/svg+xml</dc:format>
        <dc:type
           rdf:resource="http://purl.org/dc/dcmitype/StillImage" />
        <dc:title />
      </cc:Work>
    </rdf:RDF>
  </metadata>
  <g
     inkscape:label="Camada 1"
     inkscape:groupmode="layer"
     id="layer1"
     transform="translate(0,-652.36218)">
    <g
       transform="matrix(0.71743565,0,0,0.71743565,-672.96512,618.16757)"
       id="g27116">
      <g
         id="layer1-4"
         transform="matrix(1.847243,0,0,1.847243,688.99213,-100.12563)"
         inkscape:export-filename="/home/pockey/Documents/SFD/SFD11/design/web-banners/web-banner-chat-organizing.png"
         inkscape:export-xdpi="64.959999"
         inkscape:export-ydpi="64.959999"
         style="opacity:0.9">
        <g
           id="g4361"
           transform="matrix(1,0,0,1.0254643,123.295,65.495115)">
          <path
             style="fill:#000000;fill-opacity:0.49803922;fill-rule:evenodd;stroke-width:2.5;filter:url(#filter8010)"
             id="path715"
             d="m 89.690184,40.063861 336.959796,2.3983 c 20.813,0.1481 56.056,5.474 63.554,34.7749 8.661,38.532799 11.547,211.947799 -2.399,238.630799 -10.281,21.521 -19.828,28.698 -29.977,34.774 -30.065,14.443 -170.28,11.991 -170.28,11.991 l -33.89876,-0.80426 -29.65524,-0.39474 -145.096196,0.001 c -20.3601,0 -38.9787,-12.804 -45.5673,-40.772 -11.47156,-50.783 -13.70463,-193.213 -2.3984,-226.637799 10.7142,-30.5384 28.7208,-54.175 58.7581,-53.9612 z"
             inkscape:connector-curvature="0"
             transform="matrix(0.54858252,0,0,0.88854462,23.963283,-14.319556)"
             sodipodi:nodetypes="sscccccccccs" />
          <path
             style="fill:#473f39;fill-opacity:1;fill-rule:evenodd;stroke:#d7b334;stroke-width:6.80422592;stroke-linejoin:round;stroke-opacity:1;stroke-dasharray:none"
             id="path559"
             d="m 64.695122,18.843351 182.732868,2.047493 c 11.28686,0.126437 30.39909,4.6733 34.46525,29.688263 4.69685,32.896484 6.26192,180.945513 -1.30098,203.725503 -5.57537,18.37306 -10.7527,24.50025 -16.25649,29.6875 -16.30421,12.33037 -92.34262,10.23703 -92.34262,10.23703 l -11.77318,-0.99844 -22.69207,-0.0252 -78.685482,8.5e-4 c -11.041256,0 -21.138099,-10.93112 -24.711088,-34.80815 C 27.910318,215.04342 26.699327,93.447121 32.83068,64.911473 38.640977,38.840023 48.405933,18.660824 64.695122,18.843351 z"
             inkscape:connector-curvature="0"
             sodipodi:nodetypes="sscccccccccs" />
        </g>
      </g>
      <g
         id="g3250"
         transform="translate(-8.4480264,299.90495)">
        <g
           style="opacity:0.81000001"
           id="g23-4-0-5"
           transform="matrix(0.69692538,0,0,0.69692538,224.01527,-244.76887)"
           inkscape:export-filename="/home/pockey/Documents/SFD/SFD11/design/web-banners/web-banner-organizing.png"
           inkscape:export-xdpi="122.81"
           inkscape:export-ydpi="122.81">
          <g
             id="g25-2-2-7">
            <linearGradient
               gradientTransform="matrix(0.2376,-0.9714,-0.9714,-0.2376,-1794.35,-1897.84)"
               y2="-3444.8438"
               x2="-1644.5204"
               y1="-3441.8408"
               x1="-1664.0215"
               gradientUnits="userSpaceOnUse"
               id="linearGradient3528-4-4-3">
              <stop
                 id="stop3530-9-5-2"
                 style="stop-color:#F7EC30"
                 offset="0" />
              <stop
                 id="stop3532-9-8-7"
                 style="stop-color:#FAAE40"
                 offset="1" />
            </linearGradient>
            <path
               style="fill:url(#linearGradient3395)"
               inkscape:connector-curvature="0"
               id="path32-4-2-2"
               d="m 1164.118,538.513 c 0,0 7.496,9.435 5.707,-0.229 -1.791,-9.665 -16.127,-28.551 -23.35,-23.98 -7.227,4.57 -3.574,8.335 0.963,10.764 4.541,2.428 13.486,8.582 16.68,13.445 z" />
            <linearGradient
               gradientTransform="matrix(0.8559,-0.5171,-0.5171,-0.8559,-2252.52,-6984.25)"
               y2="-8204.8408"
               x2="-905.17151"
               y1="-8201.6367"
               x1="-925.97803"
               gradientUnits="userSpaceOnUse"
               id="linearGradient3535-8-1-1">
              <stop
                 id="stop3537-5-7-3"
                 style="stop-color:#F7EC30"
                 offset="0" />
              <stop
                 id="stop3539-2-2-4"
                 style="stop-color:#FAAE40"
                 offset="1" />
            </linearGradient>
            <path
               style="fill:url(#linearGradient3397)"
               inkscape:connector-curvature="0"
               id="path39-5-5-9"
               d="m 1202.237,523.854 c 0,0 -1.49,12.77 4.471,4.14 5.955,-8.629 9.438,-33.689 0.545,-35.706 -8.895,-2.019 -8.99,3.573 -7.408,8.831 1.583,5.257 3.665,16.658 2.392,22.735 z" />
            <linearGradient
               gradientTransform="matrix(0.9997,0.0244,0.0244,-0.9997,1562.12,-9766.4)"
               y2="-10289.822"
               x2="-42.5634"
               y1="-10286.06"
               x1="-66.996101"
               gradientUnits="userSpaceOnUse"
               id="linearGradient3542-4-16-4">
              <stop
                 id="stop3544-5-9-1"
                 style="stop-color:#F7EC30"
                 offset="0" />
              <stop
                 id="stop3546-2-3-9"
                 style="stop-color:#FAAE40"
                 offset="1" />
            </linearGradient>
            <path
               style="fill:url(#linearGradient3399)"
               inkscape:connector-curvature="0"
               id="path46-5-2-5"
               d="m 1244.338,528.282 c 0,0 -9.543,11.699 1.805,6.922 11.348,-4.782 30.627,-27.39 23.094,-35.007 -7.531,-7.614 -11.16,-2.137 -12.91,4.068 -1.756,6.207 -6.895,18.804 -11.989,24.017 z" />
            <linearGradient
               gradientTransform="matrix(0.802,0.5973,0.5973,-0.802,6476.96,-8626.83)"
               y2="-10464.446"
               x2="1338.9114"
               y1="-10460.59"
               x1="1313.8677"
               gradientUnits="userSpaceOnUse"
               id="linearGradient3549-1-6-7">
              <stop
                 id="stop3551-2-2-4"
                 style="stop-color:#F7EC30"
                 offset="0" />
              <stop
                 id="stop3553-3-9-1"
                 style="stop-color:#FAAE40"
                 offset="1" />
            </linearGradient>
            <path
               style="fill:url(#linearGradient3401)"
               inkscape:connector-curvature="0"
               id="path53-7-8-2"
               d="m 1274.813,558.616 c 0,0 -14.912,4.14 -2.586,6.859 12.326,2.715 41.84,-4.787 40.049,-15.621 -1.789,-10.833 -8.07,-8.397 -13.213,-4.241 -5.143,4.154 -16.9,11.656 -24.25,13.003 z" />
            <linearGradient
               gradientTransform="matrix(-0.3327,-0.943,-0.943,0.3327,859.108,-1024.23)"
               y2="271.1478"
               x2="-1577.8234"
               y1="273.75201"
               x1="-1594.7344"
               gradientUnits="userSpaceOnUse"
               id="linearGradient3556-6-1-2">
              <stop
                 id="stop3558-0-4-1"
                 style="stop-color:#F7EC30"
                 offset="0" />
              <stop
                 id="stop3560-6-1-6"
                 style="stop-color:#FAAE40"
                 offset="1" />
            </linearGradient>
            <path
               style="fill:url(#linearGradient3403)"
               inkscape:connector-curvature="0"
               id="path60-8-50-2"
               d="m 1140.122,567.282 c 0,0 9.912,3.295 4.027,-2.868 -5.883,-6.168 -25.25,-13.072 -28.322,-6.325 -3.074,6.745 1.359,7.741 5.809,7.349 4.443,-0.392 13.859,-0.167 18.486,1.844 z" />
            <linearGradient
               gradientTransform="matrix(-0.6493,-0.7605,-0.7605,0.6493,1703.57,-2306.63)"
               y2="2325.9944"
               x2="-1826.1986"
               y1="2328.082"
               x1="-1839.7549"
               gradientUnits="userSpaceOnUse"
               id="linearGradient3563-7-9-0">
              <stop
                 id="stop3565-9-46-2"
                 style="stop-color:#F7EC30"
                 offset="0" />
              <stop
                 id="stop3567-5-2-2"
                 style="stop-color:#FAAE40"
                 offset="1" />
            </linearGradient>
            <path
               style="fill:url(#linearGradient3405)"
               inkscape:connector-curvature="0"
               id="path67-4-3-9"
               d="m 1133.073,599.112 c 0,0 8.361,-0.392 2.186,-3.31 -6.18,-2.914 -22.656,-2.503 -23.012,3.43 -0.355,5.931 3.252,5.398 6.463,3.826 3.21,-1.576 10.318,-4.12 14.363,-3.946 z" />
            <linearGradient
               gradientTransform="matrix(-0.9803,-0.1975,-0.1975,0.9803,1031.18,-2761.68)"
               y2="3304.7185"
               x2="-765.99219"
               y1="3306.3516"
               x1="-776.59668"
               gradientUnits="userSpaceOnUse"
               id="linearGradient3570-8-3-7">
              <stop
                 id="stop3572-5-73-4"
                 style="stop-color:#F7EC30"
                 offset="0" />
              <stop
                 id="stop3574-7-8-3"
                 style="stop-color:#FAAE40"
                 offset="1" />
            </linearGradient>
            <path
               style="fill:url(#linearGradient3407)"
               inkscape:connector-curvature="0"
               id="path74-3-3-5"
               d="m 1140.409,627.192 c 0,0 4.957,-4.282 -0.254,-3.095 -5.207,1.188 -15.152,9.398 -12.506,13.225 2.639,3.823 4.607,1.756 5.824,-0.764 1.219,-2.522 4.361,-7.519 6.936,-9.366 z" />
          </g>
        </g>
        <path
           style="opacity:0.81000001;fill:none"
           inkscape:connector-curvature="0"
           id="path76-9-1-6"
           d="m 1044.4672,163.85521 c 5.2716,-12.59207 19.8749,-18.47688 32.6182,-13.14054 2.9745,1.24261 5.5769,2.99608 7.7645,5.10079 -2.5823,-2.86715 -5.827,-5.22764 -9.6302,-6.82149 -13.6184,-5.70157 -29.2246,0.58819 -34.8588,14.04582 -4.0045,9.5667 -1.8893,20.176 4.5586,27.56202 0.637,-1.12973 1.2928,-2.2448 1.9724,-3.34177 -4.5579,-6.69953 -5.7601,-15.43899 -2.4247,-23.40483 z"
           inkscape:export-filename="/home/pockey/Documents/SFD/SFD11/design/web-banners/web-banner-organizing.png"
           inkscape:export-xdpi="122.81"
           inkscape:export-ydpi="122.81" />
        <path
           style="opacity:0.81000001;fill:url(#linearGradient3409)"
           inkscape:connector-curvature="0"
           id="path83-2-6-1"
           d="m 1164.6316,160.95918 c 0.6693,0 1.3397,-0.055 2.0113,-0.16641 0.6693,-0.1105 1.2665,-0.30866 1.7918,-0.59362 0.5254,-0.28495 0.9548,-0.68841 1.2901,-1.21149 0.3339,-0.52192 0.5035,-1.19413 0.5035,-2.01835 0,-0.6335 -0.1612,-1.17971 -0.4821,-1.63922 -0.322,-0.45836 -0.7294,-0.87855 -1.2237,-1.25831 -0.4965,-0.38032 -1.0494,-0.72825 -1.6618,-1.04558 -0.613,-0.31616 -1.2246,-0.66471 -1.8368,-1.04503 -0.7878,-0.50632 -1.5304,-1.0456 -2.2293,-1.61492 -0.6998,-0.56992 -1.297,-1.2109 -1.7941,-1.92358 -0.4951,-0.71268 -0.8884,-1.50397 -1.1798,-2.37501 -0.2923,-0.87103 -0.4369,-1.87618 -0.4369,-3.01598 0,-1.45656 0.2549,-2.80966 0.7642,-4.06159 0.5103,-1.2502 1.2689,-2.33455 2.2737,-3.25355 1.0059,-0.91787 2.2671,-1.63861 3.783,-2.16056 1.515,-0.5225 3.2941,-0.78319 5.3346,-0.78319 0.9323,0 1.8368,0.0868 2.7113,0.26069 0.8744,0.17394 1.6889,0.3884 2.4473,0.64099 0.7578,0.25375 1.4507,0.5462 2.0772,0.87915 0.6264,0.33292 1.1596,0.65775 1.5953,0.97391 l -2.8415,5.46208 c -0.7282,-0.60112 -1.6166,-1.10859 -2.6661,-1.52012 -1.0499,-0.41097 -2.1868,-0.6173 -3.4104,-0.6173 -0.6715,0 -1.312,0.0642 -1.9246,0.19014 -0.6122,0.12705 -1.1513,0.341 -1.6178,0.64099 -0.4664,0.30113 -0.8376,0.68841 -1.1145,1.16408 -0.2774,0.47455 -0.4155,1.06179 -0.4155,1.75714 0,0.63462 0.1086,1.16405 0.3272,1.5918 0.219,0.42656 0.5034,0.79992 0.8525,1.11609 0.3497,0.31676 0.7583,0.60228 1.2249,0.85488 0.4663,0.25258 0.9616,0.52252 1.4864,0.80686 0.9028,0.50692 1.778,1.0456 2.6236,1.61494 0.8445,0.5699 1.5871,1.22767 2.2304,1.97097 0.6398,0.74505 1.1503,1.59124 1.5295,2.54146 0.378,0.95023 0.5676,2.07385 0.5676,3.37207 0,1.80506 -0.3056,3.37258 -0.9179,4.70256 -0.6121,1.32998 -1.4721,2.43913 -2.5796,3.32522 -1.1086,0.88665 -2.4271,1.54383 -3.9582,1.97099 -1.5292,0.42714 -3.2276,0.64098 -5.0931,0.64098 -1.2238,0 -2.3689,-0.11085 -3.4329,-0.33234 -1.0635,-0.22194 -2.0253,-0.48262 -2.8842,-0.78317 -0.8612,-0.30117 -1.6039,-0.6254 -2.2304,-0.97395 -0.6278,-0.34852 -1.1301,-0.66469 -1.5082,-0.95021 l 2.8854,-5.65284 c 0.3496,0.25376 0.7723,0.52252 1.2676,0.80748 0.4953,0.28493 1.0565,0.55429 1.683,0.80746 0.6266,0.25315 1.2902,0.46762 1.99,0.64098 0.7001,0.17514 1.4295,0.26241 2.188,0.26241 z"
           inkscape:export-filename="/home/pockey/Documents/SFD/SFD11/design/web-banners/web-banner-organizing.png"
           inkscape:export-xdpi="122.81"
           inkscape:export-ydpi="122.81" />
        <path
           style="opacity:0.81000001;fill:url(#linearGradient3411)"
           inkscape:connector-curvature="0"
           id="path90-5-6-4"
           d="m 1188.3953,167.13336 c -1.5455,0 -2.8865,-0.25312 -4.0222,-0.75947 -1.137,-0.50631 -2.0773,-1.219 -2.8213,-2.13803 -0.7427,-0.91727 -1.3052,-2.00158 -1.682,-3.25354 -0.3793,-1.25021 -0.5698,-2.63623 -0.5698,-4.15522 0,-1.90047 0.2855,-3.80034 0.8538,-5.69964 0.5675,-1.90049 1.4067,-3.61018 2.514,-5.13034 1.1077,-1.52012 2.4634,-2.76165 4.0663,-3.72921 1.6028,-0.96527 3.4396,-1.44848 5.5102,-1.44848 1.5137,0 2.8483,0.25375 3.9997,0.76008 1.1513,0.5069 2.0987,1.21898 2.8425,2.13742 0.7427,0.91904 1.3041,2.00278 1.6833,3.25356 0.378,1.25194 0.5675,2.63625 0.5675,4.15638 0,1.89931 -0.2769,3.79919 -0.8311,5.69963 -0.5532,1.8999 -1.3706,3.61019 -2.4485,5.12976 -1.0779,1.52012 -2.4258,2.76281 -4.0437,3.72865 -1.6177,0.96528 -3.4912,1.44845 -5.6187,1.44845 z m 3.2351,-20.32932 c -0.9619,0 -1.8074,0.30111 -2.5356,0.90222 -0.7308,0.60229 -1.3423,1.36178 -1.837,2.28022 -0.4953,0.91905 -0.8681,1.92358 -1.1144,3.016 -0.2495,1.093 -0.3726,2.13048 -0.3726,3.11196 0,1.61432 0.2324,2.8576 0.6997,3.72807 0.4665,0.87104 1.3122,1.30627 2.5367,1.30627 0.9607,0 1.8067,-0.30112 2.5346,-0.90285 0.7295,-0.60112 1.341,-1.3606 1.8382,-2.27961 0.4941,-0.91842 0.867,-1.92417 1.1143,-3.01658 0.2474,-1.09241 0.3718,-2.12933 0.3718,-3.11075 0,-1.61553 -0.2323,-2.85707 -0.6988,-3.7287 -0.4678,-0.87102 -1.3135,-1.30625 -2.5369,-1.30625 z"
           inkscape:export-filename="/home/pockey/Documents/SFD/SFD11/design/web-banners/web-banner-organizing.png"
           inkscape:export-xdpi="122.81"
           inkscape:export-ydpi="122.81" />
        <path
           style="opacity:0.81000001;fill:url(#linearGradient3413)"
           inkscape:connector-curvature="0"
           id="path97-5-2-0"
           d="m 1224.3307,135.26141 6.7781,-1.13922 -1.6618,7.36192 h 8.196 l -1.312,5.79388 h -8.1521 l -1.9235,8.74049 c -0.1751,0.72884 -0.2842,1.40914 -0.3283,2.04263 -0.044,0.6335 0.026,1.17969 0.2189,1.63862 0.1897,0.45893 0.5173,0.815 0.9843,1.06872 0.4654,0.25318 1.1064,0.37975 1.9235,0.37975 0.6988,0 1.3776,-0.0709 2.0324,-0.21386 0.6571,-0.14211 1.3187,-0.33987 1.9901,-0.59359 l 0.4809,5.41523 c -0.8751,0.34914 -1.8219,0.64909 -2.8415,0.90229 -1.0219,0.25315 -2.2304,0.38033 -3.6292,0.38033 -2.0113,0 -3.5719,-0.32486 -4.6795,-0.97394 -1.1075,-0.64909 -1.8941,-1.53574 -2.3604,-2.66051 -0.4666,-1.12305 -0.6706,-2.41374 -0.6123,-3.87089 0.056,-1.45655 0.262,-2.99286 0.6123,-4.60778 l 4.2841,-19.66407 z"
           inkscape:export-filename="/home/pockey/Documents/SFD/SFD11/design/web-banners/web-banner-organizing.png"
           inkscape:export-xdpi="122.81"
           inkscape:export-ydpi="122.81" />
        <path
           style="opacity:0.81000001;fill:url(#linearGradient3415)"
           inkscape:connector-curvature="0"
           id="path104-1-4-3"
           d="m 1250.9637,151.83899 c -0.5554,1.29874 -1.174,2.62003 -1.8582,3.96563 -0.6854,1.34674 -1.3862,2.66051 -2.1001,3.94252 -0.7144,1.28256 -1.4068,2.50159 -2.0761,3.65701 -0.6715,1.15655 -1.2675,2.17788 -1.7929,3.06396 h -5.0731 c -0.2325,-1.32999 -0.4728,-2.91256 -0.7202,-4.7494 -0.2486,-1.8369 -0.4888,-3.83966 -0.7225,-6.00889 -0.2334,-2.16864 -0.4451,-4.46562 -0.6335,-6.88741 -0.1908,-2.4224 -0.3273,-4.86908 -0.4155,-7.3383 h 6.3839 c 0,1.13983 0.014,2.37443 0.021,3.70441 0.014,1.33055 0.044,2.70792 0.086,4.13269 0.044,1.42533 0.1087,2.88073 0.1976,4.36966 0.087,1.48893 0.2035,2.96167 0.3491,4.41821 0.7294,-1.32997 1.4509,-2.71486 2.1653,-4.15635 0.7131,-1.4404 1.3987,-2.88075 2.0546,-4.32287 0.6561,-1.44038 1.2677,-2.85705 1.8371,-4.2506 0.5674,-1.39298 1.0704,-2.69116 1.5088,-3.89456 h 5.4212 c 0,2.27962 0.036,4.8286 0.1099,7.64691 0.072,2.81891 0.2548,5.81122 0.5461,8.97747 0.7878,-1.42533 1.5149,-2.89 2.1865,-4.39392 0.6705,-1.50397 1.289,-2.98481 1.8584,-4.44193 0.5674,-1.45596 1.0778,-2.84951 1.5293,-4.17951 0.4526,-1.32996 0.8526,-2.53334 1.2023,-3.60961 h 6.9098 c -0.5837,1.58314 -1.2754,3.36454 -2.0772,5.3436 -0.8016,1.97908 -1.7272,4.06046 -2.776,6.24644 -1.0499,2.18426 -2.2319,4.41763 -3.5426,6.69727 -1.3121,2.27963 -2.7703,4.51242 -4.3731,6.69727 h -5.071 c -0.3507,-2.59581 -0.6132,-5.08234 -0.7867,-7.45735 -0.1755,-2.37498 -0.2918,-4.76559 -0.3488,-7.17235 z"
           inkscape:export-filename="/home/pockey/Documents/SFD/SFD11/design/web-banners/web-banner-organizing.png"
           inkscape:export-xdpi="122.81"
           inkscape:export-ydpi="122.81" />
        <path
           style="opacity:0.81000001;fill:url(#linearGradient3417)"
           inkscape:connector-curvature="0"
           id="path111-6-0-1"
           d="m 1287.5566,155.6867 c -0.4086,1.80508 -0.5247,3.61828 -0.3497,5.43839 0.1752,1.82127 0.5093,3.44371 1.0058,4.86847 l -5.8154,0.90282 c -0.1748,-0.37972 -0.3361,-0.74329 -0.4808,-1.09242 -0.1466,-0.34851 -0.2924,-0.74386 -0.438,-1.18776 -0.8161,0.72886 -1.7208,1.32997 -2.7102,1.80508 -0.9913,0.47453 -2.0987,0.71208 -3.3236,0.71208 -1.4571,0 -2.7038,-0.27743 -3.7379,-0.83113 -1.0352,-0.55374 -1.8808,-1.29818 -2.5369,-2.23223 -0.656,-0.93406 -1.1299,-2.02705 -1.4212,-3.27784 -0.2911,-1.2508 -0.4368,-2.58885 -0.4368,-4.01305 0,-2.18541 0.3563,-4.24364 1.0715,-6.17532 0.7149,-1.93167 1.7056,-3.61768 2.9736,-5.05865 1.2676,-1.44037 2.7611,-2.57267 4.482,-3.3963 1.7195,-0.82366 3.5854,-1.2352 5.5961,-1.2352 0.2619,0 0.7225,0.0158 1.3775,0.0475 0.6561,0.0324 1.4067,0.1035 2.2518,0.21385 0.8457,0.11085 1.735,0.29306 2.6662,0.54564 0.9335,0.25373 1.8219,0.60227 2.6686,1.04616 l -2.8426,12.92001 z m -4.5469,-8.74049 c -0.3791,-0.0632 -0.7226,-0.1105 -1.0272,-0.14212 -0.307,-0.0318 -0.6775,-0.0475 -1.1154,-0.0475 -0.9915,0 -1.9168,0.26934 -2.7762,0.80685 -0.8611,0.5387 -1.6121,1.24272 -2.2519,2.11374 -0.641,0.87165 -1.1444,1.8756 -1.5092,3.01601 -0.3648,1.1404 -0.5464,2.3276 -0.5464,3.56221 0,1.5201 0.2337,2.72409 0.7002,3.61018 0.4664,0.88664 1.3252,1.32994 2.5795,1.32994 0.6705,0 1.2745,-0.14152 1.8155,-0.42711 0.5387,-0.28498 1.1154,-0.75952 1.7259,-1.42535 0.059,-0.79069 0.1538,-1.62303 0.2844,-2.49349 0.1318,-0.86989 0.2699,-1.66986 0.4168,-2.39812 l 1.704,-7.5053 z"
           inkscape:export-filename="/home/pockey/Documents/SFD/SFD11/design/web-banners/web-banner-organizing.png"
           inkscape:export-xdpi="122.81"
           inkscape:export-ydpi="122.81" />
        <path
           style="opacity:0.81000001;fill:url(#linearGradient3419)"
           inkscape:connector-curvature="0"
           id="path118-0-0-2"
           d="m 1307.281,147.56408 c -0.5852,-0.15772 -1.1596,-0.30865 -1.727,-0.45082 -0.5691,-0.14271 -1.4082,-0.21388 -2.5157,-0.21388 -0.4086,0 -0.859,0.0398 -1.3547,0.11856 -0.4954,0.0798 -0.9027,0.16641 -1.225,0.26068 l -4.2399,19.19011 h -6.5147 l 5.2471,-23.65458 c 1.2519,-0.44333 2.6587,-0.86237 4.2186,-1.25887 1.5578,-0.39595 3.3143,-0.5936 5.2685,-0.5936 0.7284,0 1.5362,0.0717 2.4271,0.21384 0.8884,0.14212 1.6687,0.37281 2.3379,0.68839 l -1.9222,5.70022 z"
           inkscape:export-filename="/home/pockey/Documents/SFD/SFD11/design/web-banners/web-banner-organizing.png"
           inkscape:export-xdpi="122.81"
           inkscape:export-ydpi="122.81" />
        <path
           style="opacity:0.81000001;fill:url(#linearGradient3421)"
           inkscape:connector-curvature="0"
           id="path125-1-7-7"
           d="m 1306.9841,156.68375 c 0,-2.02588 0.3274,-3.98992 0.9835,-5.8898 0.656,-1.89988 1.5802,-3.58647 2.7761,-5.05863 1.196,-1.47218 2.646,-2.65996 4.3506,-3.56222 1.7058,-0.90283 3.5923,-1.35426 5.6638,-1.35426 1.0184,0 1.9662,0.15892 2.8416,0.47512 0.8738,0.31734 1.6391,0.77628 2.2952,1.37737 0.6558,0.60171 1.165,1.33866 1.5292,2.20911 0.3648,0.87105 0.5473,1.86059 0.5473,2.9686 0,1.77388 -0.3659,3.27783 -1.0941,4.51243 -0.7283,1.23462 -1.742,2.24032 -3.0378,3.016 -1.2972,0.77684 -2.8358,1.33865 -4.6138,1.6866 -1.7778,0.34911 -3.7154,0.52252 -5.8151,0.52252 0.2047,1.32996 0.649,2.27269 1.3335,2.82641 0.6853,0.5543 1.7709,0.83117 3.2581,0.83117 0.9322,0 1.8806,-0.0862 2.8413,-0.26128 0.9632,-0.17334 1.8652,-0.43464 2.7103,-0.78319 l 0.4822,5.55746 c -0.8174,0.3491 -1.8585,0.6647 -3.127,0.95022 -1.2663,0.28496 -2.6438,0.42717 -4.1315,0.42717 -1.8076,0 -3.3304,-0.27747 -4.5686,-0.8312 -1.2397,-0.55371 -2.2455,-1.30625 -3.0166,-2.25591 -0.7734,-0.95023 -1.3346,-2.05882 -1.6843,-3.32521 -0.3497,-1.26642 -0.5239,-2.61315 -0.5239,-4.03848 z m 12.7226,-10.25947 c -1.4855,0 -2.7906,0.57799 -3.9131,1.73342 -1.123,1.15601 -1.8581,2.68362 -2.2078,4.58409 1.8073,-0.0632 3.2645,-0.22946 4.3721,-0.4988 1.1074,-0.26874 1.9684,-0.5936 2.5793,-0.97394 0.6121,-0.3803 1.0207,-0.79127 1.2249,-1.23516 0.2034,-0.44334 0.3057,-0.88605 0.3057,-1.33 0,-1.51954 -0.786,-2.27961 -2.3611,-2.27961 z"
           inkscape:export-filename="/home/pockey/Documents/SFD/SFD11/design/web-banners/web-banner-organizing.png"
           inkscape:export-xdpi="122.81"
           inkscape:export-ydpi="122.81" />
        <g
           style="opacity:0.81000001"
           id="g127-2-6-7"
           transform="matrix(0.57799814,0,0,0.57799814,390.23148,-169.46093)"
           inkscape:export-filename="/home/pockey/Documents/SFD/SFD11/design/web-banners/web-banner-organizing.png"
           inkscape:export-xdpi="122.81"
           inkscape:export-ydpi="122.81">
          <linearGradient
             y2="598.70709"
             x2="1421.5991"
             y1="512.69678"
             x1="1421.5991"
             gradientUnits="userSpaceOnUse"
             id="linearGradient3628-4-90-9">
            <stop
               id="stop3630-9-0-8"
               style="stop-color:#F7EC30"
               offset="0" />
            <stop
               id="stop3632-8-7-1"
               style="stop-color:#FAAE40"
               offset="1" />
          </linearGradient>
          <polygon
             style="fill:url(#linearGradient3423)"
             id="polygon134-9-4-0"
             points="1421.684,547.994 1421.512,548.777 1421.686,547.994 " />
          <linearGradient
             y2="548.25677"
             x2="1435.064"
             y1="537.75677"
             x1="1427.314"
             gradientUnits="userSpaceOnUse"
             id="linearGradient3635-1-18-7">
            <stop
               id="stop3637-4-8-6"
               style="stop-color:#F69220"
               offset="0" />
            <stop
               id="stop3639-2-69-0"
               style="stop-color:#F05A29"
               offset="0.4724" />
            <stop
               id="stop3641-5-3-1"
               style="stop-color:#EE4037"
               offset="0.4785" />
            <stop
               id="stop3643-7-6-0"
               style="stop-color:#F05A29"
               offset="1" />
          </linearGradient>
          <polygon
             style="fill:url(#linearGradient3425)"
             id="polygon145-0-1-2"
             points="1434.922,547.994 1437.192,537.969 1427.333,537.969 1425.147,547.994 " />
          <linearGradient
             y2="598.70752"
             x2="1422.7798"
             y1="512.69678"
             x1="1422.7798"
             gradientUnits="userSpaceOnUse"
             id="linearGradient3646-2-8-5">
            <stop
               id="stop3648-0-43-1"
               style="stop-color:#F7EC30"
               offset="0" />
            <stop
               id="stop3650-8-3-9"
               style="stop-color:#FAAE40"
               offset="1" />
          </linearGradient>
          <path
             style="fill:url(#linearGradient3427)"
             inkscape:connector-curvature="0"
             id="path152-0-8-7"
             d="m 1439.651,518.205 c -1.691,-0.52 -3.67,-0.78 -5.939,-0.78 -5.951,0 -10.566,1.59 -13.844,4.766 -3.279,3.179 -5.549,7.671 -6.809,13.478 l -7.865,35.83 c -0.406,1.919 -0.922,3.986 -1.553,6.205 -0.447,1.571 -0.979,3.113 -1.551,4.643 h 11.324 c 1.285,-3.688 2.506,-8.141 3.656,-13.395 l 4.387,-19.93 0.055,-0.244 0.172,-0.783 h 0 l 2.215,-10.024 h -0.023 l 0.453,-2.138 c 0.504,-2.301 1.426,-4.217 2.762,-5.752 1.334,-1.533 3.393,-2.301 6.164,-2.301 1.01,0 2.105,0.123 3.291,0.37 1.186,0.246 2.232,0.616 3.141,1.109 l 3.781,-9.615 c -0.858,-0.439 -2.13,-0.918 -3.819,-1.439 z" />
        </g>
        <g
           style="opacity:0.81000001"
           id="g154-7-2-1"
           transform="matrix(0.57799814,0,0,0.57799814,390.23148,-169.46093)"
           inkscape:export-filename="/home/pockey/Documents/SFD/SFD11/design/web-banners/web-banner-organizing.png"
           inkscape:export-xdpi="122.81"
           inkscape:export-ydpi="122.81">
          <linearGradient
             y2="661.90637"
             x2="1386.8247"
             y1="595.18701"
             x1="1386.8247"
             gradientUnits="userSpaceOnUse"
             id="linearGradient3654-7-9-3">
            <stop
               id="stop3656-7-6-1"
               style="stop-color:#F7EC30"
               offset="0" />
            <stop
               id="stop3658-4-60-2"
               style="stop-color:#FAAE40"
               offset="1" />
          </linearGradient>
          <path
             style="fill:url(#linearGradient3429)"
             inkscape:connector-curvature="0"
             id="path161-6-2-0"
             d="m 1363.563,651.664 12.557,-56.949 h 33.967 l -2.42,10.602 H 1385.5 l -2.648,12.162 h 19.594 l -2.344,10.601 h -19.594 l -5.221,23.585 h -11.724 z" />
          <linearGradient
             y2="661.90637"
             x2="1418.7251"
             y1="595.18701"
             x1="1418.7251"
             gradientUnits="userSpaceOnUse"
             id="linearGradient3661-2-4-6">
            <stop
               id="stop3663-3-4-8"
               style="stop-color:#F7EC30"
               offset="0" />
            <stop
               id="stop3665-9-8-7"
               style="stop-color:#FAAE40"
               offset="1" />
          </linearGradient>
          <path
             style="fill:url(#linearGradient3431)"
             inkscape:connector-curvature="0"
             id="path168-4-4-4"
             d="m 1432.266,618.957 c -1.01,-0.273 -2.004,-0.533 -2.988,-0.779 -0.984,-0.248 -2.434,-0.371 -4.35,-0.371 -0.707,0 -1.488,0.07 -2.346,0.205 -0.857,0.139 -1.562,0.289 -2.119,0.452 l -7.336,33.2 h -11.271 l 9.078,-40.924 c 2.168,-0.767 4.6,-1.492 7.299,-2.178 2.697,-0.686 5.736,-1.027 9.115,-1.027 1.26,0 2.66,0.123 4.199,0.369 1.537,0.246 2.887,0.645 4.047,1.191 l -3.328,9.862 z" />
          <linearGradient
             y2="661.90637"
             x2="1449.9087"
             y1="595.18701"
             x1="1449.9087"
             gradientUnits="userSpaceOnUse"
             id="linearGradient3668-7-4-9">
            <stop
               id="stop3670-6-8-2"
               style="stop-color:#F7EC30"
               offset="0" />
            <stop
               id="stop3672-9-3-4"
               style="stop-color:#FAAE40"
               offset="1" />
          </linearGradient>
          <path
             style="fill:url(#linearGradient3433)"
             inkscape:connector-curvature="0"
             id="path175-8-38-4"
             d="m 1431.752,634.736 c 0,-3.506 0.566,-6.904 1.701,-10.191 1.135,-3.287 2.734,-6.204 4.805,-8.752 2.066,-2.547 4.576,-4.602 7.525,-6.162 2.951,-1.562 6.215,-2.343 9.799,-2.343 1.764,0 3.402,0.274 4.916,0.821 1.514,0.549 2.838,1.344 3.975,2.384 1.133,1.041 2.014,2.315 2.646,3.821 0.629,1.508 0.945,3.219 0.945,5.137 0,3.068 -0.631,5.67 -1.893,7.807 -1.26,2.136 -3.014,3.876 -5.258,5.218 -2.244,1.343 -4.904,2.315 -7.98,2.918 -3.078,0.603 -6.432,0.903 -10.062,0.903 0.354,2.301 1.123,3.932 2.309,4.891 1.184,0.959 3.062,1.438 5.635,1.438 1.615,0 3.254,-0.15 4.916,-0.452 1.666,-0.3 3.229,-0.752 4.691,-1.356 l 0.832,9.615 c -1.412,0.604 -3.215,1.15 -5.408,1.645 -2.193,0.492 -4.576,0.738 -7.148,0.738 -3.127,0 -5.762,-0.48 -7.906,-1.438 -2.144,-0.958 -3.883,-2.26 -5.219,-3.902 -1.338,-1.645 -2.307,-3.562 -2.912,-5.753 -0.608,-2.193 -0.909,-4.522 -0.909,-6.987 z m 22.012,-17.75 c -2.57,0 -4.83,1 -6.768,2.998 -1.943,2.001 -3.215,4.644 -3.822,7.932 3.127,-0.109 5.648,-0.398 7.566,-0.863 1.914,-0.465 3.404,-1.027 4.461,-1.686 1.061,-0.657 1.766,-1.369 2.119,-2.137 0.352,-0.766 0.529,-1.533 0.529,-2.301 10e-4,-2.629 -1.358,-3.943 -4.085,-3.943 z" />
          <linearGradient
             y2="661.90637"
             x2="1486.3628"
             y1="595.18701"
             x1="1486.3628"
             gradientUnits="userSpaceOnUse"
             id="linearGradient3675-2-5-5">
            <stop
               id="stop3677-1-3-9"
               style="stop-color:#F7EC30"
               offset="0" />
            <stop
               id="stop3679-2-3-1"
               style="stop-color:#FAAE40"
               offset="1" />
          </linearGradient>
          <path
             style="fill:url(#linearGradient3435)"
             inkscape:connector-curvature="0"
             id="path182-6-7-2"
             d="m 1468.208,634.736 c 0,-3.506 0.566,-6.904 1.701,-10.191 1.135,-3.287 2.734,-6.204 4.803,-8.752 2.068,-2.547 4.58,-4.602 7.527,-6.162 2.951,-1.562 6.217,-2.343 9.799,-2.343 1.764,0 3.402,0.274 4.916,0.821 1.514,0.549 2.836,1.344 3.973,2.384 1.133,1.041 2.014,2.315 2.646,3.821 0.629,1.508 0.945,3.219 0.945,5.137 0,3.068 -0.631,5.67 -1.893,7.807 -1.26,2.136 -3.012,3.876 -5.256,5.218 -2.244,1.343 -4.904,2.315 -7.98,2.918 -3.078,0.603 -6.43,0.903 -10.062,0.903 0.354,2.301 1.123,3.932 2.309,4.891 1.184,0.959 3.062,1.438 5.635,1.438 1.613,0 3.254,-0.15 4.918,-0.452 1.664,-0.3 3.227,-0.752 4.689,-1.356 l 0.832,9.615 c -1.412,0.604 -3.215,1.15 -5.408,1.645 -2.193,0.492 -4.576,0.738 -7.148,0.738 -3.127,0 -5.762,-0.48 -7.904,-1.438 -2.146,-0.957 -3.885,-2.26 -5.221,-3.902 -1.338,-1.645 -2.309,-3.562 -2.914,-5.753 -0.605,-2.191 -0.907,-4.522 -0.907,-6.987 z m 22.013,-17.75 c -2.572,0 -4.83,1 -6.771,2.998 -1.941,2.001 -3.215,4.644 -3.82,7.932 3.127,-0.109 5.648,-0.398 7.566,-0.863 1.914,-0.465 3.404,-1.027 4.461,-1.686 1.061,-0.657 1.766,-1.369 2.119,-2.137 0.352,-0.766 0.531,-1.533 0.531,-2.301 0,-2.629 -1.363,-3.943 -4.086,-3.943 z" />
          <linearGradient
             y2="661.90637"
             x2="1564.644"
             y1="595.18701"
             x1="1564.644"
             gradientUnits="userSpaceOnUse"
             id="linearGradient3682-7-1-8">
            <stop
               id="stop3684-3-35-9"
               style="stop-color:#F7EC30"
               offset="0" />
            <stop
               id="stop3686-5-06-6"
               style="stop-color:#FAAE40"
               offset="1" />
          </linearGradient>
          <path
             style="fill:url(#linearGradient3437)"
             inkscape:connector-curvature="0"
             id="path189-6-3-0"
             d="m 1561.317,652.814 c -2.676,0 -4.994,-0.438 -6.961,-1.314 -1.967,-0.875 -3.594,-2.108 -4.879,-3.698 -1.287,-1.587 -2.26,-3.464 -2.912,-5.629 -0.656,-2.163 -0.984,-4.562 -0.984,-7.19 0,-3.287 0.492,-6.574 1.475,-9.861 0.984,-3.287 2.434,-6.246 4.352,-8.875 1.914,-2.63 4.26,-4.779 7.035,-6.452 2.771,-1.67 5.949,-2.506 9.531,-2.506 2.621,0 4.928,0.438 6.922,1.315 1.99,0.877 3.629,2.109 4.918,3.697 1.285,1.59 2.254,3.466 2.91,5.629 0.654,2.166 0.984,4.561 0.984,7.191 0,3.287 -0.48,6.574 -1.438,9.861 -0.959,3.287 -2.371,6.246 -4.236,8.875 -1.865,2.631 -4.199,4.781 -6.998,6.451 -2.799,1.67 -6.039,2.506 -9.719,2.506 z m 5.598,-35.172 c -1.666,0 -3.129,0.521 -4.389,1.562 -1.262,1.042 -2.32,2.356 -3.178,3.944 -0.857,1.59 -1.5,3.328 -1.928,5.219 -0.43,1.891 -0.645,3.686 -0.645,5.383 0,2.794 0.404,4.945 1.211,6.451 0.807,1.507 2.27,2.26 4.389,2.26 1.664,0 3.125,-0.521 4.387,-1.562 1.26,-1.039 2.318,-2.354 3.178,-3.943 0.855,-1.589 1.5,-3.329 1.928,-5.219 0.428,-1.891 0.643,-3.684 0.643,-5.383 0,-2.795 -0.402,-4.943 -1.209,-6.451 -0.807,-1.507 -2.272,-2.261 -4.387,-2.261 z" />
          <linearGradient
             y2="661.90619"
             x2="1613.4438"
             y1="595.18701"
             x1="1613.4438"
             gradientUnits="userSpaceOnUse"
             id="linearGradient3689-6-1-6">
            <stop
               id="stop3691-1-6-4"
               style="stop-color:#F7EC30"
               offset="0" />
            <stop
               id="stop3693-1-8-0"
               style="stop-color:#FAAE40"
               offset="1" />
          </linearGradient>
          <path
             style="fill:url(#linearGradient3439)"
             inkscape:connector-curvature="0"
             id="path196-1-6-9"
             d="m 1592.299,610.41 c 0.857,-0.273 1.777,-0.588 2.762,-0.945 0.984,-0.355 2.092,-0.684 3.328,-0.984 1.234,-0.301 2.621,-0.547 4.16,-0.74 1.539,-0.191 3.314,-0.287 5.334,-0.287 2.42,0 4.426,0.328 6.014,0.986 1.588,0.656 3.037,1.643 4.35,2.957 1.865,-1.15 3.719,-2.096 5.561,-2.834 1.84,-0.74 3.996,-1.109 6.467,-1.109 2.371,0 4.4,0.342 6.09,1.027 1.69,0.685 3.09,1.67 4.199,2.957 1.109,1.289 1.916,2.822 2.42,4.603 0.504,1.781 0.758,3.739 0.758,5.876 0,0.986 -0.064,2.027 -0.189,3.123 -0.127,1.096 -0.316,2.191 -0.568,3.287 l -5.145,23.338 h -11.271 l 4.994,-22.846 c 0.15,-0.766 0.314,-1.629 0.49,-2.588 0.178,-0.957 0.266,-1.903 0.266,-2.836 0,-1.531 -0.328,-2.861 -0.982,-3.984 -0.656,-1.123 -1.943,-1.686 -3.859,-1.686 -1.059,0 -2.068,0.205 -3.025,0.616 -0.959,0.411 -1.816,0.837 -2.572,1.273 0.102,0.44 0.152,0.851 0.152,1.233 0,0.382 0,0.74 0,1.068 0,0.986 -0.064,2.027 -0.189,3.123 -0.127,1.096 -0.316,2.191 -0.568,3.287 l -5.143,23.338 h -11.271 l 4.992,-22.846 c 0.152,-0.766 0.314,-1.629 0.49,-2.588 0.178,-0.957 0.268,-1.903 0.268,-2.836 0,-1.531 -0.33,-2.861 -0.984,-3.984 -0.656,-1.123 -1.943,-1.686 -3.859,-1.686 -0.807,0 -1.486,0.041 -2.043,0.123 -0.555,0.082 -1.209,0.206 -1.967,0.371 l -7.336,33.445 h -11.271 l 9.147,-41.252 z" />
          <linearGradient
             y2="661.90637"
             x2="1686.064"
             y1="595.18701"
             x1="1686.064"
             gradientUnits="userSpaceOnUse"
             id="linearGradient3696-8-2-4">
            <stop
               id="stop3698-3-8-5"
               style="stop-color:#F7EC30"
               offset="0" />
            <stop
               id="stop3700-3-1-4"
               style="stop-color:#FAAE40"
               offset="1" />
          </linearGradient>
          <path
             style="fill:url(#linearGradient3441)"
             inkscape:connector-curvature="0"
             id="path203-8-14-6"
             d="m 1711.747,616.902 c 0,5.535 -0.832,10.492 -2.496,14.875 -1.664,4.383 -4.047,8.095 -7.148,11.135 -3.102,3.041 -6.873,5.383 -11.309,7.027 -4.439,1.643 -9.457,2.465 -15.055,2.465 -2.119,0 -4.564,-0.137 -7.338,-0.411 -2.775,-0.274 -5.447,-0.712 -8.02,-1.315 l 12.18,-54.977 c 2.875,-0.603 5.635,-1.027 8.283,-1.273 2.648,-0.247 5.031,-0.37 7.15,-0.37 3.73,0 7.072,0.548 10.021,1.644 2.951,1.096 5.447,2.658 7.49,4.684 2.041,2.027 3.594,4.438 4.652,7.232 1.06,2.792 1.59,5.888 1.59,9.284 z m -37.596,24.49 c 0.553,0.055 1.121,0.096 1.699,0.123 0.58,0.028 1.375,0.041 2.385,0.041 3.277,0 6.24,-0.547 8.887,-1.645 2.65,-1.094 4.893,-2.67 6.734,-4.725 1.842,-2.054 3.266,-4.574 4.273,-7.561 1.007,-2.987 1.514,-6.34 1.514,-10.066 0,-1.918 -0.229,-3.658 -0.682,-5.219 -0.453,-1.561 -1.197,-2.902 -2.23,-4.027 -1.033,-1.121 -2.371,-1.984 -4.01,-2.588 -1.639,-0.604 -3.619,-0.904 -5.939,-0.904 -1.512,0 -3.051,0.083 -4.613,0.247 l -8.018,36.324 z" />
          <linearGradient
             y2="661.90619"
             x2="1733.1841"
             y1="595.18701"
             x1="1733.1841"
             gradientUnits="userSpaceOnUse"
             id="linearGradient3703-1-7-6">
            <stop
               id="stop3705-5-1-3"
               style="stop-color:#F7EC30"
               offset="0" />
            <stop
               id="stop3707-6-8-9"
               style="stop-color:#FAAE40"
               offset="1" />
          </linearGradient>
          <path
             style="fill:url(#linearGradient3443)"
             inkscape:connector-curvature="0"
             id="path210-9-3-9"
             d="m 1748.237,633.009 c -0.707,3.123 -0.906,6.26 -0.605,9.41 0.305,3.15 0.883,5.957 1.742,8.423 l -10.062,1.562 c -0.303,-0.658 -0.58,-1.287 -0.832,-1.891 -0.254,-0.602 -0.506,-1.287 -0.758,-2.054 -1.41,1.261 -2.977,2.301 -4.689,3.122 -1.715,0.822 -3.631,1.232 -5.75,1.232 -2.521,0 -4.676,-0.48 -6.467,-1.438 -1.791,-0.958 -3.252,-2.246 -4.389,-3.861 -1.133,-1.617 -1.955,-3.507 -2.459,-5.672 -0.502,-2.163 -0.754,-4.479 -0.754,-6.943 0,-3.781 0.617,-7.342 1.852,-10.684 1.236,-3.342 2.951,-6.258 5.145,-8.752 2.195,-2.492 4.777,-4.45 7.754,-5.875 2.977,-1.425 6.205,-2.137 9.684,-2.137 0.453,0 1.248,0.028 2.383,0.082 1.135,0.055 2.432,0.178 3.895,0.369 1.463,0.193 3.002,0.508 4.615,0.945 1.613,0.439 3.15,1.041 4.615,1.809 l -4.92,22.353 z m -7.867,-15.121 c -0.656,-0.109 -1.248,-0.191 -1.777,-0.246 -0.529,-0.055 -1.172,-0.082 -1.93,-0.082 -1.715,0 -3.316,0.467 -4.803,1.396 -1.488,0.932 -2.789,2.15 -3.896,3.658 -1.109,1.508 -1.98,3.245 -2.609,5.217 -0.633,1.973 -0.947,4.027 -0.947,6.164 0,2.63 0.404,4.713 1.211,6.246 0.807,1.533 2.295,2.301 4.465,2.301 1.158,0 2.203,-0.246 3.139,-0.739 0.932,-0.493 1.93,-1.315 2.988,-2.466 0.102,-1.368 0.264,-2.808 0.49,-4.314 0.229,-1.506 0.467,-2.889 0.721,-4.15 l 2.948,-12.985 z" />
          <linearGradient
             y2="661.90662"
             x2="1773.27"
             y1="595.18701"
             x1="1773.27"
             gradientUnits="userSpaceOnUse"
             id="linearGradient3710-5-5-5">
            <stop
               id="stop3712-2-9-2"
               style="stop-color:#F7EC30"
               offset="0" />
            <stop
               id="stop3714-7-7-1"
               style="stop-color:#FAAE40"
               offset="1" />
          </linearGradient>
          <path
             style="fill:url(#linearGradient3445)"
             inkscape:connector-curvature="0"
             id="path217-9-0-3"
             d="m 1782.303,608.439 h -0.025 -0.846 c -1.615,5.807 -3.342,11.121 -5.182,15.941 -1.842,4.822 -3.971,9.205 -6.393,13.148 -0.303,-1.972 -0.58,-4.19 -0.832,-6.656 -0.254,-2.465 -0.48,-4.998 -0.68,-7.602 -0.061,-0.752 -0.1,-1.494 -0.154,-2.244 -0.133,-1.845 -0.268,-3.69 -0.377,-5.521 -0.15,-2.574 -0.254,-4.931 -0.301,-7.066 h -11.576 c 0.404,8.547 1.146,16.217 2.232,23.01 1.055,6.607 2.217,12.58 3.488,17.942 -0.15,0.487 -0.299,0.976 -0.461,1.458 -0.434,1.299 -6.732,13.471 -8.043,14.785 l 3.613,0.561 6.447,1.001 c 2.42,-1.972 14.889,-24.489 16.553,-27.448 1.664,-2.958 3.277,-6.066 4.842,-9.326 1.562,-3.26 3.064,-6.697 4.502,-10.314 1.436,-3.615 2.859,-7.506 4.273,-11.668 h -11.08 z" />
        </g>
        <g
           style="opacity:0.81000001"
           id="g219-5-7-0"
           transform="matrix(0.57799814,0,0,0.57799814,390.23148,-169.46093)"
           inkscape:export-filename="/home/pockey/Documents/SFD/SFD11/design/web-banners/web-banner-organizing.png"
           inkscape:export-xdpi="122.81"
           inkscape:export-ydpi="122.81">
          <path
             style="fill:none"
             inkscape:connector-curvature="0"
             id="path221-8-0-9"
             d="m 1530.307,617.929 c -0.229,-0.027 -0.518,-0.041 -0.869,-0.041 -0.354,0 -0.809,0 -1.363,0 -1.766,0 -3.404,0.452 -4.916,1.355 -1.514,0.904 -2.812,2.125 -3.896,3.658 -1.086,1.534 -1.93,3.273 -2.535,5.219 -0.604,1.945 -0.908,3.932 -0.908,5.957 0,2.63 0.416,4.699 1.25,6.204 0.832,1.509 2.33,2.261 4.5,2.261 1.16,0 2.219,-0.246 3.178,-0.739 0.957,-0.493 1.967,-1.315 3.025,-2.466 0.1,-1.368 0.266,-2.808 0.492,-4.314 0.227,-1.506 0.465,-2.889 0.719,-4.15 l 2.799,-12.654 c -0.303,-0.055 -0.566,-0.109 -0.795,-0.165 -0.228,-0.054 -0.454,-0.096 -0.681,-0.125 z" />
          <linearGradient
             y2="661.90649"
             x2="1526.7856"
             y1="595.18701"
             x1="1526.7856"
             gradientUnits="userSpaceOnUse"
             id="linearGradient3719-3-5-9">
            <stop
               id="stop3721-3-7-1"
               style="stop-color:#F7EC30"
               offset="0" />
            <stop
               id="stop3723-6-8-3"
               style="stop-color:#FAAE40"
               offset="1" />
          </linearGradient>
          <path
             style="fill:url(#linearGradient3447)"
             inkscape:connector-curvature="0"
             id="path228-5-8-4"
             d="m 1548.948,591.683 h -11.289 l -3.684,16.756 c -0.807,-0.219 -1.602,-0.383 -2.383,-0.494 -0.783,-0.109 -1.627,-0.164 -2.533,-0.164 -3.531,0 -6.785,0.713 -9.76,2.137 -2.977,1.426 -5.547,3.369 -7.717,5.834 -2.168,2.467 -3.869,5.355 -5.105,8.67 -1.236,3.316 -1.854,6.836 -1.854,10.561 0,2.465 0.266,4.78 0.795,6.943 0.529,2.166 1.361,4.057 2.496,5.671 1.135,1.616 2.598,2.89 4.387,3.821 1.791,0.932 3.947,1.396 6.469,1.396 2.119,0 4.047,-0.41 5.787,-1.232 1.74,-0.821 3.314,-1.861 4.729,-3.122 0.252,0.767 0.504,1.452 0.756,2.054 0.252,0.604 0.529,1.232 0.834,1.891 l 10.059,-1.562 c -0.857,-2.466 -1.438,-5.272 -1.738,-8.423 -0.303,-3.15 -0.102,-6.287 0.605,-9.41 l 9.146,-41.327 z m -19.965,39.19 c -0.254,1.262 -0.492,2.645 -0.719,4.15 -0.227,1.507 -0.393,2.946 -0.492,4.314 -1.059,1.15 -2.068,1.973 -3.025,2.466 -0.959,0.493 -2.018,0.739 -3.178,0.739 -2.17,0 -3.668,-0.752 -4.5,-2.261 -0.834,-1.505 -1.25,-3.574 -1.25,-6.204 0,-2.025 0.305,-4.012 0.908,-5.957 0.605,-1.945 1.449,-3.685 2.535,-5.219 1.084,-1.533 2.383,-2.754 3.896,-3.658 1.512,-0.903 3.15,-1.355 4.916,-1.355 0.555,0 1.01,0 1.363,0 0.352,0 0.641,0.014 0.869,0.041 0.227,0.029 0.453,0.07 0.68,0.124 0.229,0.056 0.492,0.11 0.795,0.165 l -2.798,12.655 z" />
        </g>
        <g
           style="opacity:0.81000001"
           id="g230-3-2-5"
           transform="matrix(0.69692538,0,0,0.69692538,224.01527,-244.76887)"
           inkscape:export-filename="/home/pockey/Documents/SFD/SFD11/design/web-banners/web-banner-organizing.png"
           inkscape:export-xdpi="122.81"
           inkscape:export-ydpi="122.81">
          <path
             style="fill:none"
             inkscape:connector-curvature="0"
             id="path232-0-5-8"
             d="m 1177.245,586.324 c 7.564,-18.068 28.518,-26.512 46.803,-18.855 4.268,1.783 8.002,4.299 11.141,7.319 -3.705,-4.114 -8.361,-7.501 -13.818,-9.788 -19.541,-8.181 -41.934,0.844 -50.018,20.154 -4.324,10.329 -4.571,23.144 -0.488,33.371 2.1,-1.572 4.279,-3.146 6.535,-4.711 -3.636,-8.497 -3.983,-18.347 -0.155,-27.49 z" />
          <path
             style="fill:none"
             inkscape:connector-curvature="0"
             id="path234-8-1-5"
             d="m 1210.524,571.878 c -16.432,0 -29.799,13.367 -29.799,29.799 0,3.122 0.492,6.129 1.39,8.958 15.12,-9.9 33.333,-19.042 53.989,-24.255 -0.01,-10e-4 -0.015,-10e-4 -0.021,-0.002 -5.215,-8.678 -14.719,-14.5 -25.559,-14.5 z" />
          <path
             style="fill:none"
             inkscape:connector-curvature="0"
             id="path236-2-7-5-7"
             d="m 1269.696,591.441 c 0.391,2.278 0.67,4.595 0.797,6.952 -6.412,0.486 -9.91,-0.642 -9.91,-0.642 -2.826,-3.178 -6.027,-5.487 -9.271,-7.167 -2.14,0.225 -4.306,0.552 -6.483,0.988 -28.584,5.723 -52.715,19.595 -70.668,33.189 0.666,0.987 1.367,1.946 2.143,2.835 -3.617,6.421 -5.184,10.253 -7.91,16.874 -2.753,-2.711 -5.245,-5.686 -7.438,-8.881 -7.471,6.619 -13.18,12.559 -16.867,16.652 h 182.908 c -5.583,-15.413 -22.7,-53.537 -57.301,-60.8 z" />
          <linearGradient
             y2="634.6167"
             x2="1270.4927"
             y1="634.6167"
             x1="1150.4614"
             gradientUnits="userSpaceOnUse"
             id="linearGradient3730-7-2-3">
            <stop
               id="stop3732-6-2-3"
               style="stop-color:#F7EC30"
               offset="0" />
            <stop
               id="stop3734-0-4-8"
               style="stop-color:#FAAE40"
               offset="1" />
          </linearGradient>
          <path
             style="fill:url(#linearGradient3449)"
             inkscape:connector-curvature="0"
             id="path243-4-4-5-9"
             d="m 1176.303,627.597 c -0.775,-0.889 -1.477,-1.848 -2.143,-2.835 -4.87,3.687 -9.279,7.35 -13.205,10.828 2.192,3.195 4.685,6.17 7.438,8.881 2.727,-6.621 4.293,-10.453 7.91,-16.874 z" />
          <linearGradient
             y2="585.56201"
             x2="1270.4922"
             y1="585.56201"
             x1="1150.4614"
             gradientUnits="userSpaceOnUse"
             id="linearGradient3737-4-5-5">
            <stop
               id="stop3739-6-2-5"
               style="stop-color:#F7EC30"
               offset="0" />
            <stop
               id="stop3741-5-5-3"
               style="stop-color:#FAAE40"
               offset="1" />
          </linearGradient>
          <path
             style="fill:url(#linearGradient3451)"
             inkscape:connector-curvature="0"
             id="path250-9-7-4-8"
             d="m 1171.352,585.154 c 8.084,-19.311 30.477,-28.335 50.018,-20.154 5.457,2.287 10.113,5.674 13.818,9.788 -3.139,-3.021 -6.873,-5.536 -11.141,-7.319 -18.285,-7.656 -39.238,0.787 -46.803,18.855 -3.828,9.144 -3.48,18.993 0.154,27.49 1.537,-1.065 3.108,-2.126 4.716,-3.179 -0.897,-2.829 -1.39,-5.836 -1.39,-8.958 0,-16.432 13.367,-29.799 29.799,-29.799 10.84,0 20.344,5.821 25.559,14.5 0.01,10e-4 0.015,10e-4 0.021,0.002 2.418,-0.61 4.866,-1.173 7.351,-1.671 4.903,-0.982 9.768,-1.479 14.457,-1.479 3.478,0 6.815,0.272 10.022,0.77 -7.547,-24.544 -30.395,-42.385 -57.41,-42.385 -33.172,0 -60.062,26.891 -60.062,60.062 0,10.05 2.485,19.511 6.85,27.832 4.051,-3.544 8.577,-7.258 13.553,-10.984 -4.083,-10.228 -3.836,-23.042 0.488,-33.371 z" />
          <linearGradient
             y2="594.37207"
             x2="1270.4927"
             y1="594.37207"
             x1="1150.4614"
             gradientUnits="userSpaceOnUse"
             id="linearGradient3744-0-43-6">
            <stop
               id="stop3746-5-5-0"
               style="stop-color:#F7EC30"
               offset="0" />
            <stop
               id="stop3748-0-5-3"
               style="stop-color:#FAAE40"
               offset="1" />
          </linearGradient>
          <path
             style="fill:url(#linearGradient3453)"
             inkscape:connector-curvature="0"
             id="path257-37-5-9-3"
             d="m 1260.583,597.751 c 0,0 3.498,1.128 9.91,0.642 -0.127,-2.357 -0.406,-4.674 -0.797,-6.952 -3.725,-0.782 -7.648,-1.211 -11.784,-1.211 -2.16,0 -4.366,0.121 -6.6,0.354 3.243,1.68 6.444,3.99 9.271,7.167 z" />
          <g
             id="g259-5-4-4-6">
            <linearGradient
               gradientTransform="matrix(-1,0,0,1,1789.39,0)"
               y2="621.23633"
               x2="654.18433"
               y1="621.23633"
               x1="458.2778"
               gradientUnits="userSpaceOnUse"
               id="linearGradient3752-2-6-1">
              <stop
                 id="stop3754-1-0-8"
                 style="stop-color:#8BC541"
                 offset="0" />
              <stop
                 id="stop3756-2-7-7"
                 style="stop-color:#39B24A"
                 offset="1" />
            </linearGradient>
            <path
               style="fill:url(#linearGradient3455)"
               inkscape:connector-curvature="0"
               id="path266-1-4-0"
               d="m 1269.696,591.441 c -3.725,-0.782 -7.648,-1.211 -11.784,-1.211 -2.16,0 -4.366,0.121 -6.6,0.354 -2.14,0.225 -4.306,0.552 -6.483,0.988 -28.584,5.723 -52.715,19.595 -70.668,33.189 -4.87,3.687 -9.279,7.35 -13.205,10.828 -7.471,6.619 -13.18,12.559 -16.867,16.652 h 182.908 c -5.583,-15.413 -22.7,-53.537 -57.301,-60.8 z" />
          </g>
        </g>
        <g
           style="opacity:0.18900003"
           id="g268-6-9-5"
           transform="matrix(0.69692538,0,0,0.69692538,224.01527,-244.76887)"
           inkscape:export-filename="/home/pockey/Documents/SFD/SFD11/design/web-banners/web-banner-organizing.png"
           inkscape:export-xdpi="122.81"
           inkscape:export-ydpi="122.81">
          <linearGradient
             gradientTransform="matrix(-1,0,0,1,1790.99,0)"
             y2="637.58978"
             x2="647.41541"
             y1="637.58978"
             x1="462.67139"
             gradientUnits="userSpaceOnUse"
             id="linearGradient3760-6-4-1">
            <stop
               id="stop3762-0-6-1"
               style="stop-color:#FFFFFF"
               offset="0" />
            <stop
               id="stop3764-5-8-0"
               style="stop-color:#FFFFFF;stop-opacity:0"
               offset="1" />
          </linearGradient>
          <path
             style="fill:url(#linearGradient3457)"
             inkscape:connector-curvature="0"
             id="path275-1-7-3"
             d="m 1245.154,622.309 c 56.701,-5.558 79.467,26.119 82.741,31.213 h -184.254 c 1.74,-1.082 41.272,-25.307 101.513,-31.213 z" />
        </g>
      </g>
      <text
         transform="scale(0.89551666,1.1166738)"
         sodipodi:linespacing="120%"
         id="text4516"
         y="332.45526"
         x="1348.4369"
         style="font-size:25.08935829px;font-style:normal;font-variant:normal;font-weight:normal;font-stretch:normal;text-align:center;line-height:120.00000477000000387%;letter-spacing:0px;word-spacing:0px;writing-mode:lr-tb;text-anchor:middle;fill:#f9d523;fill-opacity:1;stroke:none;font-family:VDS;-inkscape-font-specification:VDS"
         xml:space="preserve"
         inkscape:export-filename="/home/pockey/Documents/SFD/SFD12/Iron-logo/iron-logo.png"
         inkscape:export-xdpi="71.249527"
         inkscape:export-ydpi="71.249527"><tspan
           style="font-size:25.08935829px;font-style:normal;font-variant:normal;font-weight:normal;font-stretch:normal;text-align:center;line-height:120.00000477000000387%;letter-spacing:1.53467189999999998px;writing-mode:lr-tb;text-anchor:middle;fill:#f15a24;fill-opacity:1;font-family:VDS;-inkscape-font-specification:VDS"
           y="332.45526"
           x="1349.2042"
           sodipodi:role="line"
           id="tspan3273">www.softwarelivre.org/sfd2013-curitiba</tspan></text>
      <text
         transform="scale(0.89551667,1.1166738)"
         sodipodi:linespacing="120%"
         id="text4516-2"
         y="172.84251"
         x="1219.3754"
         style="font-size:78.0557785px;font-style:normal;font-variant:normal;font-weight:normal;font-stretch:normal;text-align:center;line-height:120.00000477%;letter-spacing:0px;word-spacing:0px;writing-mode:lr-tb;text-anchor:middle;fill:#ffffff;fill-opacity:1;stroke:none;font-family:VDS;-inkscape-font-specification:VDS"
         xml:space="preserve"
         inkscape:export-filename="/home/pockey/Documents/SFD/SFD12/Iron-logo/iron-logo.png"
         inkscape:export-xdpi="71.249527"
         inkscape:export-ydpi="71.249527"><tspan
           style="font-size:78.0557785px;font-style:normal;font-variant:normal;font-weight:normal;font-stretch:normal;text-align:center;line-height:120.00000477%;letter-spacing:4.22073221px;writing-mode:lr-tb;text-anchor:middle;fill:#ffffff;fill-opacity:1;font-family:VDS;-inkscape-font-specification:VDS"
           y="172.84251"
           x="1221.4857"
           sodipodi:role="line"
           id="tspan3273-3">Falta</tspan></text>
      <text
         transform="scale(0.89551667,1.1166738)"
         sodipodi:linespacing="120%"
         id="text4516-2-4"
         y="200.21518"
         x="1440.6093"
         style="font-size:153.14959717px;font-style:normal;font-variant:normal;font-weight:normal;font-stretch:normal;text-align:center;line-height:120.00000477%;letter-spacing:0px;word-spacing:0px;writing-mode:lr-tb;text-anchor:middle;fill:#ffffff;fill-opacity:1;stroke:none;font-family:VDS;-inkscape-font-specification:VDS"
         xml:space="preserve"
         inkscape:export-filename="/home/pockey/Documents/SFD/SFD12/Iron-logo/iron-logo.png"
         inkscape:export-xdpi="71.249527"
         inkscape:export-ydpi="71.249527"><tspan
           style="font-size:153.14959717px;font-style:normal;font-variant:normal;font-weight:normal;font-stretch:normal;text-align:center;line-height:120.00000477%;letter-spacing:9.4354248px;writing-mode:lr-tb;text-anchor:middle;fill:#ffffff;fill-opacity:1;font-family:VDS;-inkscape-font-specification:VDS"
           y="200.21518"
           x="1445.327"
           sodipodi:role="line"
           id="tspan3273-3-6">1</tspan></text>
      <text
         transform="scale(0.89551667,1.1166738)"
         sodipodi:linespacing="120%"
         id="text4516-2-3"
         y="273.0849"
         x="1446.7671"
         style="font-size:78.0557785px;font-style:normal;font-variant:normal;font-weight:normal;font-stretch:normal;text-align:center;line-height:120.00000477%;letter-spacing:0px;word-spacing:0px;writing-mode:lr-tb;text-anchor:middle;fill:#ffffff;fill-opacity:1;stroke:none;font-family:VDS;-inkscape-font-specification:VDS"
         xml:space="preserve"
         inkscape:export-filename="/home/pockey/Documents/SFD/SFD12/Iron-logo/iron-logo.png"
         inkscape:export-xdpi="71.249527"
         inkscape:export-ydpi="71.249527"><tspan
           style="font-size:78.0557785px;font-style:normal;font-variant:normal;font-weight:normal;font-stretch:normal;text-align:center;line-height:120.00000477%;letter-spacing:4.22073221px;writing-mode:lr-tb;text-anchor:middle;fill:#ffffff;fill-opacity:1;font-family:VDS;-inkscape-font-specification:VDS"
           y="273.0849"
           x="1448.8774"
           sodipodi:role="line"
           id="tspan3273-3-7">semana</tspan></text>
      <text
         xml:space="preserve"
         style="font-size:25.08935738px;font-style:normal;font-weight:normal;line-height:77.99999714%;letter-spacing:0px;word-spacing:0px;fill:#f9d523;fill-opacity:1;stroke:none;font-family:Sans"
         x="1381.0337"
         y="490.6351"
         id="text4538-3"
         sodipodi:linespacing="77.999997%"
         transform="scale(0.89551667,1.1166738)"
         inkscape:export-filename="/home/pockey/Documents/SFD/SFD12/Iron-logo/iron-logo.png"
         inkscape:export-xdpi="71.249527"
         inkscape:export-ydpi="71.249527"><tspan
           sodipodi:role="line"
           x="1381.0337"
           y="490.6351"
           style="font-size:25.08935738px;font-style:normal;font-variant:normal;font-weight:bold;font-stretch:normal;text-align:start;line-height:77.99999714%;letter-spacing:1.77013099px;text-anchor:start;fill:#39b54a;fill-opacity:1;font-family:VDS;-inkscape-font-specification:VDS Bold"
           id="tspan4540-3">Curitiba 2013</tspan></text>
    </g>
  </g>
</svg>
