<?xml version="1.0" encoding="UTF-8" standalone="no"?>
<!-- Created with Inkscape (http://www.inkscape.org/) -->

<svg
   xmlns:dc="http://purl.org/dc/elements/1.1/"
   xmlns:cc="http://creativecommons.org/ns#"
   xmlns:rdf="http://www.w3.org/1999/02/22-rdf-syntax-ns#"
   xmlns:svg="http://www.w3.org/2000/svg"
   xmlns="http://www.w3.org/2000/svg"
   xmlns:xlink="http://www.w3.org/1999/xlink"
   xmlns:sodipodi="http://sodipodi.sourceforge.net/DTD/sodipodi-0.dtd"
   xmlns:inkscape="http://www.inkscape.org/namespaces/inkscape"
   width="1052.3622"
   height="744.09448"
   id="svg4049"
   version="1.1"
   inkscape:version="0.48.4 r9939"
   sodipodi:docname="camisa-frente.svg">
  <defs
     id="defs3">
    <linearGradient
       y2="634.6167"
       x2="1270.4927"
       y1="634.6167"
       x1="1150.4614"
       gradientTransform="matrix(0.3915047,0,0,0.39453801,203.09371,-157.91598)"
       gradientUnits="userSpaceOnUse"
       id="linearGradient4557-7-1-5"
       xlink:href="#SVGID_28_-516-0-2-7-2"
       inkscape:collect="always" />
    <linearGradient
       id="SVGID_28_-516-0-2-7-2"
       gradientUnits="userSpaceOnUse"
       x1="1150.4614"
       y1="634.6167"
       x2="1270.4927"
       y2="634.6167">
      <stop
         offset="0"
         style="stop-color:#F7EC30"
         id="stop239-0-9-8-4-0" />
      <stop
         offset="1"
         style="stop-color:#FAAE40"
         id="stop241-09-6-1-5-0" />
    </linearGradient>
    <linearGradient
       y2="594.37207"
       x2="1270.4927"
       y1="594.37207"
       x1="1150.4614"
       gradientTransform="matrix(0.3915047,0,0,0.39453801,203.09371,-157.91598)"
       gradientUnits="userSpaceOnUse"
       id="linearGradient4561-6-5-6"
       xlink:href="#SVGID_30_-4-2-0-1-4"
       inkscape:collect="always" />
    <linearGradient
       id="SVGID_30_-4-2-0-1-4"
       gradientUnits="userSpaceOnUse"
       x1="1150.4614"
       y1="594.37207"
       x2="1270.4927"
       y2="594.37207">
      <stop
         offset="0"
         style="stop-color:#F7EC30"
         id="stop253-5-9-9-5-2" />
      <stop
         offset="1"
         style="stop-color:#FAAE40"
         id="stop255-02-3-8-9-2" />
    </linearGradient>
  </defs>
  <sodipodi:namedview
     inkscape:document-units="mm"
     id="base"
     pagecolor="#ffffff"
     bordercolor="#666666"
     borderopacity="1.0"
     inkscape:pageopacity="0.0"
     inkscape:pageshadow="2"
     inkscape:zoom="0.7"
     inkscape:cx="350"
     inkscape:cy="405.71429"
     inkscape:current-layer="layer1"
     showgrid="false"
     units="mm"
     inkscape:window-width="1920"
     inkscape:window-height="1028"
     inkscape:window-x="0"
     inkscape:window-y="0"
     inkscape:window-maximized="1" />
  <metadata
     id="metadata4">
    <rdf:RDF>
      <cc:Work
         rdf:about="">
        <dc:format>image/svg+xml</dc:format>
        <dc:type
           rdf:resource="http://purl.org/dc/dcmitype/StillImage" />
        <dc:title />
      </cc:Work>
    </rdf:RDF>
  </metadata>
  <g
     inkscape:label="Layer 1"
     inkscape:groupmode="layer"
     id="layer1"
     transform="translate(0,-308.2677)">
    <image
       style="stroke:#c7c7c7;stroke-opacity:1"
       y="530.6842"
       x="33.017429"
       id="image4010"
       xlink:href="data:image/png;base64,iVBORw0KGgoAAAANSUhEUgAAAvUAAADDCAYAAAAC/u4UAAAABHNCSVQICAgIfAhkiAAAIABJREFU eJzsnXecHVXZ+L/n7u5sCiF0kBBK9mwgk1Cku7SAIrxZmnQRQURA4VURUEEERHyxoqLYfiooFhAV aVlpQkAJCNKTkzYJvRchEJI9u3vP748zC5vNLXPmzm2b8/185rO7d0559t65M895zlOEMQZP/Vn+ WOcmrW35M4xhb4HY2MA44AkgAqHIiyuDaQvn1VtOj8fj8Xg8Hk/jIbxSX3/65nbsZIS4CxhduqW4 Inh5k5OZfmd/TQTzeDwej8fj8TQFuXoL4BE5I8RfKavQA5gT9AbP/KHqInk8Ho/H4/F4mgqv1NeZ frXFbsBEhy5H9s/v/EC15PF4PB6Px+PxNB9eqa8zA6ZlG9c+Js+F1ZDF4/F4PB6Px9OctNZbgNUe YRK43ayMwezbP1fu1jo1uqcaItWVJR3je3s5IWfEQXnICcGTxohr28NFN9RbNI/H4/F4PJ5GxSv1 dSYnxEtpgpXzQpwKjCilfsX8LTbP5Vt6BEwxgAAw7CUwx2slH8jD2aPC6I46i+nxeDwej8fTcHj3 mzpjDA+l7LlttpLUmSUd43P5llnAlCItdsrBbb1KnllDqTwej8fj8XiaAq/U15kgjOYD76ToOplZ e4+YnRa9gsuAzco0ywn4Xq+SvxhJ/7vH4/F4PB5PpXilvu6YAeCxFB3b9AbPTs5amnqg53dsDeLY pO0FnKzXf+Z31ZTJ4/F4PB6Pp5nwSn0DIOD+lF2nZipInRB5caJ7J47WquOYKojj8Xg8Ho/H03R4 pb4BMIJZKbt2ZilHXYg62w3i4+k6iwuyFcbj8Xg8Ho+nOfFKfQMQmN67APcUOBBkLUut0X3mI2DW Sdl98ooFW22RqUAej8fj8Xg8TYhX6huB8JnXQaTxq296hMHd9WYIuYEB5+JdHo/H4/F4PCMNr9Q3 CAIzq94y1JplaouNDOxT0SDCiIzE8Xg8Ho/H42lavFLfIFTgV9+0tNJyOBVegwbTl5E4Ho/H4/F4 PE2LV+obhDz5h+stQx04qtIBDGZOFoJ4PB6Px+PxNDNeqW8QRk154mngbadOxgxUR5rqs3zhlhME 7FbJGAZeHTVlyVNZyeTxeDwej8fTrHilvmEwBoRy6SGEea5a0lSb3ED/EUBF/vACcWtG4ng8Ho/H 4/E0NV6pbyycXEkGoGmt1MKIil1vcnnzkyxk8Xg8Ho/H42l2vFLfQBiY69JeIJpSqdePb7EVsGuF wzzcOi2anYU8Ho/H4/F4PM2OV+obCeOk1Jv2QDxTNVmqiGhpObXiMYTwVnqPx+PxeDyeGK/UNxB5 Y1x86l9ELuqtmjDVQk1bw8DxlQ0iXm8bt+KP2Qjk8Xg8Ho/H0/x4pb6BGN271osOzZvS9aZP9B4H rFnZKOZyNnlmeSYCeTwej8fj8YwAWustQDH65nbslM+Jk3LQCZDPixvyxvxl9LSoKV1OErHDf/pQ 8k1gfLmmRvB4DSTKHGPMaRX1h1fac23fykoej8fj8Xg8npFA4yn1z04c3bs0+LEQ4kRhwMQvC2Gm twgu0fPkveTN94Opi/9aVzmrx6skUOpzee6pgSyZsmKu3DsnCCsZQ2BOZ6t5r2Ulk8fj8Xg8Hs9I oKHcb3rnd0zWS9vvF4gTizQRGLoQ4i9aySuJOit042hIXknSKC+aT6nP5fjfCof4exAu9r70Ho/H 4/F4PMNoGKV+2ZxJG4q8uB2YlrDLx7U2j/XPm7xnNeWqOUK8WrYJvNweRlEtxMmKFfMmbYbh4AqG eDuP+XRmAnk8Ho/H4/GMIBrG/aY1l/szMNGx22Z5k7+zd548u31K9N1qyFVzTHlLvYGmy8+eMy0X gGlJ29/AuaPCxU9nKZPHU0+0km3A+4H3AWsPOVqBp4En4uOpIIyaL9OVx+PxeGpKQyj1ffPlDgL2 SNk9Jwzf0aqjJQgXN30ApSD/X4Mo2cbQXK43es7kKeTMcRUMcV97uPiyzATyeOqEVnI3YF9gT2wB ttEJuhmt5AvAEuDvwG+DMHquelJ6PB6PpxlpCKU+n2e30mpsEsQ3teqg2RX7PGKNcu9FjtztNREm K3LmIiCVld7AK0bkjwaTz1gqj6cmaCVzwGHAl4EdUgwhgI3jY3fgIq3krcDlwLVBGA1kJavH4/F4 mpeG8KkXCJf87KVG+qZWHWdnM1Z9EJh1yjRZ0BYufKQmwmRA39yOncAclrZ7C/nDRk1Z0pQ5+T0e reT/AAuAa0in0BciB+wPfI/3EoR5PB6PZzWnIZT6gPbrgIezGU18s1fJSrOs1A2BWLd0C3NVbSTJ CCEuTt9VnNoaLvlnluJ4PLVAK5nTSn4dmAnIKk1zRRBGfgfL4/F4PECDKPWEc7TJmaOBt7MYTsAP +tWktD76dcUISir1JkfTKPUrlNzHwIfS9BXwo7Ypi36VtUweT7XRSq4F3AycB2UCZNKTx7rfeDwe j8cDgDCmcXZv9Tx5NIbfAkEGw73YL/q3HzPlyRcyGKtmaCWfBSYUOf1QEEZZbeFXGSG0mnQviF2c eyJuawuj/wHjfYVrjFayHdgQm4VlHVbOyPJifLwAvBiEka6XnI1KnNHmFmDvKk91cxBG/1PlOTwe j8fTRDREoOwgwZToaj1nkiInfgtiuwqH26jFtP6ZB3fcmx3+05eJgLWhqE+9gaYpvNQ7r+MsAc4K PbCwbUAf5RX62qCVXBfYDZt9ag9ge6AtYd8XgLuAO4A7gjBaXC05m4hfUn2FHsDvYnk8Ho9nJRrK Uv8uD+7Ypke9cT6Cs6lw4SHgx21h9LmMJKsuz04crZe2v1PolIFX2wPRgVy0tNZiudI/v/MD+by5 G/fPbtFAa8veoycv8On6qohWUgDdwBnAdLJzEXka+Cvw06DJiqNlgVbyHCB1DIkDLwObBGHUTMYK j8fj8VSZxlTqY/rmdW5vDJeD2baScYwwB7RPWTwzK7mqxfKFW05o6R94ttA5I8wX2qcs/mGtZXLm 8c3W1i1tjwCbOvZc0N/Sus+YLec/Xw2xPO+61pwAnA5sWcWpDDaf+o+BW4IwatybTEZoJbcCHiPh LkeFfDcIoy+VaxR/3lOAqdhK3VOBR4MwOq/K8nk8Ho+nDjSU+81w2qYseogHd9xJj3rjbARfJaWv vTDiJzy27Sy2eXRZxiJmSl739bfkCsYuP9XelvtZreVJg25p+w3uCv28Pgb2GbtllFFqU89wYqXz KqBSt7YkCGBGfNynlTw1CKOMsls1LJdRG4Ue4NdD/9BKtgKTeU9xH/wpWbU+RMMbNzwej8eTjoa2 1A9Fq86pwOVgdk7TX8AlbWF0VsZiZYuatoZmxVvDXxaC49umRFfWQyQXeud2fkEI833Hbqovn99n 7LQlL1VFKA9ayU8BlwJj6iTCAPBT4EtBGK2okwxVQyt5FHB1RsP1YY0txVyi/hmE0Z7xvB8GLsHu uiRdUGwThNHjFUvp8Xg8noajMVJaJiAIF80NwqjLwFnActf+Bk7vU5NrYaVMTzh3VX96YW5tm7L4 93WQxom+uR07CWG+7dhtju5nb6/QVw+t5GXY4M16KfRgrcUfBEZctpy4WmwlfvSzgXOAQ7DW9tHA KGALYE/gU8Ct2IUR2M9ykAOwVvmkCv1SYG4Fsno8Ho+ngWlo95tVMQPtIZf0Knk9mF8LxJ4OnVsM +f8HYlcwDVqwxeRBvgbv5qpfEPTmj2pceWOWdIw3gj/h5n5wczDQd0ywzVP/rZZYqztaybOB0+ot R8z5I7RQ0v8Ak1L0Ww58Bbi0QMzBAPBkfPwT+LVWciPgSOAvQ9q5Zpf69wj9DDwej8dDE1nqh9Ie RlF7uGS6EOI0YBV3lRLs1KcmfaJKYmWEuD7+5QWTMwex3RNv1FWcBOgVuZ+C2CJhc4PhG0G4uJut vUJfLbSSH6M2mViS8BBwbb2FqBJpFk3PAO8PwuiHSYOIgzB6MQijHwVhtBzeDYJ13Xm817G9x+Px eJqIplTqLca0TVn00zxmGvBA4l6Ic0AMDx5rGILl73wWzLHB8uWyfavFC+stTzn653fuBeaYhM3f NIhDgqnReQ2/+9DEaCU3xwZTVquaqStfHYkZcLSSHcD+Kbp+KgijBRVOvz3uiQNmVzinx+PxeBqY JlbqLaPCxU8Ha/buBeYv5VsDILWadFRVhaqEHZ57JwgX/4EdniuYr76xEC15Y36UsPFcI8xO7eGi G6oqkgfgG0B7vYWIuScIo7/XW4gqcSzuC6dfB2F0awZzu7reGOC+DOb1eDweT4PS9Eo9AJs8szwI lxwJ4lvJOohzQTSKFbNp6Zs36WQM25Rp1i/gx0H/2F3apyxeVBPBVmO0ktsDSXdOasFX6y1AFdnP sf3bwJkZzb2rY3sVhNGbGc3t8Xg8ngakyQJlS2FMEHJOn+pYaBC/oHTQZqjnTPpIMG3E+vnWAJHL m44LS6+MzI2mxXwx2HJJpa4GnuRcSOVuN68CN2J9v5+Pj35gA2B9YCKwL7awUSluD8JoVoWyNCRa ybUA1/S6N2WoWLta6r3rjcfj8YxwRpBSb2kLF1+xYk7nE7mcuQEYV6ydyYnPMXKD96pO3zy5ncCs X/iseSRvxBmjpi6+s7ZSrd5oJcdile203An8HLguCKOy6Se1kpthUzGeDWxUoMm5FcjS6OzDqoWd ynFNFhNrJTcENnfs5oNkPR6PZ4QzMtxvhjFq2qJZxogjsNbFggjYnflT1i123lMa09//DtZPd5A3 EPzW5M2BQbhkh1FTI6/Q154Pkt6X/mdBGO0ThNE1SRR6gCCMngrC6FJsfvVvAb1DTt8QhNH9KWVp Bj7s2P4tIKvYAlfXG/CWeo/H4xnxjEilHqB96qJbhBCfLtGkpW+g74CaCTTCCLZ+Yn5O5KaDOdYY sX+wfK0NginRJ9qnLb7JZ7apGzNS9vstFeSzD8LorSCMzsG641wL5IHz0o7XJOzm2H52htV0XV1v XgcaPpOWx+PxeCpjxLnfDKVtyqJf67lyc0ThYD0jOBir0HhS0Dpl4d31lsGzErun6LMMm2Kx4pST QRg9ARymldwqCKP5lY43nDg3+35AJ7BZfGwe/2wFXgJejH/OAa4HHso6naZWck0gdOyW5a6Fq6X+ 3pGYUrTRid2k3g9MGHZsCPRhC5AtxV6zg8ezwMNBGD1fY1knAFsDWwJrYV1X14x/roHdaXoZ+916 GXgCm9mqt+CA7vOvgS3k1oGN2dl0yE8Aha2GrOLj0SCMXs5ibo9nJCGMGfn3eq06fgfi2AKn3gmW r7UWO/ynr+ZCeTwZo5V8DVjHsds/gjD6UDXkyQqt5ETg08BJ2EBdF54D/gZ8Kwij5zKS50PAbY7d Dg3C6G/vjdHxOxBJ/hcTtLQeyZbz34rnzgFvYhWtpDwFuCyyJgFrD/l7HlAqxe7MIIx+7DD+Smgl L8bm3S/HkiCMTk0x/ihsJV5XI9Y5QRg97DjX2sChwNHA3rjHXQzyIvAf4EFsKtLbgzAq6k7qKGMb sCfQjX3ft8b9vgHWIPAPYCbQE4TRs45yCOx7dDxwGDDWofsANkblW0EYPeYyr8czkhnRlvpBAkaf 2MvyTQViz2Gnxixve3PD0dY64vE0LVrJgHQP5nuyliUrtJK7A18ADia9cjQB+F/gBK3kt4DvZeAG k8an/d/v/rZwy/WKGBkK8fSgQh8zFTeFHt7b1UjLHmXOP5V2YK3kBsBZlM5WNsjclNPsh1VgXXgZ u9uTCK3kflgXtv1wLwpWiI2AA+ID4EWt5BXAr4IwWuI6mFZyXax73oGxjGtmIONY4KD4mDlE1nKy jMN+5seT/rpsAT4KHK2VvAS7AMtk0ePxNDMj1qd+JcI5uh39EWy5+pVoDcyGdZDI48matNdxYsWl VmglW7WS3wHuxlo9s6gAPRa4CHhcKzmpwrFclfpnhrpT9Or+5P3NKgGuaRYU1aaSFKrHkUyhh/RG qCNT9LkyCKOyO7hayU21ktcCN2MV5iwU+kJsBJwDRFrJ27SSZQO1tZKbayW/rJX8F9Zt5krgCLJR 6IeTKLNTvMv1OHA+lS00BxHYBcJd8S6Jx7Nas3oo9QDhM68HgdhbCGYNfTnfL3wGHM9IYFTKfltl KkWFxK42dwFfpPJ8+4WQwN1ayUr+b2ef9qF/iJxI3N+IEa/Uf9KhrbNSH7veHOjaD/hVmXEDreQ5 WNekj6QYPy0C+BDJCp9dgs1KtRvZLIyLobHxK8UbKDlOK/kLrNtaFsr8cLqA6+K4G49ntWW1cL95 F7loaVvUub/W5kqs9SbflzePNNJdIH4ISWzA0HjsVvu4YUcLtkDQK4UOXzmyMYjzxrcFYfRGDaZ7 Cutn6vrw3qkKsqRCK9mNDVyv9kJ7Atayt1sQRpFLR61kJ+7y3Tf0DwG7JI1kygkx3D3KNfNNLUil 1GsluyhfwGwoaZ5X+1GiXkkR/hWEUdGCeVrJLbFK7JYp5MmK+8o3qdkC8JZSz5zYje4PvBf0Wi32 BH4KnFjleTyehmX1UuoB5KLeAI7qV5Mu60cEa2yzuC4R9HGw0i7AttiHw5bYfN+bUuEOilZS856S /wTWjWEW8FgQRj7dZJWIA7/2w7oUHIBVJvJaydlYX+6S1qxKCMJIayWfwgY5urCrVnJsEEbLqiFX UrSSh2G38Gu1e7gB8Gut5HTHzDBpFKUhlnqRM3QkrERrlrW9NPGxQbU3zrrjogTXirSWelflK421 OY3rza+LndBKvh+4BfeA7awpqdRrJTcFNq6RLEVdb7SS07H+9mNqJMsJWsmfBmH0YI3m83gaitVP qY9pDZf8s5b/fJy14v3YSpQfxKYfdIn2dyHgvfRp2/He9vB/tZL/xLo3zAIe8Up+NsR+2r8Gpg87 lcN+1l1ayc8HYXRZFcVYhLtSvz7wM+xCpC5oJfcAfk/t3QH3BE7BVtFNiqtS38uQWB6t5BQwiXya BeJ+pt85NPhvZxrTZdJZqY9TGB7l2M3plp3S9WYpRZTU2OJ8E3YHtZ48F4TRM2Xa1MpK3wvcUOiE VnIv7PtVK4Ue7LX4LSqrrO3xNC2N+IAYMWgl27WSh2kl/4J1l/kP8B2sNbdaCn0p1sZmKrgEmyrt da3kjVrJM2MLlMcRrWROK/l5bPDX9BJNc8CPtZLDMzBlyaKU/T6ulfzfTCVJiFYyxLoypI0JqJRv x5lBkuKqLD08tEKvEMn7m1WrwDai6w2ke44cjfs90NUOMwN315urgzBaJX2nVnJ/rIW+3go9JHO9 +UDVpbDcHITR0uEvxgv1mdTnOfehODbH41nt8Ep9FdBKdmklfw68gM2PfBgr531uFMZj3US+Bzyk lXxQK3lcnB7RU4bYv/pu4Ickt0ZdXD2JUiv1YBccf6xlBom44M3N1Pe7sSbwiSQNtZJjgG0cx18p SDafNw5BsqYZgmQhefaaoaSpYOyq1H88xRyrBMjGBo/rqa3FuRT3lm9SM6V+lV0NreR2QA/1UegH SRMc7fE0PV6pzwit5PpayfO1khE29/cpNKYiX4rtsYGKT2slvxZXRPQUQCv5CeBhbGYJF3ZLko4u JTdjg2XT8lFgjlby2Dg+oNpcjq0aWW9OSfj/7oi7Yrly5pvklnrT3t8/XHlrVEu9k1If71Ztl2Ke xO99vPvimpv+sSCMHhg2zljgKqqXqjIN5fzp27GuntVmBXDjsLkD4He411IYzovYgmlpK9ZW6x7r 8TQ0q61PfVZoJTfGpt87mcax5FTKhsAFwDlayT8Bl/rAI0scrPhzrAKcloOAW7OR6D2CMFqolbwa +FgFw2yMfSifoZU8KwijO7KRbmW0kodT2YP3eazL0zzs9borsEXKsTqxsS7/KNMujaX8PQVswVbj gDBhv/ls/dR/B/+IYzbqHZxZDFdL/edTzuMSKHs07nL9ssBrl1J5lpunsXEVC7GFDtuxbkFbYONt XK7bPqzrZCm2J/0i5E1sFeYXsQaC9bFB5esVGPPvQRi9Ney1C4FpKeZ9DbtLcj/wwGDMQByLdiDW ZbTDYbxGMBZ4PDXHK/Up0UpuDnwZOAF7kx6JBNgt7I/HBUwuBf4WhFEl1uCmRSu5C/BH3INRh7NX BuIU4yKsQlNpXur3A//QSl4DnB6E0QsVSxYTWz9/kLL7M8CXgzC6qsC4GwPXks6i/T9kr9SvFND4 dm//6LY2c2bCvsNdqdIsKL6EVQJdCYBvO7RPrDxrJTfDVghOg8vzytX15k3gN0Nf0EoeQWXpEWdj XRuvL5aQQCv5W9yU+kcSVER2db3JY9+v+0pVq9VKroVdMHwQmyv/qmHnd8EauFy5HTh+aIG2QeL3 7XqtpMIu4pM+axt1AezxVBWv1DsSlzW/GFvienV6/3aPjwVayVOCMLqr3gLVCq1kC/ZhdRHZfOZT tZLrBmH0WgZjrUQQRgsysNYP5Uhgf63kV4GfZJQt6QJgkxT9/gocVyiQESAIo+e1kvthAxpdFfsk 7SsqOrXGNtHL2PiLNLj+P4uDMPpuyrnQSv4fya91F4v4/5J+wZlIHq3kZNzfr18GYfT2kDHeB/w/ xzHe7Q58PgijJFmVXN33qpGfXgVh9MdyjeJ6G3fEx7lDz2klR2NdN10+Wx2Pc0m5tLJBGC2KDQxJ F2uNENDs8dQc71OfkDjLyanAAqz1ZnVS6IeyJXCnVvJXq0NZbq3k9sC/gW+S3WcuqG7Rp68DyzMc b03gR8D9WskdKxkoVrhOT9H1OuCjxRT6QeIiOMenGH97rWTRzze2ML/PccwkClhSXBW1SudeJaNJ CRIp9XGgcSWWbxG7Y5TDNT1rP/b6HspZwFqO44BNjrBnEoU+NhC5uJRAdTLfZHGdnoK7m9KRQRh9 z6FOhHIY+xVHWTyeEYFX6hOgldwJ6+v3E9Ld6EcaAvtwnq+VrMS3vGHRSq6hlfwB9nPfoQpTVC2F YxBGC7EW9v5ybR3ZAbhPK/mpCsb4DO6+zg8CRwVhlMiVJK4G+qjjHGMo7e9eYdGp9MSBj66BpZUq ai5VkJN+nsdRefKAkgvrOOD5WMcx/zLUTUoruQ5WSXXlDeDDQRj9O2H7rhRzlLym4oxSrrtgFV2n 8ULrc47dfpWiGJ+L22e5PP4ez4jEK/Ul0EqO10r+DPuArIZi1+xsAPxRK/n3OMZgRKCVPAQbgHk6 lfumFyNrhXslgjC6Cfgk4FItNQktwC+1kl937RhnxnD1ddbACUNzvSfkasf2ABuVOOeq1PcxpOhU hbwf98DHShcULzm0LevnHCvbropfIUaXOb8PsJnjmN8f9vdncU/H2AscEoTRHIc+rkr9y0EYPVGm TZpUlpUuAA/GLS5gCfCFFPO4vF9eqfeslnilvgixm8FDwKfx71M59gfmxkWsqqUEVx2t5ESt5HXA 30jn852UXuBfVRwfgCCMfke6h2cSztNKXlHKZaUAhwAuhZ4Avh2E0eOOfSCdUrtOiXOuSn2SgMak uM69HHiswjlfdGibJH1hNzAlpSxDKecrfarjeP8amsYyDuJOs/g4P0WckatSXw3XmzewBoxKcLnH 5LFxMW+XbTmEeLfKJf7AK/We1RKvrBZAK/k5bK75SrOcrE6MwWZ6uF8rmSalWd3QSq6tlbwI67OZ NjOHCzfGQWdVJwijS7EP3TRZUMrxCWBmHCSXBFe3nQHgZ459BkkThFzQNSRWKLZ3HCsT15sYV6X+ waSuSiVwsdQnUeq/klaQYRR1f4xdTw5yHG+4lf5kSi/uCqFwzOYU71q5xqckuaZcr5X7HXzaVyGO OdrDocutQRjd4zhHO9bQ4pLR5mGXOTyekYJX6ocQK3d/w6ZubKRiI83E9sA9WskP1luQcmgl19JK Xgg8CXyVygumJOEtbKrBmhGE0Q+xVq7FVRj+w8B55RrFgaau18TtFaTSfDVFn2IKYxr3lyyDZF0z uWQxt4ulflypk1rJ6WRX4bSUpf4U3ILZF2MrxQ7lSGeJ4LQUi6gdcE+FXK7oVIC7m2ili88THNv/ zaVx/D/9BZtyNimvAje4zOPxjBTK3gBXzJu0WY7crhhhTD7/jsmxvEXklrX16wVDi6M0O7HF4Vrc /TE9q7Im8Het5ImxC0hDoZUcj/WXP53aBz6flsAvNnOCMHogLnf/E9z92stxplbyt3GAajE+jLsR 4coKZEpjqS/mt19Z0akKiKs6b16HubO01J9TiSDDKKjUayXbgJMcx7p0aIrWOA+7a1aqB4IwmuXY B9xdbwaAB8q02Q73hUKlSv3eDm3zrLqIKohWciPsfeqTwFaOMl2ZIgbH4xkRFFTqV8zfYnMxkPui EGLfHLlO+6pB5AQCMMagW9oMSkYgHjAi/0CO3H1tU6J/g8k6MK/qaCU/hLUg1MJSu7rQBlypldw0 CKP/q7cw8G412M9j3VFqnY7TYIs41W2RE1d/PE4r2YN1FygVGOo0NHAZsG+JNq6W2rewaSzTYrBK hMtCothCwFWpfynDhVu9FhQulvpWrWR7EEa9w09oJXcgWeXgucDUBO2KLcIPxe16fgO4fNhre+Me GJ8kF30hXJX6x4MwWlamjet3zGDT9aYiTsmZ5DMb5N4gjIouFmM3mwOw1v/9SZ+koFBlYI9ntWAV pb5vXueuOdNyM6JsQJIAOsF0CiOOMRi06nheIP8s8lzTOm3xvc2g4Gslj8JaBL27TXX4hlZyU+DU elSijXNjdwOHxz9ds1pkwQrglCCMKrE8Z0YQRldrJWdi/Zy/QDYVkT+klTwiCKM/FznvqnD8tVxO +jJsjPvOQFZKfT1db54Nwui5DOZ1UerBuuCsotST3Jf+AqybRTmKPZdcA2T/XwElOcniYyhLSZdl CRojSHZ+hbE90x3b3xUv8iYCmxb4+T4qdwn+QxBG8yscw+NpWlZW6h/csc2MNleSvhrbxgY+b3J8 XquOZ0BencdcNipc/HTFklYBreRnsf7zot6yjHBOBiZoJY9KYG2qGK21OEQyAAAgAElEQVTkGliL z+FYX8wx1Z6zBLcDnwnCKKqjDKsQW+3P0Ur+Emu1dw0wLMT3tZI3DLfYxkXKXAvT/LVCWSam6LOK Uh9XFnV1yatn0amsAnRd3G/A7nKuFMeglZwCfCRB3zlY18d+yruErvJsigPz90wmpu3CqsWmoPRO UyHuSLPw1EpugfsuWTUqyVZ6nbq43oBd4GUVMF2Ix0lXX8DjGTGstCruHfXm/kBnRmNPBL6YQyzW qvMPfWqya/GUqqKV/Ab2xu4V+trQDcyKfYQzRyu5rlbyeK3k9dhqglcBh1E/hf5l4NggjPZtNIV+ KEEYLQnC6GCs8vVshcNtQuG0c7vi/j1bVKEsm6boU8hSX8+iUzncfbyzWlCksdQP58sk+9y/E2dg SZLmsJD7zWkJ+g3l58N3M7SSE3Gv7nq3Y/tBXFIzDlKu6FSaxWel1+leFfbPkjeBQ2thNPJ4GpmV lHohzMeqMEcrmGMM+Yf7lLytX01ySX9VFeKMJ+fWW47VkB2Be+NMKJmgldxaK/lbbHn232AtzlWr 1poAA/wK2CoIoz/UUQ4ngjC6DptH/DcVDlXI2plmQV/p7p6rpd4Azxd43VWpHwD+49inGFNxj/PJ RKkPwmg5Nq4hKSvFqGglJwFJnidPYxfgkEypX8lSHyuzn0jQb5C3gUIxPml2dv6Zog+4u968HleJ LkWa7EKVKvUuBaeqyVLgiEY2nng8tWK4/9p+1ZzMwIfy5O7WqvMP78zb/H3VnKsYWslTgfPrMbcH sA+CG2MXmdRoJffRSt6MLbJzHMlL1VeLt7BBc9sGYXRSEEZNlxkqLgjzSVYNIHShUNpKl/zSAK/E SmUluCppKnZJGo6rUp8koDEp9axiC27W+vWG/f01kqWX/H4QRoPVlZ2VeuxugMsi/odBGL1c4HXX a9QAjzj2GWRnx/bVcL1Zis2vn4r4/l1P48kgjwM7BmF0W70F8XgagfeU+gVbjaNm6f3MMa2mdUGv 6jyDWXu75BWuCK3k4cCPazVfRuTLN2k6tgb+ELsXOKGVzGklLwH+QZUXoQl5BFt1eOMgjD6Tsvpp wxC7QZwE/D7lEIV2YVyryD6Vcu6hVJyvO66WW40CQUnZ1rF9llVswc2v/l2lPvalT2Klfw27qzWI k/tNbKV38aF+HfhukXOuSv3SIYuRxMT3vNCxWzWCZO8fms4zBa7vVzX4PbBrEEaVuup5PCOG9xTq gVYD/QOkTyPlyjiBuURv8OxRfWqLg8eGT7j6cDqhldwbexNopIJbBngUW/zoeawLyQtDfn8eG3w2 BpvNo9ixNbXPt14pB2G3wV1zWB8OnJG9OE68jQ3k/HkQRlkGRTYEQRjltZKfBmbgXl1zXa2kGFal sqZKvVayE3clp9DnuA3uMRlZXg+uPt5ZX4su9+Shn/FFJLvPXjZsV8PVUu9qpf9mEEZLi5xzVVLT 1EEAkEDSCsyDlEw7Gefod13EVnqtDN+ZqSW3Yj/LWXWUweNpSN5T6sM5bxvVcY9AuGQRyACzcxst 9+s5kw4Ipi15rBozaCW3wea8ziJ1X6W8BdwG3AT0lMrbO4S3gYXxsQqxRXFP4GCssrx5JpJWn7O1 knMcfc+XkSxLRpYMFn65LT7uS1FBsqkIwmiZVvL3wOccu7Zg/atfH/Kaq1JfyD3CheNS9ClkYa9b 0amYSY7ts/LlH+QZh7brwbtF/A5N0P514IfDXkviwz8+nsfVSv8ctpZCMVyV+rSpILdO0adcisZt cV8oVLqjVGtL/QC2lsy3gjB6sMZzezxNwzDFSJwI3IL7w6RSJpLL3dM7t/Pw9qmLbsly4Nj378/Y Kqf1YjEwE6vI31VJtTut5Cigd6glNN4GviM+Pq+V3Bqr3B+MdR9o5Aw/v9JKRkEYJSqCEoTRTK3k fsD3cXdPSEoeiLAuPrcBd1aYz7lZmZOy3/D4Bldrf+pdJ62kwL1i7hvAvAKvuyr1SQIaExG7aWzu 2K3Q/1AJLjsmg5bbb5DsfvPNAt8pF0u9q5X+62Vck1wXnoWy/STBValfQfmsVGmCZFMXnYqpRfG+ p7FW+VuB25sxTsnjqTUrKfXtYRSBkCvmdkzPCU4AsSXC5DDkwOQgJxBGYBC8d+MW7x1C2HZsjHvW hjWEMH/R8+QHgilRWmWiEL8AJmc4ngu3AucnVVgBtJId2ECqjbHFOIYf44F+reSLrOymM/j7U8C/ 4iqu/xdbtI4GzgQmZPR/Zcko4Dqt5E5BGCVKqRiE0R3AdnGGjUOx6Rin4b5wGwCWYAPG5sY/FbYo S6WBmiOBNP7ZeYblK8furLiwQYp5B5mOe2q/a4e5Cw1Sz6JTE3AviJd10R2XDETraiV3w9aFKMcz FLaaJ/KpT2GlX0T54O83HcaD9Neoq8FsSQLfd9frdGEQRmndhwbJMnXki1gjytDjkSCMFmQ4h8ez WlDAhcGYUVO5E7izopHnT1m3r19vYXK5LYwwmwtDiE13V0qxXAPDdUSd2yMXFfN9TIxW8lPAMZWO k4J/AucGYVQ25VnsOrMbtljSAcBWCcZvxeYE36TI+Xe0krcC1wM3BWH0A63kT7Gp386m8dxzNgKu 10ru4VLMJQijJcD34gOt5FjswmfogiiPVRbein8O/v4WtvpmoSqYHkuqAk4FKge7KkyVbO0fn6LP FcNf0Equi3vNjnr60z9bJHtPJbha6guliizEBUWs5kmU+jHYdMQuVvrzEwS1utZoGK+VbE9x/yh2 zy5GkiBQV0t9FsHcaXYuZ2CNT8uGHvWoNO7xjFSq55e81bzX2mww0Up+nnqenGYM++dgfwN7sKo1 qqOvj4Pb4HeVTB9XGSxUNbCaPAB8NQijW0s10kquiXWP6Qb2J/sg1zHAIfGR10rOxir41wO/xvoc f5PKLKJZsz1Wto+mHSAOuhu09Ix4tJK5CjNYlMO18BEUzpjiqgBsnGJetJJTcb9+FgVh9K8Cr9et 6FSMq0W3Gu5hLpb695NsZ2Eu8Nsi55Io9eBmpX8E+FOCdmkKr20MPOHYx3WhXPJeFhfzc80Xn8Xi M831NiYIo0czmNvj8RSh5plgginRnPYw+l5bGH0o6B+7jsmbAxGch+Aq4EED/8SIitICaiXHYP3o XYOH0qKAQ4Iw2rmUQq+VHKuVPAeb7eZ3WLeYametyQG7Y1O5LQT+Fc8/hQIWyjpztFZyRr2FaAbi CphztZIfrtL4E7A7R64UUupdLfXraSV3cemglWzBXs+uLivFvgOuSn0euN+xTylclfrNM5wbgCCM XgWS7pwlfd+/UmIhmlSpdzFGnVvEtWo4aZT6/VP0cXWBLOcGWK/F53AXuyQkcc3yeDwVUMsMIquy zaPL2m3w6E0Zj3weydxYsuBK4JRSQVhayXbgM9j0jfW2ju/CewGg52DTfP4Cm2qtEbhUK/kP7xZT lnOx1/gtWsk/AF/LqqKiVnIdbMrONPeHQpkp0sh1OG7BfBfhvrOQx35/C+GqLKkS6RLT4KrUr6GV XC9WxLPkabK7l94ThNENJc5nLfs/gzDqSdg2jVJ/BPCzpI21kmnSWZb7Drq63rxN+gD4dwnC6Fmt 5Ou4BcF3ayXHZliczePxDKORcrZnQlz45MwaTNUPfC4Io+OLKfRayTat5MlYpeYH1F+hH8q+WHeh zwBH8l6p9nojgS/WW4hGRiu5Bbby6yAfA+ZrJa+K07dWMvbGwN3YxV8ari3wWhrL4JFJqw5rJc/F vd4BwG+CMHquwHg53Kt+3pFi/lK45seHZKkkXXFxwSnHl8qcX+WzqACDzZCTlOfiPi7sqZXcPElD reSu2FgrV8pVynZdfD6QoQ+7a/XijXBYBHk8HndGnFIP/ITyN8JKeQnYJwijotVp40wQ87BWcNfg qFohsBbRB7BBS9/AZoSpN1/RSrpmMFmdOI9Vr/EWrDvXo1rJB7SSZ8dFmBKhlZRaya9greNTU8r1 LIVdUO7DXWHaFJgZu9IVRCs5Tiv5A+x168pSii8EQtwzKZWMo0lBGqv/T7SSByZtHH/m25VplkV1 X4A/B2E0u0ybNNbyYvwkCKPEi8l4Z9B1p6AFuE0rWfL+rpU8DpiFVWpdKWqpj5MsuO5OZRnMnaYu wse1kmekqSYOoJWcrJU8XSt5WJr+Hs9Ip77uNxmjlTwG2LvK0/wbOKyQhW+IHKdhLfPVXlxkRQvw KeyOwheA86lvxcDR2PevGpbHpiZW1MsVV9oxPr6plZyL3W5/Kj4GLa/rYbPMbADsgw1UrpTrCvkv B2H0ulZyPjaOw4U9se5FP8VaGKNYkZkM7AVcAGyYUtYLgzAqVuTK1aWhD6u0ZUkapb4VuEYreRl2 of6fOEMUWsm1scaFzbD3yG5gS+CnwGklxszCUt9LMqt5Vpb6p0i3c7MI98xLErgz3i36dxBGTwFo JTfFXr8zqCD4n9LPkDQVj7MM5r4Lm03NlUuAk7SS3wb+Wixr05BsZpOx8QszeC8r1GVYF0GPxzOE EaPUxxllLqnyNL8GTivm7x0Xhvo56dLqDeUd7Hb+Et7LPz94PI9NxzgeG2S7FtavcRrWarMT7unw BpHAxdjMOJ8lnWUpKz6ildwvCKNMi5GNAC7ALsKSMpX0lncXBoBfljh/NXBhinF3jw+0km9ilZhK F8vzgaK7bFhlzIXZVfATTuufPwo4a/APreQb2PdrbJH25RZFWVjqfxSEUdksMUEYvaGVXEZxWZNy UhBGSYNuh3ID0JWinyTOsKOVfAm7iNk0xTiFKFUUq94Vj2/DPo/SZKvaChukfkX8vX4Wu6gbhX3u vI/SBb4ayZXV42kYRoxSjw0crKYS+psgjD5V7GTsLnIt6S2erwI3AtcBtyUofvQqK28Xv7v9H1vl 9gOOwlo4XHI6r4F1Z/grVrmp583zR1rJrSupwDuSiONFKrH6VZPLgjB6rMT5y7E7QC4LkuGML9+k LAb4bBBGfSXaTHccM2vXG8ggmDGmXHatckq9a8rG4bxK8vz1YBW7SooFXhGE0W0p+14LfKuCuSH9 zlExSrnQue4oLQ7C6JVKhBlKEEYDWskrSWetH8r4+HAxPmT9Pns8I4IR4VMfZ+s4tYpT/JMSuZG1 kh/EZv1wVeiXYy2GewEbBWH0ySCMbqi0mmkQRv8NwujqIIw+gr35fRy3TCKDvvZvUT6lWjWZDJxR x/kbjQtpzO/sC1iFvShxteCkmUiqyVlBGN1e7GRc0dk1BqYaSv1tuMchpKGccrSwwvG/FoSRS0rT SlxwXqCC+0UQRouARsujXiormaulPkvXm0Eux2aRqjXeUu/xFKARFYQ0fB5rYa4Gi4GPFLMWx3nV b6H0NulwBrA3w84gjD4XhNHd1aqqF4TR0iCMfh+E0a5Yn8QHHLp34GblrwZf1UrW0w2oIYiz2hxe bzmKcHrCdI4XUx8FYJAfB2H0/TJt9nIc8zXcs4CUJbaoZj5uAUoq9XHcQdrCVvOxiQJcqESp/0wQ RpUW4bq4wv5Zs2ZcYGoltJLr456GOEvXG+DdhdAPsx43Ad5S7/EUoOmVeq3kOKz/dzV4EzggCKPX isw9Desr7OJSMBPYNgijE0sF21aDIIz+HoTRzsCBJN9WF1UUKQljsUG8qztfp/6fRSG+GITRNUka BmF0HzY7VT24Hjg9QbvpjuP+o4pVfWsRCLimVrJc7vS01vozgzDqd+yTNgPOn4Iwuj5l33eJr2WX Xc1aUMgFp94Vj4dyHtb4VUvWjoPmPR7PEJpeqce63axdhXH7gSOCMJpf6KRWcgNs0axSwTxDmQNM D8LogCCM5mYkYyqCMLoJmznhZ9Rmi79SPpU2BdpIQCu5JXBwveUowFeCMPqeax+yS5OYlLuBYxIq 39Mdx66G680g36dy95cklLN6Lkgx5kyHwk9DSWPoeJVsDTtnUt8dpeEUSlvpqtS/A5SKeUlNEEbv ACdin5m1QuBdcDyeVWhqRSm2MFXL5/pzxQKu4gqx12HTwyXhOmDXIIzuykq4SgnC6O0gjE7FFqF6 pt7ylGEz4MP1FqJeBGG0AKvUN8rn1A+cHYTRN107xllJDiH76qGFMMB3gQ/GikdJ4nShEx3nqJpS H2fZ+nS1xh9C1n71vSTbFSlEGqX+8xkHgN6DdemsFq6Zkgrd+1yDZP+TYtckMfGz7XCglkkNvFLv 8QyjqZV6bCaQanyxrw7CqFTlu8tJflP9P+DQRi2NHYTRP7CWIBdf+3pwcr0FqCdBGN2ALYr0HWwA c714CNg5CKNvpx0gCKNHsL7rL2Qm1aq8inWd+5KDMuNaF2F+EEZVXWgFYXQnNo1pNcnaUn9JEEZR Sllc3W9uCsLojynnKkoQRpdhU/tmST9wEe5W9r3idMkAaCVbcC86VS3Xm3eJ3Z8OonbJFbxfvccz jGZX6ssV4UmDxroIFD6p5HnAMQnGWYHd8v9qoYI8jUQQRi9h3Q6uq7MopThQK/m+egtRT+LdlS9j s7OcQeXpBl14G1tAaOcgjB6udLAgjBQ2Zeo9lY5VgFnAdincP450bJ82daITQRh9HVstuOxuQ0rK GUZcLPXPUlmwqYul/k2quJMRhNFXgC9hdx4q5VHsd+f8IIzm4FaNdTSwx5C/p+GeGCLzINlCxHVF dgPKVQ/OAm+p93iG0bRKfZwX3rVITBJ+WqxQilZye5IV0HkZ2DMIo6sylayKxO4Jh2H97BuRVuCE egvRCMQZjX6AzX7xEeAqIDP3gyEYrD/6CdiUq9/JMktTEEZREEa7Ax+j8mqivcDvgQ8EYbS3axB6 nMrSNSVtNf3pVyIIoz9hi3DdSTZxMC9gv+v7Ar8p03aRw5xnVbgr+SI2O1gSvljtZANBGH0XaxVP m+qyD/vM2GnYYrhUobZBXsZ+//4fK7vsuLreQA0s9YMEYfRwEEa7AceSXZXgQRZjY02mA5nv0Hg8 zY4wpqGNyEWJy3J/I+NhlwIdQRgV9PfVSt4GfKjMGL3A3kEY1ewmmiVaSYHN6ONqtawFTwKTGn3n ox7En9v2WP/b/bCVMV0rrxqsAvcQtu7C34IwqklWC63kGGzcwEHA/5C80NQSrIL0q2Lf24Tzfxm3 wkN9wDopK5dWhFZyU6zCdCwwJUGXXmzlz+exFttrgXtdvkdayUOBoFyzIIyuTTpmibk+ArSXadYX hFEtsgMBEGda2Rf7nh+CrWxcimeAa4DL412p4eONjtuMx17D84cfQRj9t4gs22Ersialpu/VUOL4 s72BA4BuYHOH7nnswmYxNmvcDfVOMuHxNDrNrNTPB7bMeNhzgzAquHWslfwwNh99OY4PwujKbMWq LfGN+Bbcc3bXgv3jLV5PCWIlZAPeK7m+0ZCjDZt7/A2sC8MbWLeJR4Iwqqe/PgBayTZgF6yb0Ybx sS52N+Ip4On4eCpJAGzCOb+EjVlIypNBGH0ti7krIf6uDr5HG8U/81gF/jng+WIpeT3p0EquAewM TBhyGN5bOM0HHii3aIrrb7xWprrxiEIruRUwCXtvWj/+uSb2uz34/j0X/3ypmsG9Hs9IpCmVeq3k zmSfS/h5bDGoVZSE2Ar6ELBdmTG+G4TRlzKWqy5oJdfC+kUmsQQmwWC3kN8qcgRYxW29+Oe6FLbW XRuE0WEZyeTxeDwej8czImjW4g1HVWHMr5Ww+n2M8gr9TcDZ2YpUP4IwekMreQx28VRu232Qfmzw 5gJscN3gz4XAi65FemKL2HBFf7xWUngXHI/H4/F4PJ73aFZL/aPY4klZsQCYWigIMN7enk9pX8CF wI6N4LqQNVrJsymc2q0PeBhrzb8HW9jkidVpK9nj8Xg8Ho+nUWg6S71Wcj1g64yH/UOJrB6nUj64 50sjUaGP+Q42yCnEZlC4Jz7uD8KoVvmIPR6Px+PxeDwlaDqlHtgHWyI6S24sca5cZcR74qIbI5Ig jPJayX2BFd7lxePxeDwej6cxaValPkuejitcroJWchtg0zL9v5yxPA2Ht8h7PB6Px+PxNDbNWHzq gxmPV8pKf0CZvjcEYVSNipgej8fj8Xg8Hk9imkqp10pugq2imSWllPoDS5wbAM7JWBaPx+PxeDwe j8eZZnO/mZbxeG9hy66vglZyA2yBkWJcX6hSoGdVunq6x03J5befYvK79MM6A8as3Y9Yq18wvs8w rh/GCjCthrfbYGkrvNmCeaPF8HqbEC8HA+bezx506wP1/j88Ho/H4/F4GpVmU+onZzzeLUEY6SLn uim9k/G3jGVperp6uidgs+RsNezYeF4+x7zhb+fwsNvh4c+Df7fCdT3dZkOTX74u5uXxhsVjMY/c mGu9dPaMmc9k/o94PB6Px+PxNBnNptRvmfF4N5Q4V8qfvh+YmbEsTUVXT7fAKvB7DDkmVmu+5SCe FLkxT8LmCDbHxlac2dXTPR+4NT7umj1j5tvVksHj8Xhc0EoeQGkXz0Ls7mO1PB5PGppNqc/SUp8H egqd0Eq2AR8u0feuIIz+m6EsDU9XT3cbsAPvKfC7AevUVSjL4G7A54C+rp7u2VgF/8+zZ8xcVFfJ PB7P6s6uju37gAerIYjH4xn5JFLqtZLjgM3iPwewCvHAsKMfeLnKucyztNS/EITRa0XOTQDWKNF3 xOalH6Srp7sF2B2bQnQPYBdgTF2FKk8bsFd8fKOrp/tO4BfAdbNnzCzmZuXxeDzVwlWpfyQIoxVV kcSzWqKVbAXGFTl6gVeAV4FXgzBaWi85PdmwilKvlRTAB4BDgW2AKcAmCcdbppVUwOPAw9hg0kx8 nrWSYxzkSMJzJc5tUKbvdRnK0TB09XSPwu5QfASb+Wfd+kpUEQK7INkHeLmrp/sK4JezZ8xcXF+x POXQSp4PTKq3HMPoDcLolHoL4WketJI5SidbKMR91ZDFM7LRSk7AGj2HH+8DRjmMo7FK/gPAP4Db gzCan7nAnqohjLGG9dgafw5wDO9Z5SvFYG9Svwd+VSIotSxaySlAltlmrg3C6LAicx1IcX97FYTR 1AzlqCtdPd1rYeMHDgH2B8bWV6KqYoBbgPNmz5j5n3oL41kVrWQL8CaNdx3eG4RRV72F8DQPWslp WAOXC8cEYXRVNeTxjBy0kttiC19uiXVLLuVZUCnPYRX83wZhdEcV5/FkQCuAVnJ74E9knwN+0Or/ AeB0reRJQRjdlXKsNbMTC4BnS5wrZal/ImM5ak5XT/fGwMFYi/x0rNvK6oDALlz26+rp/itw7uwZ MxfWWSbPykyj8RR6gNn1FsDTdLi63gDcm7kUnpHIYcBHazTXBOA44Dit5H3AxcBNVXa19qSkVSu5 JfZGElR5rk7geq3khkEY9aboPy5jedK63zyfsRw1oaunew3gaOAE7CJreALJ1QkBHA4cErvlXDh7 xsxS14Ondnyg3gIUwWcj8bjiei2/FITRk9UQxDPiqNd9clesF8NjWskLgjAaka7IzUwr8Fmqr9A/ j3Wd+U1KhR6yV+pLWeo3LHGuqZS/rp7uDwCfAo6kult0zUgrcBJwbFdP9w+Bi2bPmLm8zjKt7qSx btYCb6n3uOJ6LXsrvacsKWM1smYb4G9ayR8BZwZh1F9neTwxrcARGYxjgDnA/cCLwEvx8QzWB/3N DOaopVLf1Jb6rp7u9YGPAydic8l7SjMaG09yWFdP9ydnz5jprbL1oxEt9UuCMHqp3kJ4mget5Hhs kgkXfJCsJwkh2bsjp+VzwHZaySP9PbIxaAVeo3y2l0I8hS3AdCcwKwijV7MUrAC1dL8plfWlIS31 XT3dOWBfrFX+IKq/+zISmQzc3dXTfSnW395b7WuIVnIdsq8anQXeSu9xZWfcXRy9pd6ThEbbzdwT eFAreWAQRg/XW5jVnVbgaZJbFJYD1wJXAHfUOFAia9eRUsr56yXONZSlvqune23gM8ApwKZ1Fmck kAO+ABwQW+3/VW+BViMa7WE1iFfqPa64Xsv9gM/I5UlCI+5mTgBmaiV3CMLohXoLszozqNSX437g cuDqjFxp0pDLcKx3yhT4KOWa0xCFQbp6ujfBKp8n433lq0EncFdXT/d3sFb7fL0FWg1oVKXeu2N5 XHFVvB4LwuidqkjiGWk0olIPNif+tVrJvSpJX+6pjBzwR6xP/HBeAi4BpgVhtEsQRr+oo0IPNnd1 VozRSpZyTylVMGu9DOVwpqune2pXT/dvgCXAGXiFvprkgLOBmXE+f091acSH1VJsvJDH48Iuju29 642nLFrJtYCt6i1HCXYFflpvIVZnWoMwmhUXW/oYVolZhnWxuaXBIpqzXlCsCxTbJiplqa+LUt/V 070H8CWgm9U7HWU92B+4v6un++DZM2bOq7cwI5EGyehQiH8HYeR3aTyJ0UpOBtZx7OaDZD1J2IXG f/6fqJW8Kwij39VbkNWRVoAgjGZig14bmTcyHq/hlfqunm6BLRL1JRrTirk60Qnc19XT/fHZM2YW qzbsSU8jZXQYiven97jii055qkUaPeANrOfF0iHHMuz9dh1gbWAzst31v1AreVWDGYZXC1rrLYAD WVvqSynnpZT69TOWoyBdPd0HA9/AVtj0NAZrAtd19XSfO3vGzG/WW5gRRhpF6Ebg/KwFGcZTVR7f M/JwvZZfCcJocVUk8Yw00twnjwrC6NZSDbSSrcCO2ArzRwLvTzHPULbAVqG9vMJxPI40k1JfDUt9 MV7EZiMo9P5skbEcK9HV0z0d+CaNGzS4uiOAi7t6utedPWPmWfUWZgSR5nq/PQijRzKXxOOpDNdr 2bveeMqilRS4x2oY4N/lGsUW9fvi41tayW7gAmAnVzmH8BWt5JXeWl9bmkmpr4ZPfUGCMMprJRcA Uwuc3i1jOQDo6uneHrgY2K8a43sy58yunu41gFN9ZpxMSLOt3PjK0Ky9W5dt8OR6rSI3LifEmgP9 YpzIsaYQJpfL88pAzrzc3pZ7CbloaVXmf3DCmN412ieSZ9OcERaQA8AAACAASURBVBMNTDSIjQTi aUAZzNz2cPESMHW6hoVYpjbfMDC5iQY2NTkm5t5NzZtTQjC3NcgrJi2uZ5KGVdBKtmFrp7wZhNHA kNfHYKttupDtdfzgjm29wVsTTcvA5i2YzQy5zQzmfUKI/5o8LwnyL+aEebaVMf8mnFPfLCVR55p6 ef/GIpcbNyDEuJxgTYEYh31ve43h1Rz51wbyuRfapy2qbDfjsW3H6uDtSfkBsV5OiPWFyK+LEcvz RrzW0sKrff3m2dHTolJJMurNFMA1YcO8NAlOgjCaqZW8GbgUOM21f0wHcAxwZcr+bizpGK9X5CYY MTAhZ3IT8kaMzeVYYfL5d0zOvCqEeDHItb7A5IWvgallOvaaIkyT/G9ayXFYX7CsODcIo4tLzPcN 4NwCpwywfhBGr2UhRFdP92TgImxl30YPgPGsyh+AT8yeMdNbI1ISV9/8L27X/wpgfEOlTlvSMb63 l91Enq0Rua0RZmsMW5GsENwKg7lfCDET6AmmRKkz7ixTW2zUSsuxAo4nmfveCjDzEeLGQLRdylbz Mrm3FUeIFXM7pufgEwgOJZkv7/MI8ZAZ4Mft0xaVdCXIEq3k5sCh2KJoE+JjY2zBRoF9HrwFPIFN /fxfbAyUC/sEYXRnRYKqaYFm+REgTsNac5OkgH4LzC1C5G5oa+P6qi0sY95+TG4QtLEPxmyDyG2N MVtjfbmT8hxwG3lzYzBtyd+SKGZ6fsfWGHGQMewroAtoK9MlMsbcCrkb2qcuusVBtqqjlfwk8GvH bpcHYXRihfN+GfhWyu4zgzA6oJL5i6HnTJ5CS/6jGA7BelAkjQnoBxEBDxqR/0+LMQ+2MuZhwjlv l5xPyZ2wCxUX7gjC6GXHPoPzTcTdiKybSakX2OCO0RkN+f0gjM4sMd/2wINFTh8ShNH1lUze1dM9 Abu9dQLNtWPiWZXrgKNnz5jZW29BmhGt5IcB1wfo7CCMqrJr5kKvkhJhDsgZcaCBPSivNCTlaUHu 4LZwYTL3oqizXWsOAvMJ7G5fS7ppzTLIfS94eZNvMP3OTBeqvXM6O0SLOR7Dcbgpc8N5UAhxctuU RQ9lJdtQtJIbY/2Kj6L6bpADwFpBGJVUKIqx/LHOTVpazClCcLJJVxkeAAOv5OCrbeHiX2W5a6Pn TNqGltxBGHMAiDRVdotgHjH53JeLLfD0nEnbkMt9HZtoIt0M8K8cubPawoVl3VdqgVbyl9iK8S6c FITRrzKY+3pspXpXlgHrZGV8WTF/i81z+daPIszRGOcdsVLkDdybM/yybXzvNWzyzCrV5LWSPwQ+ 7zjujCCM/p5GIK3k97G1iFy4PsuCTlUlrl6bZb7okllsgjB6iOJBcrunnbSrp3tUV0/3hUAEnIRX 6EcChwB/6urpbprvU4ORRnGqk+uNaOlXk/bQSn5Hq855AhYJI35gYB+yU+gBs27b8mULk7Tsnzd5 T63NXDDXADNIrdADiLFgLujd4JlZyx/r3CT9OEN4duLoPtVxiciZhRjOozKFHmAHY8zsvnmdp2Yh 3iBayW20krdi65T8gNrENc1JpdDP2rtVK/mdllbzBIKvVqLQAwhY38AvtJr0YJ+avF0lYy2fIydq 1XG+VlKRyz2K4SIQGadiFNuJnLmld678JQ/u+O73Ts+ZPEUreQ253CNUoNADCNjdkL9Pq84LKxY3 G+rpongidhfKlbHYHZLKWNIxvk/JH+XyLRGYizNW6AFyAnYzgt/ope0v9M3ruKxv7qRth7V5PcW4 YyuQ6dAUfX7XbErIoxmOtUOCNn8r8Noi4K9pJuzq6T4QUNiMHaPSjOFpWA4GvltvIZqUpvCnXzZn 0oZayZfz5O4GvgimikVgxEx2eK50hdEHJ4zpU/LSvMnPwn1buPTssFtLa/7utx+TFSmL/XPlbnpp +6MGcQbZVgVvN8b8pHee/GKlA2klx2klfwA8BOxLtnKWwzmV5QrVsane4Jl/Al8kc6OQ2M6Qn9U/ vzN1CuWWnPgaiAuxPuBVRQg+1Tv6jX/0zevcVauO35HLzyFzV1Zzfq+SPwdRN31JK7km7u/nUqy+ UTFBGL0KXJGy+4crmbtvXufH+1aIBQY+S0UGi8SMN0acZkTuET2/Y+shr6dxS0yl1Gsld8Td+PFf 4KbVWamfqpUsZ4m6dsjvBhs0sm0QRk4KRVdP96Sunu6bgBuocvYcT105o6un+5R6C9FMpMzoAHVQ 6ttach8A41pUKB3GXFPqdL/q2F2PHv2ogc9RtVgcsUXQyk08O9Hd5fHBCWP65nb+IC+4G1vjoSoI w7e16jwibX+t5FHAfOB0aqMwDMfpOtaq8+Ac4hGqu4swPp83t/bP79wrXXdT08xtAvYwxtwL4liq tCATcIpWk86rxtgJSRonMZT7My6c93OsHuTKh9JM1rtg0pa9quMuY8yVBjZMM0aFvBO8uOnQYpNp LPVpc/8flqLPn4Iw6l2dlXoov4K8B3gZWAJMD8Lo9CCMVvG1KkbsavM1YC62Eqxn5HNZV093RZaJ 1YwtscVPXHg+COuQpSJfswJwbwfjdU+xk1p1HJNHzAJkDWTZSS8N3KzhUeeaevSoO4wwp1N9q7cA 8wvURKfFllayVSt5JXA1NvC1XiS21Ou58jww1+H+fUnDGvk81y6bM8lNmXpki7WogYW+Pohz++Z1 bl+nyevuohiE0SLS1e1wdrfrU5N3EQMtswVizxTzZYKBB4fFFdXS/SaNUn8l1HabMQsey3i8kukj 41XuScA2QRjd7TLwEFebC/CuNqsTrcCfu3q6C6VD9axK01TfNKJGSr3gxkKBWgB6njwaxJXU1Kos zkrshrNgq3Fam1tiH+pasXafCL6atLFWchR2F/bj1RMpEa8HYZQobqJvrjwJwderLdDKmHXacrkf u/TobWvN2He+oWgzmF/Uae40955q3CefSNFn3XhHNhErlNzHkL+9ZruiRRBmlfevJu43Wsmtcd/d jIIwuheaTKmP862muaiK8SGtZMn3IAijG4IwWpZ0wK6e7k26erpvxLvarM6sCczs6umux5Zhs9EU /vTM2rtV2IqLtaCg641WnUdi+D21dxMZF7SaT5dttWCrcTrffzN1KJxnjDiVBVuNK9cu9k2+GTiw +lKVJdF13Duvo9sIflZtYYpwRK/qTJz1RIj8yC6aaNixb25HJQWZnIkV4jTvazWy9ixJ0aeFhLtL 1r2MHtK7rWRHbpXvZ60s9Wms9L8b/KWplPqYLF1w1gF2zmqwrp7uY4DHgarkZfU0FZsB13f1dPtd mtLUfVs5CX0bPbMt2aXTLcVbweiBm4e/qOd2HAbmD9TH7xvIlXYffGzbsb0D/X/HZJDpIh3tOt9f 0ndXK7kucCeQ0lc8c8pex31zOnYUhj9Rt88dBCbxLgiIWrmo1Y084uQaTzkZd5erhVnV0hlGWqPq +uUa6HnyEDB/AdpTzpEp/fRnodSnWZy4KvWGJlfq7894vIoruHb1dK/T1dN9NbYQkWvFN8/IZRfg yq6e7pG6HV0RWsk1SFYcaSj9FK8fUTXyNfOnFzew+RMrhr5ic+GLK6lr+luzE1Fn0Qdzb+uy74sq VdtOiskzo0yT3wD18okuRGn3iPlT1iUnbrJpRuvKTsnSXIq0Qe9NhRBlr7OsaaTdzKoo9SvmTdoM wxU0Torvp8ZMefKFYa+9ia0r4YKTPqiVnIz7M/FfQRi9+7k0yhvownVA0UqwKdgPSJ2HNg6KvIL6 Blt5GpcjsDUJvlJvQRqQnXE3LDwH7KVV5jGiURBGUbGTAvGBdIkf3DCruN6IHHT8BhiTYrg+4DGD uD+HuZ8cj+fzbCAw2xrEGSKB9WyoIP19YkorvDL8RO/czv2EIJX1UsBLBnM/RjxgEPfnhHjDMCBB HI6t/5B8rBxhsXNayf+lsXZQ85QxUPWavm+KyrN+DGBTG1YUXJvHnAyUrAug53RuRS5fqVErT3WN jYbKff7fx5NbjBq++K4ijeJPD/Bkyn4ldppEizAdWRlE+7ALj7eBNUCsl9I3f5VFURBGRiv5X8rU OBqG6/euItcbaEKlPgijeVrJBdisGVmws1ZyXBBGb7l06urpHo3NS34qIzcwyJMN53T1dC+aPWNm 2jy/I5U0rjebAakq9JXh/7d35mGSldX9/5xbVbd7ZlhVEIRhmb49TN9ZRDahXcKiBGmXxLihQdHo ExU1GtcoyU+TGDUGH1EJaBQlRowY4watgMoQFRz2ZebODH17BhwYZBEGnK1ud93z+6Nqhp7uWu65 VdULvp/n6Yfpqvd976G6qu55z3vO9/wl1c1XA9KTjB/z+xX9qYfcWFFGPPV+5/fqI+VE9y2kHJgW OFBSDlDhCISTUU4Atvf4e3bWLUd978sTARfkmjEZe1OdaBPAT7j9yIsTv7CK6tF+JlLVg6Y8uKFv XxHJ07Fyu8D7SmH8lTrPrQK+NRb1vVmRSzKvqPU3KbXCs3Z7SGwEvg3cXfv3rtbv+wJLgH8CFhrW i/wwfqLRk2PR4ueKvXvoLrYofFLS9Gq/t7CeYKS8c+2iwz0tHA/6ZrBHmgVeC3IuNG5BL17lJLV9 RlJFPqjo7VosrJ83f/ujHHpfubx2UZ9UWC6e93ZFX2y1dU90G3jfEXQVIjeXtGf1Ttl+sFRkuRTk 9Shn5VhUymU5vAfWt2dbZmZTimLeDdcjjZ5IouDvBc19yqfwsKAXqnBZz4OHbZzcCXvb6kXPLHne JgzNAVW00ev3KLPLqd/JpEDQnHPqa/wv8HcdWGcMeE8Oh/54qrujTm0sHE99vjw4PHTb9WdeeftM GzKLmE35tw1vgrWbgqnoXUQ/6Q+MXgR73kl6qpHuqZuH9Uv2HqtUAoKR8q6HktWLB8Tjny3XBRKF j/ph/LlSEweMozdu0dV97xdPfpx1YWWqU5+U5QLA2nn2NiqV15eWb1zXbFApHP16OQreItk7eE9x 6pMomEfVGc9b23IzVYf9ikaa30kU3Ah8zrhuk0iqeErfv5MnWCRc6hcKH2Dx+j2cqN6BDfcC97Ly lB8kB276LsZTENCnJav7l/jLWNtoRKpyklgsFlb3DIxMed16BhgBRlh5yo/KB2y6SCTX5mY7cKHv e58lGNnjdKm3Kst4L3BFEvWtB/m4efWKdyTT4NQnUbA39nSMbVRr+7pBXkWaKSd8UO23AWKo2dhz Oqrn9SxIL9h9alJHTNX3OFyN3b49LTT6fFrrFDI79UkUHEG2pqgT+VFNQGY3czGnHup3erXyEHCa H8YXZ50wODxUHBwe+n/A9TiH3mGjBFw6ODzkz7Qhs4jZopTxsB/Go42eLHkFu52Nbwr1OWrdH0rh yG17LOFVLsbkjMqjgvfcnjA+v1lEdRc98/mlxUSvGhXazc4oOBXlTZY1EC716T3Rb+HQPzlcLTbW kwH9GJBXXvbzwGBNAa1ZE5+jsDs7DTeRY2uDt5Mj91/gi/5AfM5kh34PTr523N+x32tAzIIT4lWa bsJFbJ9n1RbR5JOvHe9ZUHk3iL1AUfiEH8YfmuzQT8YPRz9Bjq6rnuh0KdvlSVG8yQ9ja+53VvKk cSkNikxT+CI5isAFHvTEO81fOvqZVmlQqYi1eL9cwr+twXPW96Ll9cqTenPp5AfmpFPvh/FNwH1t LHErcJwfxplvGIPDQ4upNqP6OHP3hMMxs6wAZrIr4awhiYIA2zFmN2nuXJj16XVbKRxpK1I2Fi06 wdx4RfTcUnh39pOgRaOPU809zUQqusd3rgcfyG4cAJE/r/J2wtVJ1gmq3v2G9fewryZf+S7D/F1U gLP8MH6fH8ZjGcZ3sNeCFFT1Y/bl5JJSGL8n09Bjbx5T9JutB+5Jqk2UbeL+faBxTUM9PBqmODzJ ERt3CvpflnUBRDVzLYKqPX1MVabLqZ9NqTeQL1K/xQ/j8ckPlqPgJSAZCrCncH8FPaE4cHem3kGi Zqf+1ibfUQ8a19rPoNFvdepHqcrz7sGcdOpr5I3Wfxt4vqUj5eDw0DuB2+ig/KXjj5aPDA4PTZfe +WxmtkTpocVNUDU1OfUichNoW5EyVe99ximX+wPxf1sm7Iz6DsMguSbC7u/M5K4jlwBnGC43JiJn m4sLRVdkH8vk7/S3U815t/JePzS9ltY0si1A3ZOK8prgTOyiC6P+ju3vtkxQSf/HeA08r3EH4/JY 5bkY/QlNC5mcT0V+ZVm3OsnLbItHal8fDssxJw+zqUgW8jn1jU6O8qRQP46nL+kNR39rmGNy6qVx Pj3YC4ULZPgOSqLgWdjviV+od4I4l536/zWOT4EP+2H8ej+M63ZrnMzg8NCzBoeHfgpcSD71CYdj MkXgG4PDQ7NCi3cGmRP59NWmU2LahKlqWzfVHXf2H4rwKsOUB3zK77Bex8Mz3UT8nelup1kLhb/B kvMtfKI0MHKr5XrVadmLhEUnbDqioAewboygeqP8knGO9b28yg/juulRImrNH1dPvLdw7P3bLZNq OfZrTBfSxs6JpLb3ErDFXzaSMQVLLA4cAIpmPoFKVM3rg2Y5wekEsy1S//Qcc6Y49eNrgucJvMC6 kKq81l8ymvkUtBa4OMR2Da/Z65ero26GMa/EVkPzBFXVxSnMZaf+OqpKBFnYAgz5YfyvWRcfHB56 DdVik7Z17B2OSSylDRnVpwizJVLfVFqw1nTKtKFXmt4UWlIo8S5MKX7yIcJNtlzPaOHTQD9imPEY R2/csmuuwBsNc+/2B0Y/bbIPGIuCczCkdKR7drs8B5iq1tOcjcCHLRNqKT7WnP26749t0ZEHYVem uTprGsIURC2pTdAs4mhOUWNVlroPgLQwvsW4NnhkFr9Y0Fswr694JnGNPCRR0I/did7gh/FDrYfl Js8p8xSnPpU8UXq5rGfpyFWtxz2Jp3blsEraNChzj3U9sqWZWlNvLmkk8DIjTv34uv4/SaK+HyVR 8HgS9W0tr+k3R1RqkY7PZxi6DniuH8ZTco/qcd6vznjm4PDQfwHfIX+lt8PRig8MDg895Ru11COJ gvlU6wtmA6v9MG4Y1UsrYt58jI1nyBVuRLTMR9Wi+V726fmB7RoLn5bQ8zPgOVmnKLI7HaVMz1uw bXS+a01HGlvbf7bC18gevaqkxcL3Jvz+Xsv1arzfD2Or9nieQsa6TkMJ7xys9VqqUwrlss/F6PxJ Ax1xEcybdMn8GSmMe+baG1FtKBc6mR1pjvWFzOu3wWxqOrWrWWDm74wJ7FGsvGN1sBBo3qF6Ko+P Mf5+64XFXiS7ed6ypqnZeSL1Tes7aqk3llOLlGqBcV2mz6lfeUoxWdN3VhIFN6eprgR5GbAPSCqC afc1gUtpLjF0BVWHPlNE/wu/OfX0tTv5LfCGnPY4HFkpUE3DySu1N5c5jtlTbN70Jij2COSGvVbk j5SNS3IiFsUEkWsIV2dMNRCvHAVnJPg/x3hz9rTy5d3/tuXSI172+qfta484OFkT/L2qfgPL/Unk J/MWr78fIImCRVS14y38nx/Geeq0rO8PparDX4/XGtd6wt83sW3oJiBSX2awMVpXFjC564ijMKqi aJYi2Rqpoeh19xy8zVnHFiupeX1Vzbx+G8y21JuTyPe9fdPEX4pent4DcsGCcOPvrLPUmE+PtHz9 HgAyF/rXaPX+eic2BaAf+2G8odGT0+LUl6PgJcmBm0YRuYw9dTjLqfIKPxwxS0oB+GG8HbiowdOf BF7RrMHHRP511Skf/fHjvT99ICk4yUHHdLEEzDrkTwVmS+oNtCwqU6PTJm3l06eqp5qupmlLR7S8 tq8/iYJPJlHfbwV+Ylec0FWlpRuqEojRMt94o9xUWhLf0nREtMxPov5XJVFwRVGLmxD+EWvRpfIf E37NkzJ5YY45YHfq1/lhPDXdI1q2F8hyy0KqXM6hmzLVhzWYb007eazeg1IwS75qT2Ws0cZm6mBP TDnR1Tnjd2Ydm6a2nGsATSXz+m0w24pkbWpcT3LNxF9UxerUVyqp2hvc3fnsBcCzLVNUm79+tcLU e42WNHTqa7U/1m7cTTNUuhwtEy9Z0/cJET7G1GPUMYSzesP42jYvciHwIWCXM74dOMcP4+9mXeAf rj/th794fP7L0+53gXc4JvO+weGh719/5pW/nmlDppE5USS79c7gQL/IIstirW4KLeejpxqqpSol 36s1j5LCjjuDg0ueHpYWWKhwmKcsTOEYQXJ3a6wZdcGuf45LciLKvKxTZaJKWdy/T5KwUNHDPKo2 ghwBegb5CvB2saEnjK+c8PvpxvkPA+aId02qzppCV/f9sZOdJ3hGve6CtJF6A4hwYLas9l1oI63x k4xdsu5m+b11Nwj1EOTo6gFHZp7oXXJPZsdLULOsYm+x2K3mTgAkUbAAMG3yqPZpMPcfMJDHqd+4 Zw8QEZW+F9neLzo8b9loZrXCXewsbLN/prKdIN0D9BuWPbDJc2dRp2leE+7ww3hlswFdc+q33hkc 2FPsuwzhtDpP71D4i56BuO12734Y/y6Jgm8Bb6b6Yv+ZH8aZ3thfXXXiPneW97715q29fe3a4XDk xAO+Pjg8tPz6M68stxz91CBPpP58DJrqGanQpCukX5STjM4EXqGNfPpbDpkv8+ZZnMRyOdHvSxQs hL5nFYpaTAG0GkFR8rQknYz+l7909Nu7fku1crJlVYVTkyi4C1hIrdByl227R7THThF59a6c/SQK ioDptAP4lh/G1iN16GDTKU84yfhSbCiGo3mkGHejeIdbXn9B6kfqrZv01ikOk0iPMb7n7spahFuz x9ro636WrLV2FrVyPPamTLdk7KtgJomCQ7GmslTZI0o/tjZ4jqC2GgaRb+W4Lp7H84yfqbHiPknz U8Uq1rz6Zuk32XpLPMkFrQZ0xakfXxM8zy/yHa0vJVT2PHlJccnIdR285OeAI4DX+GHcuJveBL54 48lHr9q27y837Cxm1ml2OLpEP/Bu4N9m2pBuU2uFbVUleQz4YCMZwC5i3XzsKP1u4R3mbO4a5Z75 zxfUkv433yL5mIO7/B07/3riAyJyii26a25xb0LgHZOkMk8E9jEuszLn5TvXdErNDc7M8qBTl9DD TcPrdXZdv2RvjOo/YjnNuufIXiiY1vdUbmo9ag+ObT1kD6zr52FWFckC55LPX/zZxF80TV9cravO zphWrsuVE63mfPo7Mqaz3WO0pK5Tn0TBC7DVNj0MXNZqUMdz6pOo7w2psJIG2qCivLvDDj1+GK8G Tsvq0J9/48lnX7Vl3s3OoXfMIj46ODz0x6C2lKv4awYcetSYT69wMydfO6VzYlZE0jzKEt3iMRX9 i8n656rk6QDZFUT0wlIYf2PSw1YHDeD6nCZYHa8ngLr1Y2pM45GpjbbyYGqgpOiU6PTOyphd/UfT zM7n+NbCMUDdAt2Gy0v2TcP29UueRfUUKTuG9dtg1uTTJ1EwD3hbjqkp8PM9HhHzJn8kT4FsHkUm 0cybok5F6q1R+ov9MG55mt9Rp768tm8I5Bs02tEJl5aWxv9R97k2yXrT/+RvTv3Sj38//z8fHfes R1sORzfZHzhvpo2YBmbNzaopK08pSvUIPDOmCGS9+SKW3MouordrKsf3DIyO7PHwLceVgAayhtNK BdWPlAY21Oui2ix/tR4jfhgbVWB2Y92g3livAyT3HNkr2bSsd5OmXntO/Ya+fTF22/VEb5/6mFhP GLaVlm5cnXV0RcQs+5uSfdNQTMfN63tt9qHIyGxSvjmbfDUvt/phPOl0x/gdJ/k23Mnq/iV0T5Hp HqM5U5z6JAoWAn9uWGMbTWQsJ9Ixp35sTd/xovJdGh/RrPf3tnc97BRfG1lc/PCvX3TDlY/OOzfR 9jNNHY4ucO7g8NCRM21El+lcykIXGXvmfSuwdpH22rupqpoKprqCKl/156cn9SwbGZ383Pb5j5j1 vDuNwINpKi/yl45+pkHetPU1vCePHUkUlIAB47S6748dTxTtOumkObqgPsnYdlOhXxUtTP0cqjEa KnKTpWeBiFq/Lx7oDUezvzap+ftovLh9283GOSaSKOjD/j7e5Idxx2U2azUqeXo+AAzXecz2Xs8r HVpITao3AFopZr3PjLQesgf71zT+J/IRbDUTF2QNPnTGqY+W+SpyKTRWRVBJ392O/FY7fOWOUw/5 zeYj7v/l4z2zSUrP4ZiMD3xqpo3oFkkU9II5faNpx9cuYm86pZX2Nh8yk069rAN5bc/S+G0csbFu A6ZixZvJTccYwqVjheIxvctGVjYZZ7Uxb8FjP8a0EBpsTotF+99dRNuK1KvnGTtY6rZSOFJP8cX0 OVHN3nQqz/rW1Bi1bxrunJyS1gVm02nmJ7BvXqGqQlhPJtb0Xq9bx5Ftok0eFh7uWb6+ofb7RPww /j1g3VTvrl9JomAxNhnLLRjq7Tri1CeUP0bTP7x8r2dgwzWNn+8eX7jp5NOufsQfXbOtZD2WdThm gtcMDg+dMNNGdIljeFJ6NitR1l4TnUQ1td5Y78mX+7kHMxEJvxXk1X4YL/XDkcubDUw9e+fNDrBD 4IspGvgD8Tnzj1rXKnI3XU69qXizRl1t81Qq5td1rODfl+P6NcQD/UvTDOTGyRH28rq+xdjTMjI7 9dvXHnEw5rx/y2mZFAQ5zrS+tqFulZ1ZkXqTRMELqUaU83CRH9Ztwmf6fHoNZFRboyan3mvw2WzC bcbxR0z496exFR2f74dxZgnYDqjfiKf0vbNJQsv2lPRv27+Onc/eeOqHr3ls/qe2Vozl1g7HzCHA Z4E/mWlDusBsikC1wJgrnL3IqhnTFQlfL3BVBf1Rbzj689bDq3jCAe0rUGZBt4Fcp3BVjy/fJhh5 2BASt76GeQubrU79DuD+ek9IKs+wao/K2HjumrCdUd/JHhxqmaN1PoeeyonWt8NYWvlN1l19kaI5 372gmvn7YizqXw6pKcVOxPujKJJNomA/4JvkC/xuB/51yuiDmQAAFDFJREFUyqN3PnsBxew9Lmrk /MaxNXJL7Sk1twKvMIw/HCCJgudjy6V/mBbNpibTtlM/tmbRsSJNIkzCv/QOGHLcOsTf/+bU7177 2LxXuYZSjjnICweHh15x/ZlX/nCmDekwcyKfnrj/AMDUu8KiuNFkFe2EsvyeyKNADOndIt51FU2v 3pVzbM0dQUU7oCs/mXGqee0xyO2p6tW9Mu/XhKvz6MaD/X8r7wmuVbg0biTmIEKv9VUtet7TIZ8C jie80fpn9MS7avJjqVqbTunGBcs2PJh9vJxofL9l1RmvUTnR+nkzFFPmIomC+cAK6zTskeNmNvRQ dehNpyQTqB+lL1bMX27aXOO9PlUZVJNcK0gep97CLns+a5z3aT+MTf1Z2o/Ue16lSZ+H2C/JtGtv Dw4PfQbmvWq6r+twdJBPDw4PXXn9mVfmlkichcyKY+VWlBNzh0w8g+JGY2SLcfwdIumvNJVtiG5T ZJuHblORx6Sio6XxNObojXusaXbkJ6ApW8QYt1P0a556f1DRbSDbFN3moVtT9e5HiXseOfTedmRA 67AJsBSb53XqrQ5P3OgJFdlidbLzpOwAcMsh85k3z5hPz4biwMgvJz8oGJuziS2fXlVPNH0Os+uM V9cXOdFivsIjPWHc8O/YIY7D7pfdmkXqMAu1CP0Pydc9FhpF6QHC1VuJgscxqC6J2D+f5e2FQ8Ue HbH+Xa1O/RFJFLwK2z1wM/Dvxuu079SXBuLbkqhvM/Csyc9pKucSjExbl8zB4SGPanHG26frmg5H l1gCvBW4eKYN6QS1joSmI3+qBULrumBOU4TUGsHbWdrxtLYjZQJbbL6d/q40MPqudq+bFc+rbFHj abwn3ldL4ch0bsys0evpcuobRgLTijzmeba/vCB5JAYZmz//HFRt/VmUb0xRGoqW7QVq0hxXU4qa FIRFx1k+hwad8ZpBZuWe6Xgfz1jTqZrM4k/IVy+yi0a59Lu4D4NTr+qZP5+ayqFi/Tyltki9H8ab kyh4kOwnCf3YRTD+2Q/juqIFzehAoayqeLyc6g14AvKtnmUjV7e/fjYGh4eKwH/iHHrHU4eP1N7X TwXmTNMpsWpvC7dy7M1tt2fXKd+hLfkT7ltozVHNTepZTxJAlZd0w5YmWJ36/iQK9rZMqMlZHmy8 TsMi6oJUMhfB7ULMHWhhx+pgoapaHQtNRS+d/OBO3Xk8Nkk+02nW2Jojl4EssKxvSo256/D9gcWW 9ely6k2NGTnNTKLgTKqpju049A8An2kxxljgrWbRiELB2EwM8L0dhrSw3VgCOc8BAsP4e4Cvmqyp 0RH1m9KS+BZRPZ1qNGK7iF7o79j3zZ1YOwuDw0M9wPeAN0zXNR2OaeBw4DUzbUSHmPHir2xIQVWn tenUkwvJ3cYZveU/+Kd05NoZ6Cl69wLGzYvOdqe+F/gz45xDsN87GzrA5Yr3gHEtFF5dVbHJikjB 4z+AfSzXEfhFPd13e9MpyiXmT2le1fjCntm5NeiMU/b8EzAex6Wd+pw3Z1q/J5MoOCGJgmuBK6m+ r/NSBl7ZSktdUatqU3+yepGpxkDVfCLM1vGePMEzawqOhU/4YZwrUNSx5lOlpaM3+WG82A/jBaWB 0Xd1InKVhcHhoQVU35Avn47rORzTzAdn2oAOMSfy6ceiYIU5QmhQ3GhKJTXr8QvyqWmL1ldTKTN3 A61xfBL1vb4b5jQgT/Ho67IOTKJgf+ArOa7R0Knfa0X8EHa7nzW+LnhBtqEi5TV9XwH+1HgNVOpq jQOp9fN8q6X4WY3fFwIPZdUZBxAx25/2Foo3GeeYSKLgSOyFoQ/4YWwSIkmiwEui4KQkCi4HVgEn G69Zj3f6Ydzy+1rw7FKs4r0669Dxdf0nCfo31kt4PcXZ5NSvpVqonIuOOfUzweDw0H7ANcBpM22L w9Eljh4cHjp9po1ohyQKfOBY4zSlesOZXsQeKauUih3ZfFQQu9OgrCg/3vOF9q4sMra6L5NetyoG dZHd63+5vH7RUfZ5E1g38PTyXUctyjAyj1N/RhIF57QalETBEqrvyRfnuEaLVBU1v9fTVC/atnpR cyfwluNK5ajvYhHeal1fhJX+QPz9es8pYsxHN6eumOQsbfr0AGKTyxRWc9S6P9iuYaZr6mBJFOyf RMHrkij4JvAgcD2Q2VluwYV+GF+SZaCINf0GEN49Fi1u+fcaW9t/dprqtXkUc7w0yaMh0DHFoUl8 wA/jzF2XJzNn83UHh4cOBK4GzO2AHY45xgepvtfnKkcDPcY5kR/Gj3fDmGaomjtMbpq3eH1d/XEr 85bFm5IoqCs60AwR3ppEwaEe6b8Uww1TVErqEi18WiI9p6OcqfSdIR4HcMshC1p1y/TgRsXsIO5F xftlEvV/3u9NL2TRaIa/q8jY2uA5ip6JcibwXClwPvChFhPzOPUecEkSBXv5YfylyU/WZAZfSjVC n7nIbxJNnXpFVglYFdsGSp738x139p8xb8XIFGepvLrvpTJPzhdz7jgAFRV9T70nylEQiLUzqBr0 3W8/cj/8glEy1FLEKgLBcy3KPbYi39zkSb1ZmkTBJcATVOVhK8A8qn+fAyf9txtB3OuA92YdnKZs ytE1aF8lvWpsbf8ZpYGpRffbVi96Zsnz3k8bp9pSKZh9YT+MNyRRsAXYL+9163CVH8bD7SwwJ536 weGhhcDPyPdl5XDMNV40ODx0zPVnXtnNHL5uMkfy6QG7rR292Qv634rkadZ3Rop3RrI2uBmVuxC9 T5T7VHhclWcKcjCiB6McBBwCPQNo1dHcdY/dudfez+yFjc0uUiqU/jdJx76EsTNw1QnUTyY75UOs DX4uyqYU7hPV+6s67d5Bgh6s6MGKHOzRFyi6Z8RNW0fg/DD+fRIFERBa7KuayBeTKPg4cGPtZz7w AqqnTO2ogUI1d7/JxeUnoFYNa4ClhaJuSqLgHuBGQe9T5ChgmXhi1OqeYI/oxaUlo3c1sNWqH08l zR6pLxeLJwhqy3dPs39flNct6hf0aZb1ven5PsrzPXlU7Wcm+C3waj+MM0vS9vRwQ5JQxh7k2VdV b0iivo2orAK9XYV+QV5Q8ry2/UAp2pqQTeA2oFN1TRXg/e0uMuec+sHhoX6qDn3exggOx1zkg8BZ M21ETuZEPn2t6ZRFoQBV6ejNXvEuAc3fgVs5DvQ4drWJ2t3OqnXfqEIlPZAWTj1L1v6eqO9HIHn7 gOyL8kqlZpdIzSyt/VcQGpiaXbP6cuDjOe17OvCS2k8nafq+8sORNeUo+JXA83OufwRwhHakeZk8 WtLyPzR6VjU9SWzh1s3zlsWZT1DEM0vKVnrT+ZlT1/J0wtVKpdtNp+Yxt7IObgH+olVh7BSCkSeI gp8BQ/kuK0ciHAnyuo626VMJgLqb2BbcSuec+q/4Ybym3UXmVE794PDQcuCXOIfe8cfHqweHhyxN dWYTcyJSXy7bNx+e11k7/XBkDdDVgrxGpJMj4w1Q4evdtqUBWXNlv9tVK/LRMpoo6GzoSVFRSc8m 3PRoowE5JF+7m++O3sWKO7ZlHZ2malyfx/zl96w3zrHSidOg6eJrwPP8ML43z2RBv9dhe9on1bzR /k6dnj8ONNxIW5gzTn3NoV9JnrbBDsfcpwDkj+DOEEkUHMSTLbKzsoWqAsC0IpJaNx9JqdT5YilV +adOr5kFL2MkvGdgw09BzEo9HSCTfX4YR1QLAWcTi5MoaBpc9H3vf6h2kZwxBM7tGRhtnNN7yyHz geWWNe1FrNYiWVtTKBFbkS+wakrzrc6TJ/Ax3ZSBt/lh/NZ2OtiWfO97wO87Z1YHEC9vClOnvv// yQ/jRzqx0Jxw6geHhxZTVbkx5cE5HE8x3lSTcJ1L5Em9WTUjTaeMih7Ard3omN2zdOTHwHc6vW4r puSwNx6ZAm8BMksUdghLd8m/xZr43V3m00oHPBgpI5w7PebUQz5dCuMvNxsxvmD+8RjTdguavelU eW1fP9UUqMx4liLWqvyrSfd8Fjedmk5+CzzfD+NcDZH2IBh5QuEf2zepcyi5I/XrgcynRA2IgS+2 ucZuZr1TPzg8dDjVHHoXoXf8sbM38NqZNsLIjLU9tyEFNXYvFO1e2/hknPeANEyB6Aai2Z1mPxxZ g/LP3bSnDqVaJ9CW+GG8Crisy/ZYWdZqgD8Q/4AZSR+Sy/ww/mirUWlqPs0aL+4zdnPWwR72plNp IXufiPEnSsdh3JRoalDuyc9sjdRXqGqmH+OHcea/Yyt6dux3EVVndlYgENqauVXxwzgF7mjz8h/0 w7hjAZJZ7dQPDg8dDPwc7G1/HY6nKG+baQOMdE17uZOMRf3LzU2npHt27rUifsjzeCWwtVvXmIxV 39l/eOGnUP67W/bUI8Gz2Ph+IFfeb5fI1E9lLE3fDdq8YLlzKPBv/kOHvilbion5NOsODt20I/vw 1JjvLo/2LBnN3Im5gmfNp9ee+WlX+2UkUXAYcHA3r5GDMeAS4Cg/jN/oh3Fn02WOvXnM8+SNgOG9 0VX2H1vX95ycc9vJq1/ph/EP2pg/hVnr1A8ODz2DaoS+b6ZtcThmEScODg8tnWkjspBEQRHI1NRo AjPUdKpijpSlZE8ryENxych1nienUy2i6jpiS2+Bk68d95eOvgH4RlcMqoNXLBlOE+IHgTOAbpx4 3AJ82jgnU9OqBcs2PFgZ914IZHZWc/J7FX2pH8Yf5ORrM8kSijGibG06pWrdNNjWz5FitzZbX4W2 mE1R+jJwMdDvh/Ff+WE82q0LFZeM3KCpvoaqvn4nUYWLRVhpmpRqnqZykD+vPgXel3NuQ2alUz84 PLQvcBV2rWGH448Bc3fIGWIF1VxiC2v9MN7SDWOaoan5Zr+5Nxw1tWfPQ3HJyA0icirdd/DMkfra rNQPR98C8mk6f3OeQqpZ8/6r+GG8Dng5nXPsy8DHqJ5AfRJbPu2KJAoybUrmrRi5byxNXwh6ew4b W6Lwq8q4HN20KHYS5buOWqTGjZ+qZ813t8k6mptCWZvLdS/FbgKzwal/DPgC0OeH8TvyKttY6Vk2 egXom+hcxP6eFF7UE8bvAMnU5XYXguR16vOmznzdD+OOf75nnVNfKwS8Ejhmpm1xOGYpZw8OD1mb d8wEcySfHhCrrZ3Vp29GaWDkVn/HfssUPkB3ovYpcINC0yLJxqj64cjfgTxbqqerHUfhEeAbVMbN WtJ+GP8aWAq0e8x9I9Xc4n/xw3jcD+Ot2PLft2O4ry1YtuFB/6HDjlfR91JVhOoEtwr6Vz3h6Mn1 utA2Qwrj5lQ6NUTSx5/wj8Wa7+5lz6ffcWf/obQqVp6EdDHFbgJbgXVMw6Z4Atupdin/MHA88Aw/ jP/GD+OOdMe24Iejl1GpHEP19CsvqshFPr3Le8P4FwAl7fk+8IfMC0AfK0/J07vplTnmbAXOyzGv JbOq+VTNUfkB8LyZtsXhmMU8HfhzmN585hwUqZ64WehofmEm7ls4D3pGgQ2Z52g6vVrLx9481gPn b70z+KZflHNBXwbkzQGF6k39GkF/VB6XK/ZaET/Urol+OBIBLy6v7nupePKXwJ/SXgv1u4EfeegP i+GG62uqOzlti38H/HkSBa8G3kW1U2zW/jX3AF8CPu+HcWXScxcA50x67AGqTtqun7W1/95nVnU6 +drxHriAuP+ysUQ/rPAq7BKxZeByEfn30sBI7k2ziDdfVS2f5+09YZy5GLKi3v4ipvXpKXmZpVWL xcqzFM+0fkp6nWV8HvwwPg84L4kCH+inugENJ/wspj0N+5TqSdV64BdU6xRv6GRxZrv4yzeu45bj Tir3Pv4uEX0z2WVTFeGGNOW83qUj1+7xTLh6q6zp/1ptU7yLcWAUWAeyVlTXId66UjK2nqM3brHm hiRR0Ae8zDYLgE/VvpM6jmjX5VezMzg8dBSz4yjK4Zjt3H39mVfONi1uxzSy487+Q4vF9KVabdZz IMKBKAdQTZEYA9ks6P0KmxHZrKqbBdnsedxf3Gvn7bYCxhysPKW48xn3Pd8rcAaqixQOFDig9t99 gIep6rJvVtX7xZPNoro5VW8zoqMWh9BKEgWHA2+gWvNxMHBQ7WdHzab7qXaYvNwP46aOYxIF76F6 grIWWO+HcVdzsMfWLHq24r0ckWcrepBU06aeSXWT8lvgXoXfCnIvpPf6xeLVLF7fEQ1sx/RTq006 GNh3ws8+k/5douq4P1Ln57GaSsucIVnXt5xUXgcMgBwCeghwAFV9+82gmxX5P0Uvb5YGuXPtosM9 lbMQWcd4ZZ2fPH2UY28e65idUfB1pm7qW3EvsMQP452dsmMis8qpdzgcDofD4XA4ZjNJFCyievph zXh5nR/GXetDMuty6h0Oh8PhcDgcjlnMedgd+l9206EH59Q7HA6Hw+FwOByZqEXpzzZOq1Ct5+kq zql3OBwOh8PhcDiy8THsUfoL/TC+sxvGTMTl1DscDofD4XA4HC1IouBIqspcFqf+IWBxt4vowUXq HQ6Hw+FwOByOLOSJ0n9oOhx6cE69w+FwOBwOh8PRlCQKlgJvMk67HvjPLphTF+fUOxwOh8PhcDgc zfkCtih9BTjX3HSuDZxT73A4HA6Hw+FwNCCJglcBpxqnXeyH8e3dsKcRrlDW4XA4HA6Hw+GoQxIF 84B1wGGGaQ8DR/lh/Fh3rKqPi9Q7HA6Hw+FwOBz1+TtsDj3AR6bboQcXqXc4HA6Hw+FwOKZQk7CM gF7DtCv8MH5Zl0xqiovUOxwOh8PhcDgcU/kcNof+AeDNXbKlJc6pdzgcDofD4XA4JpBEwenAnxmm KPAmP4wf6ZJJLbEK6DscDofD4XA4HE91fg+8D1gCHFX770FNxp/vh/E102FYI1xOvcPhcDgcDofD 0YIkCvaj6txP/BkAtgAv8MM4mUHz+P8Y1eDF+PdvSgAAAABJRU5ErkJggg== "
       height="254.20126"
       width="986.82233" />
  </g>
</svg>
